------------------------------------------------------------
Server listening on TCP port 5001
TCP window size: 85.3 KByte (default)
------------------------------------------------------------
[  4] local 10.0.0.3 port 5001 connected with 10.0.0.2 port 59626
[  5] local 10.0.0.3 port 5001 connected with 10.0.0.1 port 42307
[  6] local 10.0.0.3 port 5001 connected with 10.0.0.2 port 59628
[  7] local 10.0.0.3 port 5001 connected with 10.0.0.1 port 42309
[  8] local 10.0.0.3 port 5001 connected with 10.0.0.1 port 42310
[  9] local 10.0.0.3 port 5001 connected with 10.0.0.2 port 59631
[ 10] local 10.0.0.3 port 5001 connected with 10.0.0.2 port 59632
[ 11] local 10.0.0.3 port 5001 connected with 10.0.0.1 port 42313
[ 13] local 10.0.0.3 port 5001 connected with 10.0.0.2 port 59635
[ 12] local 10.0.0.3 port 5001 connected with 10.0.0.2 port 59634
[ 14] local 10.0.0.3 port 5001 connected with 10.0.0.1 port 42316
[ 15] local 10.0.0.3 port 5001 connected with 10.0.0.1 port 42317
[ 16] local 10.0.0.3 port 5001 connected with 10.0.0.1 port 42318
[ 19] local 10.0.0.3 port 5001 connected with 10.0.0.2 port 59640
[ 18] local 10.0.0.3 port 5001 connected with 10.0.0.2 port 59639
[ 17] local 10.0.0.3 port 5001 connected with 10.0.0.2 port 59641
[ 20] local 10.0.0.3 port 5001 connected with 10.0.0.2 port 59642
[ 22] local 10.0.0.3 port 5001 connected with 10.0.0.2 port 59644
[ 21] local 10.0.0.3 port 5001 connected with 10.0.0.2 port 59643
[ 23] local 10.0.0.3 port 5001 connected with 10.0.0.1 port 42325
[ 24] local 10.0.0.3 port 5001 connected with 10.0.0.2 port 59646
[ 25] local 10.0.0.3 port 5001 connected with 10.0.0.1 port 42327
[ 26] local 10.0.0.3 port 5001 connected with 10.0.0.1 port 42328
[ 27] local 10.0.0.3 port 5001 connected with 10.0.0.2 port 59649
[ 28] local 10.0.0.3 port 5001 connected with 10.0.0.1 port 42330
[ 29] local 10.0.0.3 port 5001 connected with 10.0.0.2 port 59651
[ 30] local 10.0.0.3 port 5001 connected with 10.0.0.1 port 42332
[ 31] local 10.0.0.3 port 5001 connected with 10.0.0.1 port 42333
[ 32] local 10.0.0.3 port 5001 connected with 10.0.0.2 port 59654
[ 33] local 10.0.0.3 port 5001 connected with 10.0.0.1 port 42335
[ 34] local 10.0.0.3 port 5001 connected with 10.0.0.2 port 59656
[ 35] local 10.0.0.3 port 5001 connected with 10.0.0.1 port 42337
[ 36] local 10.0.0.3 port 5001 connected with 10.0.0.2 port 59658
[ 37] local 10.0.0.3 port 5001 connected with 10.0.0.1 port 42339
[ 38] local 10.0.0.3 port 5001 connected with 10.0.0.2 port 59660
[ 39] local 10.0.0.3 port 5001 connected with 10.0.0.1 port 42341
[ 40] local 10.0.0.3 port 5001 connected with 10.0.0.2 port 59663
[ 41] local 10.0.0.3 port 5001 connected with 10.0.0.2 port 59662
[ 43] local 10.0.0.3 port 5001 connected with 10.0.0.1 port 42344
[ 42] local 10.0.0.3 port 5001 connected with 10.0.0.1 port 42345
[ 44] local 10.0.0.3 port 5001 connected with 10.0.0.2 port 59666
[ 45] local 10.0.0.3 port 5001 connected with 10.0.0.2 port 59667
[ 46] local 10.0.0.3 port 5001 connected with 10.0.0.1 port 42348
[ 47] local 10.0.0.3 port 5001 connected with 10.0.0.2 port 59669
[ 48] local 10.0.0.3 port 5001 connected with 10.0.0.2 port 59670
[ 49] local 10.0.0.3 port 5001 connected with 10.0.0.1 port 42351
[ 50] local 10.0.0.3 port 5001 connected with 10.0.0.1 port 42352
[ 51] local 10.0.0.3 port 5001 connected with 10.0.0.1 port 42353
[ 53] local 10.0.0.3 port 5001 connected with 10.0.0.1 port 42355
[ 52] local 10.0.0.3 port 5001 connected with 10.0.0.2 port 59674
[ 54] local 10.0.0.3 port 5001 connected with 10.0.0.2 port 59676
[ 55] local 10.0.0.3 port 5001 connected with 10.0.0.2 port 59677
[ 57] local 10.0.0.3 port 5001 connected with 10.0.0.1 port 42359
[ 56] local 10.0.0.3 port 5001 connected with 10.0.0.1 port 42358
[ 59] local 10.0.0.3 port 5001 connected with 10.0.0.2 port 59681
[ 58] local 10.0.0.3 port 5001 connected with 10.0.0.2 port 59680
[ 61] local 10.0.0.3 port 5001 connected with 10.0.0.1 port 42363
[ 60] local 10.0.0.3 port 5001 connected with 10.0.0.1 port 42362
[ 63] local 10.0.0.3 port 5001 connected with 10.0.0.2 port 59685
[ 62] local 10.0.0.3 port 5001 connected with 10.0.0.2 port 59684
[ 65] local 10.0.0.3 port 5001 connected with 10.0.0.1 port 42367
[ 64] local 10.0.0.3 port 5001 connected with 10.0.0.1 port 42366
[ 66] local 10.0.0.3 port 5001 connected with 10.0.0.2 port 59688
[ 67] local 10.0.0.3 port 5001 connected with 10.0.0.2 port 59689
[ 68] local 10.0.0.3 port 5001 connected with 10.0.0.1 port 42370
[ 69] local 10.0.0.3 port 5001 connected with 10.0.0.2 port 59691
[ 70] local 10.0.0.3 port 5001 connected with 10.0.0.1 port 42372
[ 71] local 10.0.0.3 port 5001 connected with 10.0.0.1 port 42373
[ 72] local 10.0.0.3 port 5001 connected with 10.0.0.2 port 59694
[ 73] local 10.0.0.3 port 5001 connected with 10.0.0.2 port 59695
[ 74] local 10.0.0.3 port 5001 connected with 10.0.0.1 port 42376
[ 75] local 10.0.0.3 port 5001 connected with 10.0.0.1 port 42377
[ 76] local 10.0.0.3 port 5001 connected with 10.0.0.1 port 42378
[ 77] local 10.0.0.3 port 5001 connected with 10.0.0.2 port 59699
[ 78] local 10.0.0.3 port 5001 connected with 10.0.0.2 port 59700
[ 79] local 10.0.0.3 port 5001 connected with 10.0.0.2 port 59701
[ 81] local 10.0.0.3 port 5001 connected with 10.0.0.1 port 42382
[ 80] local 10.0.0.3 port 5001 connected with 10.0.0.1 port 42383
[ 82] local 10.0.0.3 port 5001 connected with 10.0.0.2 port 59704
[ 83] local 10.0.0.3 port 5001 connected with 10.0.0.2 port 59705
[ 84] local 10.0.0.3 port 5001 connected with 10.0.0.1 port 42386
[ 85] local 10.0.0.3 port 5001 connected with 10.0.0.1 port 42387
[ 87] local 10.0.0.3 port 5001 connected with 10.0.0.2 port 59709
[ 86] local 10.0.0.3 port 5001 connected with 10.0.0.2 port 59708
[ 88] local 10.0.0.3 port 5001 connected with 10.0.0.2 port 59710
[ 89] local 10.0.0.3 port 5001 connected with 10.0.0.1 port 42391
[ 90] local 10.0.0.3 port 5001 connected with 10.0.0.1 port 42392
[ 91] local 10.0.0.3 port 5001 connected with 10.0.0.2 port 59713
[ 92] local 10.0.0.3 port 5001 connected with 10.0.0.1 port 42394
[ 93] local 10.0.0.3 port 5001 connected with 10.0.0.2 port 59715
[ 94] local 10.0.0.3 port 5001 connected with 10.0.0.1 port 42396
[ 95] local 10.0.0.3 port 5001 connected with 10.0.0.2 port 59717
[ 96] local 10.0.0.3 port 5001 connected with 10.0.0.2 port 59718
[ 97] local 10.0.0.3 port 5001 connected with 10.0.0.1 port 42400
[ 99] local 10.0.0.3 port 5001 connected with 10.0.0.1 port 42401
[ 98] local 10.0.0.3 port 5001 connected with 10.0.0.2 port 59719
[100] local 10.0.0.3 port 5001 connected with 10.0.0.2 port 59722
[102] local 10.0.0.3 port 5001 connected with 10.0.0.1 port 42404
[101] local 10.0.0.3 port 5001 connected with 10.0.0.1 port 42403
[103] local 10.0.0.3 port 5001 connected with 10.0.0.2 port 59725
[104] local 10.0.0.3 port 5001 connected with 10.0.0.1 port 42406
[105] local 10.0.0.3 port 5001 connected with 10.0.0.2 port 59727
[106] local 10.0.0.3 port 5001 connected with 10.0.0.1 port 42408
[107] local 10.0.0.3 port 5001 connected with 10.0.0.2 port 59729
[109] local 10.0.0.3 port 5001 connected with 10.0.0.2 port 59730
[108] local 10.0.0.3 port 5001 connected with 10.0.0.2 port 59731
[111] local 10.0.0.3 port 5001 connected with 10.0.0.1 port 42413
[110] local 10.0.0.3 port 5001 connected with 10.0.0.1 port 42412
[112] local 10.0.0.3 port 5001 connected with 10.0.0.2 port 59734
[113] local 10.0.0.3 port 5001 connected with 10.0.0.1 port 42415
[114] local 10.0.0.3 port 5001 connected with 10.0.0.2 port 59736
[115] local 10.0.0.3 port 5001 connected with 10.0.0.2 port 59738
[116] local 10.0.0.3 port 5001 connected with 10.0.0.1 port 42417
[117] local 10.0.0.3 port 5001 connected with 10.0.0.1 port 42419
[118] local 10.0.0.3 port 5001 connected with 10.0.0.2 port 59740
[119] local 10.0.0.3 port 5001 connected with 10.0.0.1 port 42421
[120] local 10.0.0.3 port 5001 connected with 10.0.0.1 port 42422
[121] local 10.0.0.3 port 5001 connected with 10.0.0.2 port 59743
[122] local 10.0.0.3 port 5001 connected with 10.0.0.2 port 59744
[123] local 10.0.0.3 port 5001 connected with 10.0.0.1 port 42425
[124] local 10.0.0.3 port 5001 connected with 10.0.0.2 port 59746
[125] local 10.0.0.3 port 5001 connected with 10.0.0.1 port 42427
[126] local 10.0.0.3 port 5001 connected with 10.0.0.2 port 59748
[127] local 10.0.0.3 port 5001 connected with 10.0.0.2 port 59749
[128] local 10.0.0.3 port 5001 connected with 10.0.0.1 port 42430
[129] local 10.0.0.3 port 5001 connected with 10.0.0.2 port 59751
[130] local 10.0.0.3 port 5001 connected with 10.0.0.1 port 42432
[131] local 10.0.0.3 port 5001 connected with 10.0.0.2 port 59753
[132] local 10.0.0.3 port 5001 connected with 10.0.0.2 port 59754
[133] local 10.0.0.3 port 5001 connected with 10.0.0.2 port 59755
[135] local 10.0.0.3 port 5001 connected with 10.0.0.1 port 42436
[134] local 10.0.0.3 port 5001 connected with 10.0.0.1 port 42437
[137] local 10.0.0.3 port 5001 connected with 10.0.0.1 port 42439
[136] local 10.0.0.3 port 5001 connected with 10.0.0.1 port 42438
[138] local 10.0.0.3 port 5001 connected with 10.0.0.2 port 59760
[139] local 10.0.0.3 port 5001 connected with 10.0.0.1 port 42441
[140] local 10.0.0.3 port 5001 connected with 10.0.0.2 port 59762
[141] local 10.0.0.3 port 5001 connected with 10.0.0.1 port 42443
[142] local 10.0.0.3 port 5001 connected with 10.0.0.2 port 59764
[143] local 10.0.0.3 port 5001 connected with 10.0.0.2 port 59765
[145] local 10.0.0.3 port 5001 connected with 10.0.0.1 port 42447
[144] local 10.0.0.3 port 5001 connected with 10.0.0.1 port 42446
[146] local 10.0.0.3 port 5001 connected with 10.0.0.2 port 59768
[147] local 10.0.0.3 port 5001 connected with 10.0.0.1 port 42449
[148] local 10.0.0.3 port 5001 connected with 10.0.0.2 port 59770
[149] local 10.0.0.3 port 5001 connected with 10.0.0.2 port 59771
[150] local 10.0.0.3 port 5001 connected with 10.0.0.1 port 42453
[152] local 10.0.0.3 port 5001 connected with 10.0.0.2 port 59774
[151] local 10.0.0.3 port 5001 connected with 10.0.0.1 port 42455
[153] local 10.0.0.3 port 5001 connected with 10.0.0.1 port 42452
[155] local 10.0.0.3 port 5001 connected with 10.0.0.1 port 42457
[154] local 10.0.0.3 port 5001 connected with 10.0.0.2 port 59776
[156] local 10.0.0.3 port 5001 connected with 10.0.0.2 port 59778
[157] local 10.0.0.3 port 5001 connected with 10.0.0.1 port 42459
[158] local 10.0.0.3 port 5001 connected with 10.0.0.2 port 59780
[159] local 10.0.0.3 port 5001 connected with 10.0.0.1 port 42461
[160] local 10.0.0.3 port 5001 connected with 10.0.0.2 port 59782
[161] local 10.0.0.3 port 5001 connected with 10.0.0.1 port 42463
[163] local 10.0.0.3 port 5001 connected with 10.0.0.2 port 59785
[162] local 10.0.0.3 port 5001 connected with 10.0.0.1 port 42464
[164] local 10.0.0.3 port 5001 connected with 10.0.0.2 port 59786
[165] local 10.0.0.3 port 5001 connected with 10.0.0.1 port 42467
[166] local 10.0.0.3 port 5001 connected with 10.0.0.1 port 42468
[167] local 10.0.0.3 port 5001 connected with 10.0.0.2 port 59789
[168] local 10.0.0.3 port 5001 connected with 10.0.0.1 port 42470
[170] local 10.0.0.3 port 5001 connected with 10.0.0.2 port 59792
[169] local 10.0.0.3 port 5001 connected with 10.0.0.1 port 42471
[171] local 10.0.0.3 port 5001 connected with 10.0.0.1 port 42473
[172] local 10.0.0.3 port 5001 connected with 10.0.0.2 port 59794
[173] local 10.0.0.3 port 5001 connected with 10.0.0.1 port 42475
[174] local 10.0.0.3 port 5001 connected with 10.0.0.2 port 59796
[175] local 10.0.0.3 port 5001 connected with 10.0.0.1 port 42477
[176] local 10.0.0.3 port 5001 connected with 10.0.0.2 port 59798
[177] local 10.0.0.3 port 5001 connected with 10.0.0.2 port 59799
[178] local 10.0.0.3 port 5001 connected with 10.0.0.1 port 42480
[179] local 10.0.0.3 port 5001 connected with 10.0.0.2 port 59801
[180] local 10.0.0.3 port 5001 connected with 10.0.0.1 port 42482
[181] local 10.0.0.3 port 5001 connected with 10.0.0.1 port 42483
[182] local 10.0.0.3 port 5001 connected with 10.0.0.2 port 59804
[183] local 10.0.0.3 port 5001 connected with 10.0.0.1 port 42485
[184] local 10.0.0.3 port 5001 connected with 10.0.0.2 port 59806
[186] local 10.0.0.3 port 5001 connected with 10.0.0.2 port 59807
[185] local 10.0.0.3 port 5001 connected with 10.0.0.1 port 42488
[187] local 10.0.0.3 port 5001 connected with 10.0.0.2 port 59809
[188] local 10.0.0.3 port 5001 connected with 10.0.0.1 port 42490
[190] local 10.0.0.3 port 5001 connected with 10.0.0.1 port 42492
[189] local 10.0.0.3 port 5001 connected with 10.0.0.2 port 59811
[191] local 10.0.0.3 port 5001 connected with 10.0.0.2 port 59814
[192] local 10.0.0.3 port 5001 connected with 10.0.0.1 port 42493
[193] local 10.0.0.3 port 5001 connected with 10.0.0.1 port 42495
[194] local 10.0.0.3 port 5001 connected with 10.0.0.2 port 59816
[195] local 10.0.0.3 port 5001 connected with 10.0.0.2 port 59817
[196] local 10.0.0.3 port 5001 connected with 10.0.0.2 port 59818
[197] local 10.0.0.3 port 5001 connected with 10.0.0.1 port 42499
[198] local 10.0.0.3 port 5001 connected with 10.0.0.1 port 42500
[199] local 10.0.0.3 port 5001 connected with 10.0.0.2 port 59821
[200] local 10.0.0.3 port 5001 connected with 10.0.0.1 port 42503
[201] local 10.0.0.3 port 5001 connected with 10.0.0.2 port 59822
[202] local 10.0.0.3 port 5001 connected with 10.0.0.2 port 59824
[203] local 10.0.0.3 port 5001 connected with 10.0.0.1 port 42505
[204] local 10.0.0.3 port 5001 connected with 10.0.0.1 port 42506
[206] local 10.0.0.3 port 5001 connected with 10.0.0.1 port 42507
[205] local 10.0.0.3 port 5001 connected with 10.0.0.2 port 59828
[207] local 10.0.0.3 port 5001 connected with 10.0.0.1 port 42509
[208] local 10.0.0.3 port 5001 connected with 10.0.0.2 port 59830
[210] local 10.0.0.3 port 5001 connected with 10.0.0.2 port 59832
[209] local 10.0.0.3 port 5001 connected with 10.0.0.2 port 59831
[211] local 10.0.0.3 port 5001 connected with 10.0.0.1 port 42513
[212] local 10.0.0.3 port 5001 connected with 10.0.0.1 port 42514
[213] local 10.0.0.3 port 5001 connected with 10.0.0.2 port 59835
[214] local 10.0.0.3 port 5001 connected with 10.0.0.1 port 42516
[216] local 10.0.0.3 port 5001 connected with 10.0.0.2 port 59838
[215] local 10.0.0.3 port 5001 connected with 10.0.0.2 port 59837
[217] local 10.0.0.3 port 5001 connected with 10.0.0.1 port 42519
[218] local 10.0.0.3 port 5001 connected with 10.0.0.1 port 42520
[219] local 10.0.0.3 port 5001 connected with 10.0.0.2 port 59841
[220] local 10.0.0.3 port 5001 connected with 10.0.0.2 port 59842
[221] local 10.0.0.3 port 5001 connected with 10.0.0.1 port 42523
[222] local 10.0.0.3 port 5001 connected with 10.0.0.2 port 59844
[224] local 10.0.0.3 port 5001 connected with 10.0.0.1 port 42526
[223] local 10.0.0.3 port 5001 connected with 10.0.0.1 port 42525
[225] local 10.0.0.3 port 5001 connected with 10.0.0.2 port 59847
[226] local 10.0.0.3 port 5001 connected with 10.0.0.1 port 42528
[227] local 10.0.0.3 port 5001 connected with 10.0.0.2 port 59849
[228] local 10.0.0.3 port 5001 connected with 10.0.0.2 port 59850
[229] local 10.0.0.3 port 5001 connected with 10.0.0.1 port 42531
[230] local 10.0.0.3 port 5001 connected with 10.0.0.1 port 42532
[231] local 10.0.0.3 port 5001 connected with 10.0.0.2 port 59853
[232] local 10.0.0.3 port 5001 connected with 10.0.0.2 port 59854
[233] local 10.0.0.3 port 5001 connected with 10.0.0.1 port 42535
[234] local 10.0.0.3 port 5001 connected with 10.0.0.2 port 59856
[235] local 10.0.0.3 port 5001 connected with 10.0.0.1 port 42537
[237] local 10.0.0.3 port 5001 connected with 10.0.0.2 port 59859
[236] local 10.0.0.3 port 5001 connected with 10.0.0.1 port 42538
[238] local 10.0.0.3 port 5001 connected with 10.0.0.1 port 42540
[239] local 10.0.0.3 port 5001 connected with 10.0.0.2 port 59861
[240] local 10.0.0.3 port 5001 connected with 10.0.0.2 port 59862
[241] local 10.0.0.3 port 5001 connected with 10.0.0.1 port 42543
[242] local 10.0.0.3 port 5001 connected with 10.0.0.2 port 59864
[243] local 10.0.0.3 port 5001 connected with 10.0.0.1 port 42546
[244] local 10.0.0.3 port 5001 connected with 10.0.0.2 port 59865
[245] local 10.0.0.3 port 5001 connected with 10.0.0.1 port 42547
[246] local 10.0.0.3 port 5001 connected with 10.0.0.2 port 59868
[247] local 10.0.0.3 port 5001 connected with 10.0.0.1 port 42549
[248] local 10.0.0.3 port 5001 connected with 10.0.0.2 port 59870
[249] local 10.0.0.3 port 5001 connected with 10.0.0.2 port 59871
[252] local 10.0.0.3 port 5001 connected with 10.0.0.2 port 59874
[251] local 10.0.0.3 port 5001 connected with 10.0.0.1 port 42552
[250] local 10.0.0.3 port 5001 connected with 10.0.0.1 port 42553
[253] local 10.0.0.3 port 5001 connected with 10.0.0.2 port 59875
[254] local 10.0.0.3 port 5001 connected with 10.0.0.2 port 59876
[255] local 10.0.0.3 port 5001 connected with 10.0.0.1 port 42557
[256] local 10.0.0.3 port 5001 connected with 10.0.0.1 port 42558
[257] local 10.0.0.3 port 5001 connected with 10.0.0.2 port 59879
[258] local 10.0.0.3 port 5001 connected with 10.0.0.2 port 59880
[259] local 10.0.0.3 port 5001 connected with 10.0.0.1 port 42561
[260] local 10.0.0.3 port 5001 connected with 10.0.0.1 port 42562
[261] local 10.0.0.3 port 5001 connected with 10.0.0.2 port 59883
[262] local 10.0.0.3 port 5001 connected with 10.0.0.2 port 59884
[263] local 10.0.0.3 port 5001 connected with 10.0.0.1 port 42565
[265] local 10.0.0.3 port 5001 connected with 10.0.0.1 port 42567
[264] local 10.0.0.3 port 5001 connected with 10.0.0.1 port 42566
[266] local 10.0.0.3 port 5001 connected with 10.0.0.2 port 59888
[267] local 10.0.0.3 port 5001 connected with 10.0.0.2 port 59889
[269] local 10.0.0.3 port 5001 connected with 10.0.0.1 port 42571
[268] local 10.0.0.3 port 5001 connected with 10.0.0.1 port 42570
[270] local 10.0.0.3 port 5001 connected with 10.0.0.2 port 59892
[271] local 10.0.0.3 port 5001 connected with 10.0.0.1 port 42573
[272] local 10.0.0.3 port 5001 connected with 10.0.0.2 port 59894
[273] local 10.0.0.3 port 5001 connected with 10.0.0.1 port 42575
[274] local 10.0.0.3 port 5001 connected with 10.0.0.2 port 59896
[275] local 10.0.0.3 port 5001 connected with 10.0.0.1 port 42577
[276] local 10.0.0.3 port 5001 connected with 10.0.0.2 port 59898
[277] local 10.0.0.3 port 5001 connected with 10.0.0.1 port 42579
[278] local 10.0.0.3 port 5001 connected with 10.0.0.2 port 59900
[280] local 10.0.0.3 port 5001 connected with 10.0.0.1 port 42582
[279] local 10.0.0.3 port 5001 connected with 10.0.0.2 port 59901
[281] local 10.0.0.3 port 5001 connected with 10.0.0.2 port 59903
[282] local 10.0.0.3 port 5001 connected with 10.0.0.1 port 42584
[283] local 10.0.0.3 port 5001 connected with 10.0.0.1 port 42585
[284] local 10.0.0.3 port 5001 connected with 10.0.0.2 port 59906
[285] local 10.0.0.3 port 5001 connected with 10.0.0.1 port 42588
[286] local 10.0.0.3 port 5001 connected with 10.0.0.2 port 59907
[287] local 10.0.0.3 port 5001 connected with 10.0.0.1 port 42589
[288] local 10.0.0.3 port 5001 connected with 10.0.0.2 port 59910
[289] local 10.0.0.3 port 5001 connected with 10.0.0.1 port 42591
[290] local 10.0.0.3 port 5001 connected with 10.0.0.2 port 59912
[291] local 10.0.0.3 port 5001 connected with 10.0.0.1 port 42593
[292] local 10.0.0.3 port 5001 connected with 10.0.0.2 port 59914
[293] local 10.0.0.3 port 5001 connected with 10.0.0.1 port 42595
[294] local 10.0.0.3 port 5001 connected with 10.0.0.1 port 42596
[295] local 10.0.0.3 port 5001 connected with 10.0.0.2 port 59917
[296] local 10.0.0.3 port 5001 connected with 10.0.0.2 port 59918
[297] local 10.0.0.3 port 5001 connected with 10.0.0.1 port 42599
[298] local 10.0.0.3 port 5001 connected with 10.0.0.2 port 59920
[299] local 10.0.0.3 port 5001 connected with 10.0.0.2 port 59922
[300] local 10.0.0.3 port 5001 connected with 10.0.0.1 port 42603
[301] local 10.0.0.3 port 5001 connected with 10.0.0.1 port 42601
[302] local 10.0.0.3 port 5001 connected with 10.0.0.2 port 59924
[303] local 10.0.0.3 port 5001 connected with 10.0.0.2 port 59925
[304] local 10.0.0.3 port 5001 connected with 10.0.0.1 port 42606
[306] local 10.0.0.3 port 5001 connected with 10.0.0.1 port 42608
[305] local 10.0.0.3 port 5001 connected with 10.0.0.2 port 59927
[307] local 10.0.0.3 port 5001 connected with 10.0.0.1 port 42609
[308] local 10.0.0.3 port 5001 connected with 10.0.0.2 port 59930
[309] local 10.0.0.3 port 5001 connected with 10.0.0.1 port 42611
[310] local 10.0.0.3 port 5001 connected with 10.0.0.2 port 59932
[311] local 10.0.0.3 port 5001 connected with 10.0.0.1 port 42613
[312] local 10.0.0.3 port 5001 connected with 10.0.0.2 port 59934
[314] local 10.0.0.3 port 5001 connected with 10.0.0.2 port 59935
[313] local 10.0.0.3 port 5001 connected with 10.0.0.1 port 42616
[315] local 10.0.0.3 port 5001 connected with 10.0.0.1 port 42617
[316] local 10.0.0.3 port 5001 connected with 10.0.0.2 port 59938
[317] local 10.0.0.3 port 5001 connected with 10.0.0.2 port 59939
[319] local 10.0.0.3 port 5001 connected with 10.0.0.1 port 42621
[318] local 10.0.0.3 port 5001 connected with 10.0.0.1 port 42620
[320] local 10.0.0.3 port 5001 connected with 10.0.0.2 port 59942
[321] local 10.0.0.3 port 5001 connected with 10.0.0.1 port 42624
[323] local 10.0.0.3 port 5001 connected with 10.0.0.1 port 42625
[322] local 10.0.0.3 port 5001 connected with 10.0.0.2 port 59943
[324] local 10.0.0.3 port 5001 connected with 10.0.0.1 port 42626
[325] local 10.0.0.3 port 5001 connected with 10.0.0.2 port 59947
[326] local 10.0.0.3 port 5001 connected with 10.0.0.2 port 59948
[327] local 10.0.0.3 port 5001 connected with 10.0.0.2 port 59949
[328] local 10.0.0.3 port 5001 connected with 10.0.0.1 port 42630
[329] local 10.0.0.3 port 5001 connected with 10.0.0.2 port 59951
[330] local 10.0.0.3 port 5001 connected with 10.0.0.1 port 42632
[331] local 10.0.0.3 port 5001 connected with 10.0.0.2 port 59953
[332] local 10.0.0.3 port 5001 connected with 10.0.0.1 port 42634
[333] local 10.0.0.3 port 5001 connected with 10.0.0.1 port 42635
[334] local 10.0.0.3 port 5001 connected with 10.0.0.2 port 59956
[335] local 10.0.0.3 port 5001 connected with 10.0.0.1 port 42637
[337] local 10.0.0.3 port 5001 connected with 10.0.0.1 port 42639
[336] local 10.0.0.3 port 5001 connected with 10.0.0.2 port 59958
[338] local 10.0.0.3 port 5001 connected with 10.0.0.1 port 42640
[339] local 10.0.0.3 port 5001 connected with 10.0.0.2 port 59961
[340] local 10.0.0.3 port 5001 connected with 10.0.0.2 port 59962
[341] local 10.0.0.3 port 5001 connected with 10.0.0.1 port 42643
[342] local 10.0.0.3 port 5001 connected with 10.0.0.1 port 42644
[343] local 10.0.0.3 port 5001 connected with 10.0.0.2 port 59965
[344] local 10.0.0.3 port 5001 connected with 10.0.0.2 port 59966
[345] local 10.0.0.3 port 5001 connected with 10.0.0.1 port 42647
[347] local 10.0.0.3 port 5001 connected with 10.0.0.1 port 42649
[346] local 10.0.0.3 port 5001 connected with 10.0.0.2 port 59968
[348] local 10.0.0.3 port 5001 connected with 10.0.0.2 port 59970
[349] local 10.0.0.3 port 5001 connected with 10.0.0.1 port 42651
[350] local 10.0.0.3 port 5001 connected with 10.0.0.1 port 42652
[351] local 10.0.0.3 port 5001 connected with 10.0.0.2 port 59973
[352] local 10.0.0.3 port 5001 connected with 10.0.0.2 port 59974
[354] local 10.0.0.3 port 5001 connected with 10.0.0.1 port 42656
[353] local 10.0.0.3 port 5001 connected with 10.0.0.1 port 42655
[355] local 10.0.0.3 port 5001 connected with 10.0.0.2 port 59977
[356] local 10.0.0.3 port 5001 connected with 10.0.0.1 port 42658
[357] local 10.0.0.3 port 5001 connected with 10.0.0.2 port 59979
[358] local 10.0.0.3 port 5001 connected with 10.0.0.2 port 59980
[359] local 10.0.0.3 port 5001 connected with 10.0.0.1 port 42661
[360] local 10.0.0.3 port 5001 connected with 10.0.0.2 port 59982
[361] local 10.0.0.3 port 5001 connected with 10.0.0.1 port 42663
[362] local 10.0.0.3 port 5001 connected with 10.0.0.1 port 42664
[363] local 10.0.0.3 port 5001 connected with 10.0.0.2 port 59985
[364] local 10.0.0.3 port 5001 connected with 10.0.0.1 port 42666
[365] local 10.0.0.3 port 5001 connected with 10.0.0.2 port 59987
[366] local 10.0.0.3 port 5001 connected with 10.0.0.1 port 42668
[367] local 10.0.0.3 port 5001 connected with 10.0.0.2 port 59989
[368] local 10.0.0.3 port 5001 connected with 10.0.0.2 port 59990
[369] local 10.0.0.3 port 5001 connected with 10.0.0.2 port 59991
[370] local 10.0.0.3 port 5001 connected with 10.0.0.1 port 42672
[371] local 10.0.0.3 port 5001 connected with 10.0.0.2 port 59993
[372] local 10.0.0.3 port 5001 connected with 10.0.0.1 port 42674
[373] local 10.0.0.3 port 5001 connected with 10.0.0.1 port 42675
[374] local 10.0.0.3 port 5001 connected with 10.0.0.2 port 59996
[376] local 10.0.0.3 port 5001 connected with 10.0.0.1 port 42678
[375] local 10.0.0.3 port 5001 connected with 10.0.0.1 port 42677
[377] local 10.0.0.3 port 5001 connected with 10.0.0.2 port 59999
[378] local 10.0.0.3 port 5001 connected with 10.0.0.1 port 42680
[379] local 10.0.0.3 port 5001 connected with 10.0.0.2 port 60001
[380] local 10.0.0.3 port 5001 connected with 10.0.0.2 port 60002
[381] local 10.0.0.3 port 5001 connected with 10.0.0.1 port 42683
[382] local 10.0.0.3 port 5001 connected with 10.0.0.2 port 60004
[383] local 10.0.0.3 port 5001 connected with 10.0.0.1 port 42685
[384] local 10.0.0.3 port 5001 connected with 10.0.0.2 port 60006
[385] local 10.0.0.3 port 5001 connected with 10.0.0.1 port 42687
[386] local 10.0.0.3 port 5001 connected with 10.0.0.2 port 60008
[387] local 10.0.0.3 port 5001 connected with 10.0.0.1 port 42689
[388] local 10.0.0.3 port 5001 connected with 10.0.0.2 port 60010
[389] local 10.0.0.3 port 5001 connected with 10.0.0.1 port 42691
[390] local 10.0.0.3 port 5001 connected with 10.0.0.2 port 60012
[391] local 10.0.0.3 port 5001 connected with 10.0.0.1 port 42693
[392] local 10.0.0.3 port 5001 connected with 10.0.0.2 port 60014
[393] local 10.0.0.3 port 5001 connected with 10.0.0.2 port 60015
[394] local 10.0.0.3 port 5001 connected with 10.0.0.1 port 42696
[395] local 10.0.0.3 port 5001 connected with 10.0.0.1 port 42697
[396] local 10.0.0.3 port 5001 connected with 10.0.0.2 port 60018
[397] local 10.0.0.3 port 5001 connected with 10.0.0.1 port 42699
[398] local 10.0.0.3 port 5001 connected with 10.0.0.2 port 60020
[399] local 10.0.0.3 port 5001 connected with 10.0.0.2 port 60021
[400] local 10.0.0.3 port 5001 connected with 10.0.0.1 port 42702
[401] local 10.0.0.3 port 5001 connected with 10.0.0.2 port 60023
[402] local 10.0.0.3 port 5001 connected with 10.0.0.1 port 42704
[403] local 10.0.0.3 port 5001 connected with 10.0.0.1 port 42705
[404] local 10.0.0.3 port 5001 connected with 10.0.0.2 port 60026
[405] local 10.0.0.3 port 5001 connected with 10.0.0.1 port 42707
[406] local 10.0.0.3 port 5001 connected with 10.0.0.2 port 60028
[407] local 10.0.0.3 port 5001 connected with 10.0.0.2 port 60029
[408] local 10.0.0.3 port 5001 connected with 10.0.0.1 port 42710
[409] local 10.0.0.3 port 5001 connected with 10.0.0.1 port 42711
[410] local 10.0.0.3 port 5001 connected with 10.0.0.2 port 60032
[411] local 10.0.0.3 port 5001 connected with 10.0.0.1 port 42713
[412] local 10.0.0.3 port 5001 connected with 10.0.0.2 port 60034
[413] local 10.0.0.3 port 5001 connected with 10.0.0.2 port 60035
[414] local 10.0.0.3 port 5001 connected with 10.0.0.1 port 42716
[415] local 10.0.0.3 port 5001 connected with 10.0.0.1 port 42718
[416] local 10.0.0.3 port 5001 connected with 10.0.0.2 port 60037
[417] local 10.0.0.3 port 5001 connected with 10.0.0.1 port 42719
[418] local 10.0.0.3 port 5001 connected with 10.0.0.2 port 60040
[420] local 10.0.0.3 port 5001 connected with 10.0.0.1 port 42722
[419] local 10.0.0.3 port 5001 connected with 10.0.0.2 port 60041
[421] local 10.0.0.3 port 5001 connected with 10.0.0.1 port 42723
[422] local 10.0.0.3 port 5001 connected with 10.0.0.2 port 60044
[423] local 10.0.0.3 port 5001 connected with 10.0.0.1 port 42725
[424] local 10.0.0.3 port 5001 connected with 10.0.0.2 port 60046
[425] local 10.0.0.3 port 5001 connected with 10.0.0.1 port 42727
[426] local 10.0.0.3 port 5001 connected with 10.0.0.2 port 60048
[427] local 10.0.0.3 port 5001 connected with 10.0.0.1 port 42729
[428] local 10.0.0.3 port 5001 connected with 10.0.0.2 port 60050
[429] local 10.0.0.3 port 5001 connected with 10.0.0.1 port 42731
[430] local 10.0.0.3 port 5001 connected with 10.0.0.2 port 60052
[431] local 10.0.0.3 port 5001 connected with 10.0.0.1 port 42733
[432] local 10.0.0.3 port 5001 connected with 10.0.0.2 port 60054
[433] local 10.0.0.3 port 5001 connected with 10.0.0.1 port 42735
[434] local 10.0.0.3 port 5001 connected with 10.0.0.2 port 60056
[435] local 10.0.0.3 port 5001 connected with 10.0.0.2 port 60057
[436] local 10.0.0.3 port 5001 connected with 10.0.0.2 port 60058
[437] local 10.0.0.3 port 5001 connected with 10.0.0.1 port 42740
[438] local 10.0.0.3 port 5001 connected with 10.0.0.1 port 42739
[439] local 10.0.0.3 port 5001 connected with 10.0.0.1 port 42741
[440] local 10.0.0.3 port 5001 connected with 10.0.0.1 port 42742
[442] local 10.0.0.3 port 5001 connected with 10.0.0.2 port 60063
[441] local 10.0.0.3 port 5001 connected with 10.0.0.1 port 42744
[443] local 10.0.0.3 port 5001 connected with 10.0.0.2 port 60065
[444] local 10.0.0.3 port 5001 connected with 10.0.0.2 port 60066
[446] local 10.0.0.3 port 5001 connected with 10.0.0.1 port 42748
[445] local 10.0.0.3 port 5001 connected with 10.0.0.1 port 42747
[447] local 10.0.0.3 port 5001 connected with 10.0.0.1 port 42749
[448] local 10.0.0.3 port 5001 connected with 10.0.0.2 port 60070
[449] local 10.0.0.3 port 5001 connected with 10.0.0.2 port 60071
[450] local 10.0.0.3 port 5001 connected with 10.0.0.2 port 60072
[451] local 10.0.0.3 port 5001 connected with 10.0.0.2 port 60073
[453] local 10.0.0.3 port 5001 connected with 10.0.0.1 port 42754
[452] local 10.0.0.3 port 5001 connected with 10.0.0.1 port 42755
[455] local 10.0.0.3 port 5001 connected with 10.0.0.1 port 42757
[454] local 10.0.0.3 port 5001 connected with 10.0.0.2 port 60076
[456] local 10.0.0.3 port 5001 connected with 10.0.0.2 port 60078
[457] local 10.0.0.3 port 5001 connected with 10.0.0.1 port 42759
[458] local 10.0.0.3 port 5001 connected with 10.0.0.2 port 60080
[459] local 10.0.0.3 port 5001 connected with 10.0.0.2 port 60081
[460] local 10.0.0.3 port 5001 connected with 10.0.0.1 port 42762
[461] local 10.0.0.3 port 5001 connected with 10.0.0.2 port 60083
[462] local 10.0.0.3 port 5001 connected with 10.0.0.1 port 42764
[463] local 10.0.0.3 port 5001 connected with 10.0.0.1 port 42765
[464] local 10.0.0.3 port 5001 connected with 10.0.0.2 port 60086
[465] local 10.0.0.3 port 5001 connected with 10.0.0.1 port 42767
[466] local 10.0.0.3 port 5001 connected with 10.0.0.2 port 60088
[467] local 10.0.0.3 port 5001 connected with 10.0.0.1 port 42769
[468] local 10.0.0.3 port 5001 connected with 10.0.0.2 port 60090
[469] local 10.0.0.3 port 5001 connected with 10.0.0.1 port 42771
[470] local 10.0.0.3 port 5001 connected with 10.0.0.2 port 60092
[471] local 10.0.0.3 port 5001 connected with 10.0.0.2 port 60093
[473] local 10.0.0.3 port 5001 connected with 10.0.0.1 port 42775
[472] local 10.0.0.3 port 5001 connected with 10.0.0.1 port 42774
[474] local 10.0.0.3 port 5001 connected with 10.0.0.1 port 42776
[475] local 10.0.0.3 port 5001 connected with 10.0.0.2 port 60097
[476] local 10.0.0.3 port 5001 connected with 10.0.0.2 port 60098
[477] local 10.0.0.3 port 5001 connected with 10.0.0.1 port 42779
[478] local 10.0.0.3 port 5001 connected with 10.0.0.2 port 60100
[479] local 10.0.0.3 port 5001 connected with 10.0.0.1 port 42781
[480] local 10.0.0.3 port 5001 connected with 10.0.0.2 port 60102
[481] local 10.0.0.3 port 5001 connected with 10.0.0.1 port 42783
[483] local 10.0.0.3 port 5001 connected with 10.0.0.2 port 60105
[482] local 10.0.0.3 port 5001 connected with 10.0.0.1 port 42784
[484] local 10.0.0.3 port 5001 connected with 10.0.0.2 port 60106
[485] local 10.0.0.3 port 5001 connected with 10.0.0.1 port 42787
[486] local 10.0.0.3 port 5001 connected with 10.0.0.2 port 60108
[487] local 10.0.0.3 port 5001 connected with 10.0.0.1 port 42789
[488] local 10.0.0.3 port 5001 connected with 10.0.0.1 port 42790
[489] local 10.0.0.3 port 5001 connected with 10.0.0.2 port 60111
[490] local 10.0.0.3 port 5001 connected with 10.0.0.2 port 60112
[491] local 10.0.0.3 port 5001 connected with 10.0.0.1 port 42793
[492] local 10.0.0.3 port 5001 connected with 10.0.0.2 port 60114
[493] local 10.0.0.3 port 5001 connected with 10.0.0.1 port 42795
[494] local 10.0.0.3 port 5001 connected with 10.0.0.2 port 60116
[495] local 10.0.0.3 port 5001 connected with 10.0.0.1 port 42797
[496] local 10.0.0.3 port 5001 connected with 10.0.0.2 port 60118
[497] local 10.0.0.3 port 5001 connected with 10.0.0.1 port 42799
[498] local 10.0.0.3 port 5001 connected with 10.0.0.2 port 60120
[499] local 10.0.0.3 port 5001 connected with 10.0.0.1 port 42801
[500] local 10.0.0.3 port 5001 connected with 10.0.0.2 port 60122
[501] local 10.0.0.3 port 5001 connected with 10.0.0.2 port 60123
[503] local 10.0.0.3 port 5001 connected with 10.0.0.1 port 42805
[502] local 10.0.0.3 port 5001 connected with 10.0.0.1 port 42804
[504] local 10.0.0.3 port 5001 connected with 10.0.0.1 port 42806
[505] local 10.0.0.3 port 5001 connected with 10.0.0.2 port 60127
[506] local 10.0.0.3 port 5001 connected with 10.0.0.1 port 42808
[507] local 10.0.0.3 port 5001 connected with 10.0.0.2 port 60129
[508] local 10.0.0.3 port 5001 connected with 10.0.0.2 port 60130
[509] local 10.0.0.3 port 5001 connected with 10.0.0.1 port 42811
[510] local 10.0.0.3 port 5001 connected with 10.0.0.1 port 42812
[511] local 10.0.0.3 port 5001 connected with 10.0.0.2 port 60133
[512] local 10.0.0.3 port 5001 connected with 10.0.0.1 port 42814
[513] local 10.0.0.3 port 5001 connected with 10.0.0.2 port 60135
[515] local 10.0.0.3 port 5001 connected with 10.0.0.2 port 60137
[514] local 10.0.0.3 port 5001 connected with 10.0.0.1 port 42816
[516] local 10.0.0.3 port 5001 connected with 10.0.0.2 port 60138
[517] local 10.0.0.3 port 5001 connected with 10.0.0.1 port 42819
[518] local 10.0.0.3 port 5001 connected with 10.0.0.1 port 42820
[519] local 10.0.0.3 port 5001 connected with 10.0.0.1 port 42821
[520] local 10.0.0.3 port 5001 connected with 10.0.0.2 port 60142
[521] local 10.0.0.3 port 5001 connected with 10.0.0.1 port 42823
[522] local 10.0.0.3 port 5001 connected with 10.0.0.1 port 42824
[523] local 10.0.0.3 port 5001 connected with 10.0.0.2 port 60145
[524] local 10.0.0.3 port 5001 connected with 10.0.0.1 port 42826
[525] local 10.0.0.3 port 5001 connected with 10.0.0.2 port 60147
[526] local 10.0.0.3 port 5001 connected with 10.0.0.2 port 60148
[527] local 10.0.0.3 port 5001 connected with 10.0.0.2 port 60149
[528] local 10.0.0.3 port 5001 connected with 10.0.0.1 port 42830
[529] local 10.0.0.3 port 5001 connected with 10.0.0.1 port 42831
[531] local 10.0.0.3 port 5001 connected with 10.0.0.2 port 60153
[530] local 10.0.0.3 port 5001 connected with 10.0.0.2 port 60152
[532] local 10.0.0.3 port 5001 connected with 10.0.0.1 port 42834
[533] local 10.0.0.3 port 5001 connected with 10.0.0.2 port 60155
[534] local 10.0.0.3 port 5001 connected with 10.0.0.2 port 60156
[535] local 10.0.0.3 port 5001 connected with 10.0.0.1 port 42837
[536] local 10.0.0.3 port 5001 connected with 10.0.0.2 port 60158
[538] local 10.0.0.3 port 5001 connected with 10.0.0.1 port 42840
[537] local 10.0.0.3 port 5001 connected with 10.0.0.1 port 42839
[539] local 10.0.0.3 port 5001 connected with 10.0.0.2 port 60161
[540] local 10.0.0.3 port 5001 connected with 10.0.0.1 port 42842
[541] local 10.0.0.3 port 5001 connected with 10.0.0.1 port 42843
[542] local 10.0.0.3 port 5001 connected with 10.0.0.2 port 60164
[543] local 10.0.0.3 port 5001 connected with 10.0.0.2 port 60165
[544] local 10.0.0.3 port 5001 connected with 10.0.0.2 port 60166
[545] local 10.0.0.3 port 5001 connected with 10.0.0.1 port 42847
[546] local 10.0.0.3 port 5001 connected with 10.0.0.1 port 42848
[547] local 10.0.0.3 port 5001 connected with 10.0.0.2 port 60169
[548] local 10.0.0.3 port 5001 connected with 10.0.0.2 port 60170
[549] local 10.0.0.3 port 5001 connected with 10.0.0.1 port 42851
[550] local 10.0.0.3 port 5001 connected with 10.0.0.1 port 42852
[551] local 10.0.0.3 port 5001 connected with 10.0.0.2 port 60173
[552] local 10.0.0.3 port 5001 connected with 10.0.0.2 port 60174
[553] local 10.0.0.3 port 5001 connected with 10.0.0.2 port 60175
[554] local 10.0.0.3 port 5001 connected with 10.0.0.1 port 42856
[555] local 10.0.0.3 port 5001 connected with 10.0.0.1 port 42857
[556] local 10.0.0.3 port 5001 connected with 10.0.0.2 port 60178
[557] local 10.0.0.3 port 5001 connected with 10.0.0.1 port 42859
[558] local 10.0.0.3 port 5001 connected with 10.0.0.2 port 60180
[559] local 10.0.0.3 port 5001 connected with 10.0.0.1 port 42861
[560] local 10.0.0.3 port 5001 connected with 10.0.0.1 port 42862
[561] local 10.0.0.3 port 5001 connected with 10.0.0.2 port 60183
[562] local 10.0.0.3 port 5001 connected with 10.0.0.1 port 42864
[563] local 10.0.0.3 port 5001 connected with 10.0.0.2 port 60185
[564] local 10.0.0.3 port 5001 connected with 10.0.0.1 port 42866
[565] local 10.0.0.3 port 5001 connected with 10.0.0.2 port 60187
[566] local 10.0.0.3 port 5001 connected with 10.0.0.1 port 42868
[567] local 10.0.0.3 port 5001 connected with 10.0.0.2 port 60189
[569] local 10.0.0.3 port 5001 connected with 10.0.0.1 port 42870
[568] local 10.0.0.3 port 5001 connected with 10.0.0.2 port 60191
[570] local 10.0.0.3 port 5001 connected with 10.0.0.1 port 42872
[571] local 10.0.0.3 port 5001 connected with 10.0.0.2 port 60193
[572] local 10.0.0.3 port 5001 connected with 10.0.0.1 port 42874
[573] local 10.0.0.3 port 5001 connected with 10.0.0.1 port 42875
[574] local 10.0.0.3 port 5001 connected with 10.0.0.2 port 60196
[575] local 10.0.0.3 port 5001 connected with 10.0.0.2 port 60197
[576] local 10.0.0.3 port 5001 connected with 10.0.0.2 port 60198
[577] local 10.0.0.3 port 5001 connected with 10.0.0.1 port 42879
[578] local 10.0.0.3 port 5001 connected with 10.0.0.1 port 42880
[579] local 10.0.0.3 port 5001 connected with 10.0.0.2 port 60201
[580] local 10.0.0.3 port 5001 connected with 10.0.0.2 port 60202
[586] local 10.0.0.3 port 5001 connected with 10.0.0.2 port 60208
[587] local 10.0.0.3 port 5001 connected with 10.0.0.2 port 60209
[588] local 10.0.0.3 port 5001 connected with 10.0.0.1 port 42890
[590] local 10.0.0.3 port 5001 connected with 10.0.0.2 port 60212
[592] local 10.0.0.3 port 5001 connected with 10.0.0.1 port 42894
[585] local 10.0.0.3 port 5001 connected with 10.0.0.1 port 42887
[591] local 10.0.0.3 port 5001 connected with 10.0.0.1 port 42893
[584] local 10.0.0.3 port 5001 connected with 10.0.0.1 port 42886
[589] local 10.0.0.3 port 5001 connected with 10.0.0.2 port 60211
[583] local 10.0.0.3 port 5001 connected with 10.0.0.1 port 42885
[582] local 10.0.0.3 port 5001 connected with 10.0.0.1 port 42883
[581] local 10.0.0.3 port 5001 connected with 10.0.0.2 port 60204
[599] local 10.0.0.3 port 5001 connected with 10.0.0.1 port 42895
[596] local 10.0.0.3 port 5001 connected with 10.0.0.2 port 60222
[597] local 10.0.0.3 port 5001 connected with 10.0.0.1 port 42903
[598] local 10.0.0.3 port 5001 connected with 10.0.0.1 port 42904
[600] local 10.0.0.3 port 5001 connected with 10.0.0.1 port 42897
[601] local 10.0.0.3 port 5001 connected with 10.0.0.2 port 60220
[595] local 10.0.0.3 port 5001 connected with 10.0.0.1 port 42901
[603] local 10.0.0.3 port 5001 connected with 10.0.0.1 port 42905
[594] local 10.0.0.3 port 5001 connected with 10.0.0.1 port 42899
[602] local 10.0.0.3 port 5001 connected with 10.0.0.2 port 60218
[593] local 10.0.0.3 port 5001 connected with 10.0.0.2 port 60216
