13973
20140415192831,10.0.0.4,34586,10.0.0.5,5001,3,0.0-1.0,1310720,10485760
20140415192832,10.0.0.4,34586,10.0.0.5,5001,3,1.0-2.0,1179648,9437184
20140415192833,10.0.0.4,34586,10.0.0.5,5001,3,2.0-3.0,1179648,9437184
20140415192834,10.0.0.4,34586,10.0.0.5,5001,3,3.0-4.0,1310720,10485760
20140415192835,10.0.0.4,34586,10.0.0.5,5001,3,4.0-5.0,1179648,9437184
20140415192836,10.0.0.4,34586,10.0.0.5,5001,3,5.0-6.0,1179648,9437184
20140415192837,10.0.0.4,34586,10.0.0.5,5001,3,6.0-7.0,1179648,9437184
20140415192838,10.0.0.4,34586,10.0.0.5,5001,3,7.0-8.0,1179648,9437184
20140415192839,10.0.0.4,34586,10.0.0.5,5001,3,8.0-9.0,1179648,9437184
20140415192840,10.0.0.4,34586,10.0.0.5,5001,3,9.0-10.0,1179648,9437184
20140415192841,10.0.0.4,34586,10.0.0.5,5001,3,10.0-11.0,1179648,9437184
20140415192842,10.0.0.4,34586,10.0.0.5,5001,3,11.0-12.0,1179648,9437184
20140415192843,10.0.0.4,34586,10.0.0.5,5001,3,12.0-13.0,1310720,10485760
20140415192844,10.0.0.4,34586,10.0.0.5,5001,3,13.0-14.0,1179648,9437184
20140415192845,10.0.0.4,34586,10.0.0.5,5001,3,14.0-15.0,1179648,9437184
20140415192846,10.0.0.4,34586,10.0.0.5,5001,3,15.0-16.0,1179648,9437184
20140415192847,10.0.0.4,34586,10.0.0.5,5001,3,16.0-17.0,1179648,9437184
20140415192848,10.0.0.4,34586,10.0.0.5,5001,3,17.0-18.0,1179648,9437184
20140415192849,10.0.0.4,34586,10.0.0.5,5001,3,18.0-19.0,1179648,9437184
20140415192850,10.0.0.4,34586,10.0.0.5,5001,3,19.0-20.0,1179648,9437184
20140415192851,10.0.0.4,34586,10.0.0.5,5001,3,20.0-21.0,1179648,9437184
20140415192852,10.0.0.4,34586,10.0.0.5,5001,3,21.0-22.0,1310720,10485760
20140415192853,10.0.0.4,34586,10.0.0.5,5001,3,22.0-23.0,1179648,9437184
20140415192854,10.0.0.4,34586,10.0.0.5,5001,3,23.0-24.0,1179648,9437184
20140415192855,10.0.0.4,34586,10.0.0.5,5001,3,24.0-25.0,1179648,9437184
20140415192856,10.0.0.4,34586,10.0.0.5,5001,3,25.0-26.0,1179648,9437184
20140415192857,10.0.0.4,34586,10.0.0.5,5001,3,26.0-27.0,1179648,9437184
20140415192858,10.0.0.4,34586,10.0.0.5,5001,3,27.0-28.0,1179648,9437184
20140415192859,10.0.0.4,34586,10.0.0.5,5001,3,28.0-29.0,1179648,9437184
20140415192900,10.0.0.4,34586,10.0.0.5,5001,3,29.0-30.0,1310720,10485760
20140415192900,10.0.0.4,34586,10.0.0.5,5001,3,0.0-30.2,36175872,9576162
