10611
20140224184254,10.0.0.2,45494,10.0.0.5,5001,3,0.0-1.0,393216,3145728
20140224184255,10.0.0.2,45494,10.0.0.5,5001,3,1.0-2.0,262144,2097152
20140224184256,10.0.0.1,55773,10.0.0.5,5001,3,2.0-3.0,393216,3145728
20140224184257,10.0.0.4,50199,10.0.0.5,5001,3,3.0-4.0,393216,3145728
20140224184258,10.0.0.4,50199,10.0.0.5,5001,3,4.0-5.0,262144,2097152
20140224184259,10.0.0.1,55773,10.0.0.5,5001,3,5.0-6.0,393216,3145728
20140224184300,10.0.0.2,45494,10.0.0.5,5001,3,6.0-7.0,393216,3145728
20140224184301,10.0.0.1,55773,10.0.0.5,5001,3,7.0-8.0,393216,3145728
20140224184302,10.0.0.3,32833,10.0.0.5,5001,3,8.0-9.0,262144,2097152
20140224184303,10.0.0.2,45494,10.0.0.5,5001,3,9.0-10.0,393216,3145728
20140224184304,10.0.0.1,55773,10.0.0.5,5001,3,10.0-11.0,262144,2097152
20140224184305,10.0.0.1,55773,10.0.0.5,5001,3,11.0-12.0,262144,2097152
20140224184306,10.0.0.2,45494,10.0.0.5,5001,3,12.0-13.0,262144,2097152
20140224184307,10.0.0.1,55773,10.0.0.5,5001,3,13.0-14.0,393216,3145728
20140224184308,10.0.0.1,55773,10.0.0.5,5001,3,14.0-15.0,262144,2097152
20140224184309,10.0.0.1,55773,10.0.0.5,5001,3,15.0-16.0,262144,2097152
20140224184310,10.0.0.4,50199,10.0.0.5,5001,3,16.0-17.0,262144,2097152
20140224184311,10.0.0.2,45494,10.0.0.5,5001,3,17.0-18.0,393216,3145728
20140224184312,10.0.0.4,50199,10.0.0.5,5001,3,18.0-19.0,262144,2097152
20140224184313,10.0.0.4,50199,10.0.0.5,5001,3,19.0-20.0,262144,2097152
20140224184317,10.0.0.2,45494,10.0.0.5,5001,3,20.0-21.0,393216,3145728
20140224184317,10.0.0.2,45494,10.0.0.5,5001,3,21.0-22.0,0,0
20140224184320,10.0.0.2,45494,10.0.0.5,5001,3,22.0-23.0,131072,1048576
20140224184320,10.0.0.2,45494,10.0.0.5,5001,3,23.0-24.0,0,0
20140224184320,10.0.0.2,45494,10.0.0.5,5001,3,24.0-25.0,0,0
20140224184321,10.0.0.2,45494,10.0.0.5,5001,3,25.0-26.0,131072,1048576
20140224184321,10.0.0.2,45494,10.0.0.5,5001,3,26.0-27.0,0,0
20140224184321,10.0.0.2,45494,10.0.0.5,5001,3,27.0-28.0,131072,1048576
20140224184322,10.0.0.2,45494,10.0.0.5,5001,20140224184322,10.0.0.1,55720140224184323,10.0.0.2,45494,10.0.0.5,5001,20140224184323,10.0.0.1,55773,10.0.0.5,5001,3,29.0-30.0,131072,1048576
20140224184323,10.0.0.1,55773,10.0.0.5,5001,3,0.0-30.8,8257536,2143387

