20140221125725,10.0.0.2,33243,10.0.0.3,5001,3,0.0-1.0,0,0
20140221125726,10.0.0.2,33173,10.0.0.3,5001,3,1.0-2.0,131020140221125727,10.0.0.2,33241,10.0.0.3,5001,3,2.0-3.0,131020140221125728,10.0.0.2,33227,10.0.0.3,5001,3,3.0-4.0,131020140221125728,10.0.0.2,33230,10.0.0.3,5001,3,4.0-5.0,131020140221125729,10.0.0.20140221125729,10.0.0.2,33235,10.0.0.3,5001,3,520140221125731,10.0.0.2,33212,10.0.0.3,5001,3,6.0-7.0,131020140221125731,10.0.0.2,33230,10.0.0.3,5001,3,7.0-8.0,131020140221125731,10.0.0.20140221125732,10.0.0.2,33235,10.0.0.3,5001,3,820140221125733,10.0.0.2,33237,10.0.0.3,5001,3,9.0-10.0,131020140221125735,10.0.0.2,33212,10.0.0.3,5001,3,10.0-11.0,131072,1048576
20140221125735,10.0.0.2,33212,10.0.0.3,5001,3,11.0-12.0,0,0
20140221125735,10.0.0.2,33241,10.0.0.3,5001,20140221125736,10.0.0.2,33120140221125736,10.0.0.2,33201,10.0.0.3,5001,3,13.2014022112520140221125739,10.0.0.2,33173,10.0.0.3,5001,3,14.0-15.0,131072,1048576
20140221125739,10.0.0.2,33173,10.0.0.3,5001,3,15.0-16.0201402014022112520140221125739,10.0.0.20140221125741,10.0.0.2,33220140221125741,10.0.0.2,33241,10.0.0.3,5001,3,17.20140221125741,10.0.0.20140221125742,1020140221125742,10.0.0.2,33232,10.0.0.3,5001,3,17.0-18.20140221125743,10.0.0.2,33203,10.0.0.3,5001,3,19.20140221125745,10.0.0.2,33241,10.20140221125745,10.0.0.2,33224,10.0.0.3,5001,3,20.20140221125746,10.0.0.2,33218,10.0.0.3,5001,3,21.0-22.0,131072,1048576
20140221125746,10.0.0.2,33218,10.0.0.3,5001,3,22.20140221125746,10.0.0.2,33203,10.0.0.32014022112520140221125749,10.0.0.2,33241,10.20140221125749,10.0.0.2,33224,10.0.0.3,5001,3,24.0-25.0,131072,1048576
20140221125749,10.0.0.2,33224,10.0.0.3,5001,3,25.0-26.0,0,0
20140221125749,10.0.0.2,33220140221125751,10.0.0.2,33173,10.0.0.3,5001,3,27.0-28.0,131020140221125752,10.0.0.2,33212,10.0.0.3,5001,3,28.0-29.0,131072,1048576
201402211252014022112520140221125752,10.0.0.2,33224,10.0.0.3201402211252014022112520140221125754,10.0.0.2,33218,10.0.0.3,5001,3,30.0-31.0,131020140220140221125755,10.0.0.2,33232,10.0.0.3,5001,3,30.0-31.0,1310201402014022112520140221125756,10.0.0.2,33199,10.0.0.3,5001,3,32.0-33.0,131072,1048576
20140221125756,10.0.0.2,33185,10.0.0.32014022112520140221125757,10.0.0.2,33224,10.20140221125757,10.0.0.2,332201402211252201402211220140221125758,10.0.0.2,3322014022112520140221125759,10.0.0.2,33218,10.0.0.3,5001,3,36.0-37.0,131072,10420140221125800,10.0.0.2,33178,10.0.0.320140221125801,12014022112520140221125801,10.0.0.2,33218,10.20140221125802,10.0.0.2,33157,10.0.0.3,5001,3,38.0-39.0,131020140221125802,10.0.0.2,33201,10.0.0.3201402211252014022112520140221125804,10.0.0.2,33229,10.0.0.320140221125804,1020140221125804,10.0.0.2,33156,10.0.0.3,5001,3,40.20140220140221125805,10.0.020140220140221125806,10.0.0.2,33220140221125806,10.0.0.2,33220140221125808,10.0.0.2,33229,10.0.0.3,5001,3,43.0-44.0,131072,1048576
20140221125808,10.0.0.2,33229,10.0.0.3,5001,3,44.0-45.0,0,0
20140221125808,10.0.0.2,33201,10.0.0.3,5001,3,45.0-46.0,131020140221125811,10.0.0.2,33224,10.0.0.3,5001,3,46.0-47.0,131020140221125811,10.0.0.20140221125811,10.0.0.2,33185,10.0.0.3,5001,3,47.20140221125811,10.0.0.2,33201,10.0.0.3,5001,20140221125812,10.0.0.2,33236,10.0.0.320140221125812,10.0.0.2,33241,10.0.0.320140221125813,10.0.0.2,33219,10.20140221125814,10.0.0.2,33120140221125814,10.0.0.2,33229,10.20140221125815,10.0.0.2,33241,10.0.0.3,5001,3,51.20140221125816,10.0.0.2,33218,10.0.0.3,5001,3,52.0-53.0,131072,1048576
20140221125816,10.0.0.2,33218,10.0.0.320140221125816,10.0.0.2,33229,10.0.0.3,5001,2014022112520140221125817,10.0.0.2,3322014022112520140221125819,10.0.0.2,33241,10.0.0.3,5001,3,55.0-56.0,131072,1048576
2014022112520140221125820,10.0.0.2,33120140221125820,10.0.0.2,33229,10.0.0.3,20140221125820,120140221125821,10.0.0.2,33220140221125823,10.0.0.2,33241,10.0.0.3,5001,3,58.0-59.0,131072,1048576
20140221125823,10.0.0.2,33241,10.0.0.3,5001,3,59.0-60.0,0,0
2014022112520140221125823,10.0.0.20140221125823,10.0.0.2,33220140221125825,10.0.0.2,33219,10.0.0.3,5001,3,61.0-62.0,131072,1048576
2014022112520140221125825,10.0.0.2,33178,10.0.0.3,5001,3,62.0-63.0,131072,1048576
20140221125826,10.0.0.2,3320201402211220140221125827,10.0.0.2,33219,10.0.0.3,5001,3,64.0-65.0,131072,1048576
20140221125827,1020140221125828,10.0.0.2,33216,10.0.0.32014020140221125829,10.0.0.2,33241,10.0.0.3,5001,3,66.0201402211220140221125830,10.0.0.2,33219,10.20140221125831,10.0.0.2,33173,10.0.0.320140221125832,10.0.0.2,33241,10.0.0.3,5001,3,68.0-69.0,131072,1048576
20140221125832,10.0.0.20140221125833,10.0.0.20140221125834,10.0.0.2,33227,10.0.0.320140221125834,10.0.0.2,33203,10.0.0.320140221125834,10.0.0.20140221125835,10.0.0.2,33173,10.0.0.3,5001,3,71.0-72.0,131072,1048576
20140221125836,10.0.0.2,33218,10.0.0.3,5001,3,72.0-73.0,131072,1048576
2014022112520140221125836,10.0.0.2,33220140221125837,10.0.0.2,33219,10.0.0.3,5001,3,74.0-75.0,13102014022112520140221125838,10.0.0.20140221125838,10.0.0.2,33201,10.0.0.320140221125839,10.0.0.2,33219,10.0.0.3,5001,3,76.0-77.0,131072,1048576
2014022014020140221125840,10.0.0.2,33212,10.20140221125840,10.0.0.2,3322014022112520140221125841,10.0.0.2,33201,10.0.0.3201402211252014022112520140221125842,10.0.0.2,33212,10.0.0.3,5001,3,79.0-80.0,131072,1048576
20140221125842,10.0.0.2,33212,10.0.0.320140221125846,10.0.0.2,33219,10.0.0.3,5001,3,81.0-82.0,131072,1048576
20140221125846,10.0.0.2,33219,10.0.0.3,5001,3,82.0-83.0,0,0
20140221125846,10.0.0.2,33219,10.0.0.3,5001,3,83.0-84.0,0,0
20140221125846,10.0.0.2,33219,10.20140221125847,10.0.0.2,33241,10.0.0.3,5001,20140221125849,10.0.0.2,33227,10.0.0.3,5001,3,84.0-85.0,131072,1048576
20140221125849,120140221125850,10.0.0.2,33241,10.0.0.3,5001,3,86.0-87.0,131020140221125850,10201402211220140221125851,10.0.0.2,33219,10.0.0.3,5001,3,88.0-89.0,131072,10420140221125852,10.0.0.2,33229,10.0.0.320140221125852,10.0.0.2,33220140221125853,10.0.0.2,33219,10.0.0.3,5001,20140221125854,10.0.0.2,33212,10.0.0.3,5001,3,90.2014022112520140221125854,10.0.0.2,33241,10.0.0.3,5001,3,91.20140221125855,10.0.0.2,33185,10.0.0.320140221125856,10.0.0.2,33219,10.0.0.3,5001,3,93.0-94.0,131072,1048576
20140221125856,10.0.0.2,33219,10.20140221125857,10.0.0.2,33203,10.0.0.3,5001,3,94.0-95.0,131072,1048576
20140221125857,120140221125859,10.0.0.2,33219,10.0.0.3,5001,3,96.0-97.0,131072,1048576
20140221125859,10.0.0.2,33219,10.20140221125900,10.0.0.2,33203,10.0.0.3,5001,3,97.0-98.0,131072,1048576
20140221125901,120140221125920140221125901,10.0.0.2,33224,10.0.0.3,5001,3,97.0-98.0,131072,1048576
2014020140221125902,10.0.0.2,332220140221125903,10.0.0.2,33212,10.0.0.3,5001,3,100.0-101.0,131072,1048576
20140221125904,10.20140221125904,20140221125904,10.20140221125905,10.0.0.2,33203,10.0.0.3,5001,3,102.0-103.0,131072,1048576
20140221125906,10.0.0.2,33185,10.0.0.201402220140221125906,10.0.0.2,3323020140221125907,10.0.0.2,3320120140221125908,10.0.0.20140221125910,10.0.0.2,33203,10.0.0.3,5001,3,105.0-106.0,131072,1048576
20140221125910,10.0.0.2,33203,10.0.0.3,520140221125911,10.0.0.2,33219,10.0.0.3,5001,3,107.0-108.0,131072,1048576
201420140221125911,10.0.0.2,33230,10.0.0.3,5001,3,107.0-108.0,131072,104820140221125912,10.0.0.2,33203,10.0.0.3,5001,3,109.020140221125913,10.0.0.2,33219,10.0.0.3,5001,3,110.0-11120140221125913,10.0.0.2014022112520140221125913,10.0.0.2,33227,10.20140221125914,10.0.0.2,320140221125915,10.0.0.2,33203,10.2014022112520140221125916,10.0.0.2,33212,10.0.0.3,5001,3,112.0-113.0,131072,1048576
20140221125916,20120140221125917,10.0.0.2,3320140221125918,10.0.0.2,33241,10.0.0.3,5001,3,113.0-114.0,131072,1048576
20140221125918,10.0.0.2,33241,10.0.0.3,5001,3,114.0-115.0,0,0
201402220140221125918,10.0.0.2,3321220140221125920,10.0.0.20140221125920,10.0.0.2,33219,10.0.0.3,5001,3,117.0-118.0,131072,120140221125922,10.0.0.2,33241,10.0.0.3,5001,3,117.0-118.0,131072,1048576
20140221125922,10.0.0.2,33241,10.0.0.3,5001,3,118.0-119.0,20140221125923,10.0.0.2,33219,10.0.0.3,5001,201402220140221125924,10.0.0.2,33203,10.0.0.3,5001,3,121.0-122.0,131072,1048576
20140221125924,10.0.0.2,332014022201420140221125925,10.0.0.2,320140221125926,10.0.0.2,33203,10.0.0.3,5001,3,123.0-124.0,131072,1048576
20140221125926,10.0.0.2,33203,10.20140221125927,10.0.0.2,33201,10.0.0.3,5001,3,124.0-125.0,131072,1201402211252014022112592820140221125929,10.0.0.2,33203,10.0.0.3,5001,3,126.0-127.0,131072,1048576
20140221125929,10.0.0.20140221125930,10.0.0.20140221125930,10.20140221125930,10.0.0.2,33203,10.0.0.20140221125931,10.0.0.2,33230,10.0.0.3,5001,3,127.0-128.0,131072,1048576
20140221125932,10.0.0.2,320140221125932,10.0.0.2,33203,10.20140221125933,10.0.0.2,33219,10.0.0.3,5001,3,130.0-131.0,131072,1201402220140221125934,10.0.0.2,3320120140221125935,10.0.0.2,33203,10.20140221125935,10.0.0.2,33219,10.0.0.3,5001,3,132.0-133.0,131072,1048576
20140221125937,10.0.0.2,3320120140221125937,10.0.0.2,33203,10.0.0.3,5001,3,134.0-135.0,131072,1048576
20140221125937,10.0.0.2,33203,10.0.0.3,5001,20140221125938,10.0.0.2,33212,10.0.0.3,5001,201402220140221125940,20140221125940,10.0.0.2,33232,10.0.0.3,5001,3,135.0-136.0,131072,1048576
20140221125940,10.0.0.2,33232,10.0.0.3,5001,3,12014022112520140221125942,10.20140221125942,10.0.0.2,33203,10.0.0.3,5001,20140221125942,10.0.0.2,33219,10.0.0.3,5001,3,139.0-140.0,131072,120140221125942,10.0.0.20120140221125944,10.0.0.2,33203,10.0.0.3,5001,20140221125944,10.0.0.2,33212,10.0.0.3,5001,3,141.0-142.0,131072,1048576
20140221125944,10.20140221125946,10.0.0.2,33203,10.0.0.3,5001,3,143.0-144.0,131072,1048576
20140221125946,20140221125946,10.0.0.2,33173,10.0.0.3,5001,3,120140221125949,10.0.0.2,33203,10.0.0.3,5001,3,145.0-146.0,131072,1048576
20140221125949,10.0.0.2,33203,10.0.0.3,5001,3,146.0-147.0,0,0
20140221125949,10.0.0.2,33203,10.0.0.3,5001,3,147.0-148.0,0,0
20140221125949,10.0.0.2,33203,10.0.0.3,502014022112595020140221125951,10.0.0.2,33219,10.0.0.3,5001,3,148.0-149.0,131072,1048576
20140221125951,10.0.0.2,33219,10.0.0.3,5001,3,149.0-1502014201201402220140221125953,20140221125955,10.0.0.2,33201,10.0.0.3,5001,3,150.0-151.0,131072,1048576
20140221125955,10.0.0.2,33201,10.0.0.3,5201402220140221125956,10.0.0.2,33203,10.0.0.3,5001,3,153.0-154.0,131072,1048576
20140221125956,10.0.0.2,33203,10.0.0.3,5001,3,154.0-155.0,020120140221125958,10.0.0.2,33203,10.0.0.3,5001,3,155.0-15620140221125958,10.0.0.2,33212,10.0.0.3,5001,3,155.0-156.0,131072,12014022112595920140221125959,10.0.0.2,33203,10.0.0.3,5001,3,157.0-158.0,131072,1048576
20140221125959,10.0.0.2,33203,10.0.0.3,5001,20140221130000,20140221130002,10.0.0.2,33227,10.0.0.3,5001,3,157.0-158.0,131072,1048576
20140221130002,10.0.0.2,33227,10.0.0.3,5001,3,158.0-159.0,0,0
20120140221130003,10.0.0.2,33203,10.0.0.3,5001,3,161.0-162.0,120140221130003,10.0.0.2,33204,10.0.0.3,5001,3,160.0-161.0,131020140221130006,10.0.0.2,33227,10.0.0.3,5001,3,161.0-162.0,131072,1048576
2014022113000620140221130006,10.0.0.2,33203,10.0.0.3,5001,3,164.0-165.0,131072,1048576
20140221130006,10.0.0.2,33203,10.0.0.20140221130007,10.20140221130007,10.0.0.2,33219,10.0.0.3,5001,2014022113020140221130008,10.201402220140221130008,10.0.0.2,33203,10.0.0.3,5001,3,16201402220140221130010,10.20140221130010,10.0.0.2,33203,10.0.0.3,5001,3,1620140221130010,10.0.0.2,33218,10.0.0.3,5001,3,167.0-168.0,131020140222014022113020140221130012,10.0.0.2,33212,10.0.0.3,5001,3,169.0-170.0,131020140221130012,10.20140221130013,10.0.0.2,33203,10.0.0.20140221130013,10.20140221130014,10.0.0.2,33212,10.20140221130014,10.0.0.2,3323220140221130014,10.20140221130015,10.0.0.2,33203,10.0.0.20140221130015,10.0.0.2,33157,10.0.0.3,5001,3,172.0-173.0,131020140221130016,10.20140221130017,10.0.0.2,33201,10.0.0.3,5001,3,174.0-175.0,131072,1048576
20140221130017,10.20140221130019,10.0.0.2,33203,10.0.0.3,5001,3,176.0-177.0,131072,1048576
20140221130019,10.0.0.2,33203,10.0.0.3,5001,3,177.0-178.0,0,0
20140221130021,10.0.0.2,33203,10.0.0.3,5001,3,178.0-179.0,131072,1048576
20140221130021,10.0.0.2,33203,10.0.0.3,5001,3,179.0-180.0,0,0
20140221130021,10.0.0.2,33203,10.0.0.3,5001,20140221130022,20120140221130023,10.0.0.2,33203,10.0.0.20140221130023,10.20140221130024,10.20140221130025,10.0.0.2,33203,10.0.0.3,5001,3,182.0-183.0,131072,1048576
20140221130025,10.0.0.2,33203,10.0.0.3,5001,3,183.0-184.0,0,0
220140221130026,10.0.0.2,320140221130026,10.0.0.2,33229,10.0.020140221130027,10.020140221130027,10.20140221130027,10.20140221130028,10.20140221130028,10.0.0.2,33203,10.0.0.3,5001,3,186.0-18720140221130029,10.20140221130029,20140221130030,10.0.0.2,3322920140221130030,10.0.0.2,33201,10.0.0.3,5001,3,187.0-18820140221130030,10.20140221130030,10.0.0.2,33212,10.0.0.3,5001,3,188.0-189201402220140221130032,10.0.0.2,33201201420140221130033,10.0.0.2,33229,10.0.0.3,5001,3,189.0-190.0,131072,1048576
20140221130033,10.0.0.2,33229,10.0.0.3,5001,3,190.0-191.0,20140221130034,10.0.0.2,33203,10.0.0.3,5001,3,192.0-193.0,131072,1048576
201420140221130036,10.0.0.2,33185,10.0.0.3,520140221130036,10.0.0.2,33212,10.0.0.3,5001,3,193.0-194.0,131072,1048576
20140221130036,10.20140221130037,20140221130037,10.0.0.2,33219,10.0.0.3,520140221130038,10.20140221130039,10.0.0.2,33203,10.0.0.3,5001,3,196.0-197.0,131072,1048576
20140221130039,10.0.0.2,33203,10.0.0.3,5001,3,197.0-198.0,0,0
20140221130039,10.0.0.2,33203,10.0.0.3,5001,20140221130041,10.20140221130042,10.0.0.2,33203,10.0.0.3,5001,3,199.0-200.0,131072,1048576
20140221130042,10.0.0.2,33203,10.0.0.3,5001,3,200.0-201.0,0,0
20140221130042,10.0.0.2,33201402220140221130044,10.0.0.2,3321220140221130045,10.0.0.2,33203,10.0.0.3,5001,3,202.0-203.0,131072,1048576
20140221130045,10.0.0.2,33201402220140221130046,10.0.0.2,33212,10.0.0.3,5001,3,203.0-204.0,131072,1048576
20140221130046,10.20140221130047,10.0.0.2,33203,10.0.0.20140221130047,10.0.0.2,33232,10.0.0.3,5001,3,204.0-205.0,1310201402220140221130048,10.0.0.2,3321220140221130049,10.0.0.2,33203,10.0.0.20140221130049,10.0.0.2,33204,10.0.020140221130050,10.0.0.2,33203,10.0.0.3,5001,3,208.0-209.0,131072,1048576
20140221130050,10.0.0.2,33201402220140221130051,10.0.0.2,3321220140221130052,10.0.0.2,3320140221130052,20140221130053,10.0.0.2,33241,10.0.0.3,5001,3,208.0-209.0,2014022201420140221130053,10.0.0.2,320140221130053,10.0.0.2,33203,10.0.0.20140221130054,10.0.0.2,33201,10.0.020140221130055,10.0.0.2,33203,10.0.0.3,5001,3,213.0-214.0,131072,1201402220140221130056,10.020140221130057,10.20140221130057,10.0.0.2,33229,10.0.0.3,5001,3,213.0-214.0,131072,104820140221130057,10.0.0.20140221130058,10.0.0.2,33155,10.0.0.3,5001,3,215.0-216.0,131072,1048576
201402220140221130059,2014022113020140221130100,10.0.0.2,33229,10.0.0.3,5001,3,216.0-217.0,131072,1048576
20140222014022113020140221130100,10.20142014022113020140221130102,10.0.0.2,33232,10.0.0.3,5001,3,218.0-219.0,20140221130103,10.0.0.2,33203,10.0.0.3,5001,20140221130103,10.0.0.2,33155,10.0.0.3,5001,3,220.0-221.0,131072,1048576
20140221130201402220140221130106,10.0.0.2,33203,10.0.0.3,5001,3,222.0-223.0,131072,1048576
20140221130106,10.0.0.2,33203,10.0.0.3,5001,3,223.0-224.0,0,0
20140221130106,20140221130106,10.0.0.2,33227,10.2014022113010620140221130109,10.0.0.2,33203,10.0.0.3,5001,3,225.0-226.0,131072,1048576
20140221130109,20140221130109,10.20140221130109,10.0.0.2,33212,10.0.0.3,5001,3,226.0-227.0,131072,120140221130110,10.0.0.2,320140221130111,10.0.0.2,33203,10.0.0.3,5001,3,228.0-229.0,131072,1048576
20140221130111,20140221130201402220140221130112,10.0.0.2,3321220140221130113,10.0.0.2,33203,10.0.0.3,5001,3,230.0-231.0,131072,1048576
20140221130113,20140221130114,10.0.0.2,33232,10.0.0.3,5001,3,220140221130114,10.0.0.2,33203,10.20140221130115,10.0.0.2,33212,10.0.0.3,5001,3,232.0-233.0,131072,1048576
20140221130115,10.0.0.2,3321220140221130116,10.0.0.2,33203,10.0.0.3,5001,20140221130116,10.0.0.2,33155,10.0.0.3,5001,3,234.0201420140221130117,10.0.0.2,33229,10.0.020140221130118,10.0.0.2,33203,10.2014022113020140221130119,20140221130119,10.0.0.2,33201,10.0.0.3,5001,3,235.0-236.0,131072,1048576
20120140221130120,10.0.0.2,33203,10.0.0.3,5001,3,238.0-239.0,131072,1048576
20140221130120,20140221130120,10.20140221130121,10.0.0.2,33212,10.0.0.3,5001,3,239.0-24020140221130122,20140221130122,10.0.0.2,33230,1020140221130123,10.0.0.2,33203,10.20140221130123,10.0.0.2,33212,10.0.0.3,5001,3,241.0-24220140221130124,10.0.0.2,33232,10.0.0.3,5001,3,220140221130125,10.0.0.2,33203,20120140221130127,10.0.0.2,33155,10.0.0.3,5001,3,243.0-244.0,131072,1048576
20140221130127,10.0.0.2,33155,10.0.0.3,5001,3,244.0-245.0,0,0
20140221130128,10.0.0.2,33212,10.0.0.3,520140221130130,10.0.0.2,33203,10.0.0.3,5001,3,246.0-247.0,131072,1048576
20140221130130,10.0.0.2,33203,10.0.0.3,5001,3,247.0-248.0,0,0
20140221130130,10.0.0.20140221130130,10.0.0.2,33212,10.0.0.3,520140221130133,10.0.0.2,33203,10.0.0.3,5001,3,249.0-250.0,131072,1048576
20140221130133,10.0.0.2,33203,10.0.0.3,5001,3,250.0-251.0,0,0
20140221130133,20140221130133,10.0.0.2,33232,10.0.0.3,5001,3,220140221130135,10.0.0.2,33203,10.0.0.3,5001,3,252.0-253.0,131072,1048576
20140221130135,10.0.0.2,33203,10.20140221130136,10.0.0.2,33212,10.0.0.3,5001,3,253.0-254.0,131072,1048576
20140221130136,10.20140221130137,10.0.0.2,33203,10.0.0.3,5001,20140221130139,10.0.0.2,33212,10.0.0.3,5001,3,255.0-256.0,131072,1048576
20140221130139,10.0.0.2,33212,10.0.0.3,5001,3,256.0-257.0,0,0
20140221130139,10.0.0.2,3321220140221130140,10.0.0.2,33203,10.0.0.3,5001,3,258.0-259.0,12014022113014120140221130143,10.0.0.2,33203,10.0.0.3,5001,3,259.0-260.0,131072,1048576
20140221130143,10.0.0.2,33203,10.0.0.3,5001,3,260.0-261.0,0,0
20140221130143,10.0.0.20140221130143,10.0.0.2,33212,10.0.0.3,520140221130144,10.0.0.2,33203,10.0.0.3,5001,3,262.0-263.0,131072,1048576
2014022120140221130144,10.0.0.2,33186,10.0.0.3,52014022113014520140221130145,10.0.0.2,33201402220140221130146,10.0.0.2,33212,10.0.0.3,5001,3,264.0-265.0,131072,1048576
20140221130146,20140221130147,10.0.0.2,320140221130148,10.0.0.20140221130149,10.0.0.2,33212,10.0.0.3,5001,3,266.020140221130149,10.0.0.2,3320140221130149,10.0.0.20140221130149,10.0.0.2,32014022113020140221130150,20140221130151,10.0.0.2,33201,10.0.0.3,5001,3,220140221130153,10.0.0.2,33203,10.0.0.3,5001,3,269.0-270.0,131072,1048576
20140221130153,10.0.0.2,33203,10.0.0.3,5001,3,270.0-27120140221130153,10.0.0.2,33155,10.0.0.3,5001,20140221130153,10.0.0.20120140221130155,10.0.0.2,33203,10.0.0.3,5001,3,272.0-273.0,131072,1048576
20140221130155,10.0.0.2,33203,10.0.0.3,5001,3,273.0-274.0,0,0
2014022113020140221130157,10.0.0.2,33212,10.0.0.3,5001,3,274.0-275.0,131072,1048576
20140221130157,10.0.0.2,33212,10.0.0.3,5001,3,275.0-276.0,0,0
20140221130157,20140221130158,10.0.0.2,33232,10.0.02014022113020140221130200,10.0.0.2,33212,10.0.0.3,5001,3,277.0-278.0,131072,1048576
20140221130200,20140221130200,10.0.0.2,33232,10.0.02014022113020140221130202,10.0.0.2,33212,10.0.0.3,5001,3,279.0-280.0,131072,1048576
20140221130202,20140221130202,10.0.0.2,33232,10.0.0.3,5001,3,220140221130204,10.0.0.2,33212,10.0.0.3,5001,3,282014022113020420140221130205,10.0.0.2,33203,10.0.0.3,5001,3,282.0-283.0,131072,1048576
20140221130205,20140221130206,10.0.0.2,33201,10.0.0.3,5001,3,282.0-283.0,131072,1048576
20140221130207,10.0.0.2,33232,10.0.02014022120140221130207,10.0.0.2,33229,10.0.0.3,520140221130207,10.0.0.2,33186,10.0.020140221130209,10.0.0.2,33212,10.0.0.3,5001,3,286.020140221130209,10.0.0.2,3320140221130209,10.0.0.2,33232,10.0.0.3,5001,3,286.0-287.0,20140221130211,10.0.0.2,33212,10.0.0.3,5001,3,288.0-289.0,131072,1048576
201420140221130211,10.0.0.2,33232,10.201402211302122014022113020140221130212,10.0.0.2,33212,10.0.0.3,5001,3,2920140221130212,10.0.0.2,33229,10.0.0.3,5001,3,289.0-2902014022201402211302142014022113020140221130214,10.020140221130215,10.0.0.2,33224,10.0.0.3,5001,3,290.0-291.0,131072,1048576
20140221130215,10.0.0.2,3322420120140221130216,10.0.0.2,33203,10.0.0.3,5001,3,2920140221130216,10.0.0.2,32014022113020140221130218,10.0.0.2,33212,10.0.0.3,5001,3,295.0-296.0,131072,1048576
20140221130218,10.0.0.2,3320140221130218,10.0.0.2,32014022113020140221130220,10.0.0.2,33212,10.0.0.3,5001,3,297.0-298.0,131020140221130221,10.0.0.2,33203,10.0.0.3,5001,3,298.0-299.0,131072,1048576
201420140221130222,10.0.0.2,33201,10.0.0.3,5001,3,298.0-299.0,20140221130223,10.0.0.2,33212,10.0.0.3,5001,3,300.0-301.0,131072,1048576
20140221130223,10.0.0.2,3320140221130223,10.0.0.2,33186,10.0.020140221130225,10.0.0.2,33212,10.0.0.3,5001,3,302.0-303.0,131072,1048576
20140221130225,10.0.0.2,33212,10.0.0.20140221130225,10.0.0.2,320140221130226,10.0.0.2,3320140221130227,10.0.0.2,33186,10.0.0.3,5001,3,320140221130228,10.0.0.2,33212,10.0.0.3,5001,3,305.0-306.0,131072,1048576
20140221130228,10.0.0.2,33212,10.0.0.3,5001,3,306.0-30720140221130229,10.0.0.2,33201,10.0.0.3,5001,3,306.0-3072014022113022920140221130230,10.0.0.2,3320140221130231,10.0.0.2,33185,10.0.0.3,5001,3,320140221130232,10.0.0.2,33212,10.0.0.3,5001,3,309.0-310.0,131072,1048576
20140221130232,10.0.0.2,33212,10.20140221130232,10.0.0.201402220140221130234,10.0.0.2,33212,10.0.0.3,5001,20140221130234,10.0.0.2,33203,10.0.0.3,5001,3,311.0-312.0,131072,1048576
20140221130201420120140221130236,10.0.0.2,33212,10.0.0.3,5001,3,313.0-314.0,131072,1048576
201420140221130236,10.0.0.2,33185,10.0.0.3,5001,3,313.0201402220140221130237,20140221130238,10.0.0.2,33232,10.0.0.3,5001,3,314.0-315.0,131072,1048576
20140221130238,10.20140221130238,10.0.0.2,3320320140221130239,10.0.0.2,33212,10.0.0.3,5001,3,317.0-31820140221130239,10.0.0.2,3320140221130240,10.0.0.20140221130240,10.2014022113024020140221130241,10.0.0.2,33212,10.0.0.3,5001,3,319.0-320.0,131072,1048576
20140221130241,10.0.0.2,33212,10.0.0.3,5001,3,320.0-321201402220140221130243,10.0.0.2,33212,10.0.0.3,5001,3,321.0-322.0,131072,1048576
20140221130243,20140221130243,20140221130245,10.0.0.2,33241,1020140221130246,10.0.0.2,33212,10.0.0.3,5001,3,323.0-324.0,131072,1048576
20140221130246,20140221130246,10.0.0.2,3318620140221130201420120140221130247,10.0.0.2,3320140221130247,10.0.0.2,33155,10.0.0.3,5001,3,324.0-325.0,131072,1048576
20140221130247,10.20140221130201402220140221130249,10.0.0.2,33212,20140221130250,10.0.0.2,33213,10.0.0.3,5001,3,325.0-326.0,131072,1048576
20140221130250,10.0.0.2,3201402220140221130251,10.0.0.2,33212,10.0.0.3,5001,3,329.0-330.0,120140221130252,10.0.0.2,33229,10.20140221130252,10.20140221130252,10.0.0.2,3201420140221130253,10.0.0.2,33185,10.0.0.3,5001,3,330.020140221130254,10.0.0.2,33201,10.0.0.3,5001,3,331.0-332.0,131072,1048576
201402220140221130255,10.0.0.2,33212,10.0.0.3,5001,3,333.0-334.0,131072,12014022113020140221130257,10.0.0.2,33186,10.0.0.3,5001,3,333.0-334.0,20140221130258,10.0.0.2,33212,10.0.0.3,5001,3,335.0-336.0,131072,120140221130258,10.0.0.2,33185,10.0.0.3,5001,3,335.0-336.0,131072,104820140221130300,10.0.0.2,33212,10.0.0.3,5001,3,337.0-338.0,131072,120140221130301,10.0.0.2,33232,10.0.0.3,5001,3,337.0-338.0,131072,120140221130301,10.0.0.2,33170,10.0.0.3,5001,3,337.0-338.0,131072,20140221130302,10.0.0.2,33212,10.0.0.3,5001,3,3420140221130302,10.201402220140221130303,10.0.0.2,33212,10.0.0.3,5001,3,341.0-342.0,131072,120140221130304,10.0.0.2,33203,10.0.0.3,5001,3,341.0-342.0,131020140221130305,10.0.0.2,33185,10.0.0.3,5001,3,342.0-343.0,131072,1048576
201402220140221130306,10.0.0.2,33212,10.0.0.3,5001,3,344.0-345.0,131072,1048576
20140221130306,10.0.0.2,3320140221130308,10.0.0.2,33204,10.0.0.3,5001,3,344.0-345.0,131072,1048576
20140221130308,10.0.0.2,33204,10.0.020140221130309,10.0.0.2,33212,10.0.0.3,5001,3,347.0-34820140221130311,10.0.0.2,33232,10.0.0.3,5001,3,347.0-348.0,131072,1048576
20140221130313,10.0.0.2,33203,10.0.0.3,5001,3,348.0-349.0,131072,1048576
20140221130313,10.0.0.2,33203,10.0.0.3,52014022113020140221130314,10.0.0.2,33232,10.0.0.3,5001,3,350.0-351.0,131072,1048576
20140221130314,10.0.0.2,33232,10.0.0.3,5001,3,351.0-352.0,0,0
20140221130315,10.0.0.2,3320120140221130316,10.0.0.2,33212,10.0.0.3,5001,3,353.0-35420140221130316,10.0.0.2,33186,10.0.0.3,52014022113020140221130316,10.0.0.2,3320320140221130318,10.0.0.2,33212,10.0.0.3,5001,3,355.0-356.0,131072,1048576
20140221130318,10.0.0.201402211302014022113020140221130319,10.0.0.2,33186,10.0.0.3,5001,3,356.0-357.0,131020140221130321,10.0.0.2,33201,10.0.0.3,5001,3,357.0-358.0,131020140221130322,10.0.0.2,33203,10.20140221130322,10.0.0.2,33204,10.0.0.3,520140221130323,10.0.0.2,33186,10.0.0.3,5001,3,359.0-360.0,131072,1048576
20140221130323,10.0.0.2,33186,10.0.0.3,5001,3,360.020140221130323,10.0.0.2,3320120140221130324,10.0.0.2,33212,10.20140221130324,10.0.0.2,33232,10.0.0.3,520140221130326,10.0.0.2,33212,10.0.0.3,5001,3,363.0-364.0,131072,1048576
20140221130326,10.0.0.2,33212,10.20140221130327,10.0.0.2,3318620140221130327,10.0.0.2,33212,10.201420140221130328,10.0.0.2,33218,10.0.0.3,5001,3,364.0-365.0,131072,104820140221130329,10.0.0.2,3318520140221130329,10.0.0.2,33212,10.0.0.3,5001,20140221130330,10.0.0.2,33203,10.20140221130330,10.0.0.201402220140221130332,10.0.0.2,33232,10.0.0.3,5001,3,368.0-369.0,131020140221130332,10.0.0.2,33201,10.0.0.3,5001,3,369.0-370.0,131072,120140221130332,10.0.0.2,33218,10.0.0.3,5001,3,320140221130333,10.0.0.20140221130333,10.0.0.2,33232,10.20140221130334,10.20140221130336,10.0.0.2,33212,10.0.0.3,5001,3,372.0-373.0,131072,1048576
20140221130336,10.0.0.2,33212,10.0.0.3,5001,3,373.0-37420140221130336,10.2014022113020140221130337,10.0.0.2,33232,10.0.0.3,520140221130339,10.0.0.2,33212,10.0.0.3,5001,3,375.0-376.0,131072,1048576
20140221130339,10.0.0.2,33212,10.0.0.3,5001,3,376.0-377201420140221130339,10.0.0.2,320140221130339,10.0.0.2,33201402220140221130340,10.0.0.2,3320320140221130342,10.0.0.2,33185,10.0.0.3,5001,3,378.0-379.0,131072,1048576
20140221130342,10.0.0.2,33185,10.0.0.3,5001,3,379.0-380.0,0,0
20140221130201402211302014022113020140221130343,10.0.0.2,33203,10.0.0.3,5001,3,380.0-381.0,131072,1048576
20140221130344,10.20140221130344,10.0.0.20140221130345,10.0.0.2,33232,10.0.0.3,5001,20140221130345,10.0.0.2,33204201402211302014022113020140221130346,10.0.0.20140221130346,10.0.0.2,332182014022113020140221130347,10.0.0.2,33203,10.0.0.3,5001,3,384.0-385.0,131072,1048576
20140221130347,10.0.0.2,33203201402211302014022113020140221130351,10.0.0.2,33201,10.0.0.3,5001,3,386.0-387.0,131072,1048576
20140221130351,10.0.0.2,33201,10.0.0.3,5001,3,387.0-388.0,0,0
2014022113020140221130351,10.0.0.2,33232,10.0.0.3,5001,3,388.0-389.0,131072,1048576
20140221130351,10.0.0.2,33232,10.0.0.3,520140221130353,10.0.0.2,33201,10.0.0.3,5001,3,390.0-391.0,131072,1048576
201402211302014022113020140221130354,10.0.0.2,33186,10.0.0.3,5001,3,391.0-392.0,131072,1048576
20140221130354,10.0.0.2,33186,10.0.0.3,5001,3,392.0-393.0,0,0
20140221130354,10.0.0.2,33186,10.0.0.3,5001,3,393.0-394.0,0,0
40221130354,10.0.0.2,33163,10.0.0.3,5001,3,392.0-393.0,131072,1048576
20140221130354,10.0.0.2,33163,10.0.0.3,5001,3,393.0-394.0,0,0
-394.0,0,0
,10.0.0.3,5001,3,393.0-394.0,131072,1048576
-394.0,0,0
.3,5001,3,392.0-393.0,131072,1048576
20140221130354,10.0.0.2,33196,10.0.0.3,5001,3,393.0-394.0,0,0
92.0-393.0,0,0
20140221130354,10.0.0.2,33151,10.0.0.3,5001,3,393.0-394.0,0,0
