1397494791,s1-eth1,0.00,0.00,0.00,0,0,0.00,0.00,0.00,0,0,0.00,0.00,0,0
1397494791,s1-eth3,0.00,0.00,0.00,0,0,0.00,0.00,0.00,0,0,0.00,0.00,0,0
1397494791,s1-eth2,0.00,0.00,0.00,0,0,0.00,0.00,0.00,0,0,0.00,0.00,0,0
1397494791,s2-eth1,0.00,0.00,0.00,0,0,0.00,0.00,0.00,0,0,0.00,0.00,0,0
1397494791,s2-eth3,0.00,0.00,0.00,0,0,0.00,0.00,0.00,0,0,0.00,0.00,0,0
1397494791,s2-eth2,0.00,0.00,0.00,0,0,0.00,0.00,0.00,0,0,0.00,0.00,0,0
1397494791,s3-eth1,0.00,0.00,0.00,0,0,0.00,0.00,0.00,0,0,0.00,0.00,0,0
1397494791,s3-eth2,0.00,0.00,0.00,0,0,0.00,0.00,0.00,0,0,0.00,0.00,0,0
1397494791,eth0,0.00,0.00,0.00,0,0,0.00,0.00,0.00,0,0,0.00,0.00,0,0
1397494791,eth1,0.00,0.00,0.00,0,0,0.00,0.00,0.00,0,0,0.00,0.00,0,0
1397494791,lo,0.00,0.00,0.00,0,0,0.00,0.00,0.00,0,0,0.00,0.00,0,0
1397494791,total,0.00,0.00,0.00,0,0,0.00,0.00,0.00,0,0,0.00,0.00,0,0
1397494792,s1-eth1,1250930.00,28050.00,1278980.00,28050,1250930,829.00,425.00,1254.00,425,829,0.00,0.00,0,0
1397494792,s1-eth3,17688.00,804874.00,822562.00,804874,17688,268.00,533.00,801.00,533,268,0.00,0.00,0,0
1397494792,s1-eth2,10428.00,477154.00,487582.00,477154,10428,158.00,317.00,475.00,317,158,0.00,0.00,0,0
1397494792,s2-eth1,804874.00,17688.00,822562.00,17688,804874,533.00,268.00,801.00,268,533,0.00,0.00,0,0
1397494792,s2-eth3,8910.00,404360.00,413270.00,404360,8910,135.00,268.00,403.00,268,135,0.00,0.00,0,0
1397494792,s2-eth2,8778.00,383860.00,392638.00,383860,8778,133.00,254.00,387.00,254,133,0.00,0.00,0,0
1397494792,s3-eth1,404360.00,8910.00,413270.00,8910,404360,268.00,135.00,403.00,135,268,0.00,0.00,0,0
1397494792,s3-eth2,8910.00,404360.00,413270.00,404360,8910,135.00,268.00,403.00,268,135,0.00,0.00,0,0
1397494792,eth0,0.00,0.00,0.00,0,0,0.00,0.00,0.00,0,0,0.00,0.00,0,0
1397494792,eth1,0.00,0.00,0.00,0,0,0.00,0.00,0.00,0,0,0.00,0.00,0,0
1397494792,lo,0.00,0.00,0.00,0,0,0.00,0.00,0.00,0,0,0.00,0.00,0,0
1397494792,total,2514878.00,2529256.00,5044134.00,2529256,2514878,2459.00,2468.00,4927.00,2468,2459,0.00,0.00,0,0
1397494793,s1-eth1,1250624.00,28380.00,1279004.00,28380,1250624,832.00,430.00,1262.00,430,832,0.00,0.00,0,0
1397494793,s1-eth3,17934.07,812853.19,830787.25,813666,17952,271.73,542.46,814.19,543,272,0.00,0.00,0,0
1397494793,s1-eth2,10577.42,475794.22,486371.66,476270,10588,159.84,314.69,474.53,315,160,0.00,0.00,0,0
1397494793,s2-eth1,812853.19,17934.07,830787.25,17952,813666,542.46,271.73,814.19,272,543,0.00,0.00,0,0
1397494793,s2-eth3,9366.63,416267.75,425634.38,416684,9376,141.86,277.72,419.58,278,142,0.00,0.00,0,0
1397494793,s2-eth2,8793.21,396585.44,405378.62,396982,8802,132.87,264.74,397.60,265,133,0.00,0.00,0,0
1397494793,s3-eth1,416267.75,9366.63,425634.38,9376,416684,277.72,141.86,419.58,142,278,0.00,0.00,0,0
1397494793,s3-eth2,9366.63,416267.75,425634.38,416684,9376,141.86,277.72,419.58,278,142,0.00,0.00,0,0
1397494793,eth0,0.00,167.83,167.83,168,0,0.00,1.00,1.00,1,0,0.00,0.00,0,0
1397494793,eth1,0.00,167.83,167.83,168,0,0.00,1.00,1.00,1,0,0.00,0.00,0,0
1397494793,lo,1666.33,1666.33,3332.67,1668,1668,17.98,17.98,35.96,18,18,0.00,0.00,0,0
1397494793,total,2536199.75,2575422.75,5111622.50,2577998,2538736,2517.48,2540.46,5057.94,2543,2520,0.00,0.00,0,0
1397494794,s1-eth1,1250707.38,28841.16,1279548.50,28870,1251958,832.17,436.56,1268.73,437,833,0.00,0.00,0,0
1397494794,s1-eth3,18229.77,800419.62,818649.38,801220,18248,275.72,531.47,807.19,532,276,0.00,0.00,0,0
1397494794,s1-eth2,10845.16,450217.78,461062.94,450668,10856,163.84,299.70,463.54,300,164,0.00,0.00,0,0
1397494794,s2-eth1,800419.62,18229.77,818649.38,18248,801220,531.47,275.72,807.19,276,532,0.00,0.00,0,0
1397494794,s2-eth3,8801.20,383668.34,392469.53,384052,8810,132.87,255.74,388.61,256,133,0.00,0.00,0,0
1397494794,s2-eth2,9728.27,416751.25,426479.53,417168,9738,146.85,275.72,422.58,276,147,0.00,0.00,0,0
1397494794,s3-eth1,383668.34,8801.20,392469.53,8810,384052,255.74,132.87,388.61,133,256,0.00,0.00,0,0
1397494794,s3-eth2,8801.20,383668.34,392469.53,384052,8810,132.87,255.74,388.61,256,133,0.00,0.00,0,0
1397494794,eth0,0.00,0.00,0.00,0,0,0.00,0.00,0.00,0,0,0.00,0.00,0,0
1397494794,eth1,0.00,0.00,0.00,0,0,0.00,0.00,0.00,0,0,0.00,0.00,0,0
1397494794,lo,3272.73,3272.73,6545.45,3276,3276,35.96,35.96,71.93,36,36,0.00,0.00,0,0
1397494794,total,2494473.50,2493870.25,4988344.00,2496364,2496968,2507.49,2499.50,5006.99,2502,2510,0.00,0.00,0,0
1397494795,s1-eth1,1250675.38,28417.58,1279093.00,28446,1251926,830.17,430.57,1260.74,431,831,0.00,0.00,0,0
1397494795,s1-eth3,18545.46,839936.06,858481.56,840776,18564,281.72,559.44,841.16,560,282,0.00,0.00,0,0
1397494795,s1-eth2,10105.89,448024.00,458129.88,448472,10116,153.85,299.70,453.55,300,154,0.00,0.00,0,0
1397494795,s2-eth1,839936.06,18545.46,858481.56,18564,840776,559.44,281.72,841.16,282,560,0.00,0.00,0,0
1397494795,s2-eth3,9578.42,436619.41,446197.81,437056,9588,145.85,291.71,437.56,292,146,0.00,0.00,0,0
1397494795,s2-eth2,8985.02,404913.09,413898.12,405318,8994,136.86,270.73,407.59,271,137,0.00,0.00,0,0
1397494795,s3-eth1,438131.88,9578.42,447710.31,9588,438570,292.71,145.85,438.56,146,293,0.00,0.00,0,0
1397494795,s3-eth2,9578.42,439644.38,449222.78,440084,9588,145.85,293.71,439.56,294,146,0.00,0.00,0,0
1397494795,eth0,0.00,0.00,0.00,0,0,0.00,0.00,0.00,0,0,0.00,0.00,0,0
1397494795,eth1,0.00,0.00,0.00,0,0,0.00,0.00,0.00,0,0,0.00,0.00,0,0
1397494795,lo,3932.07,3932.07,7864.14,3936,3936,37.96,37.96,75.92,38,38,0.00,0.00,0,0
1397494795,total,2589468.50,2629610.50,5219079.00,2632240,2592058,2584.42,2611.39,5195.80,2614,2587,0.00,0.00,0,0
1397494796,s1-eth1,1249924.12,29010.99,1278935.12,29040,1251174,830.17,439.56,1269.73,440,831,0.00,0.00,0,0
1397494796,s1-eth3,18527.47,827696.31,846223.81,828524,18546,280.72,549.45,830.17,550,281,0.00,0.00,0,0
1397494796,s1-eth2,10417.58,492497.53,502915.09,492990,10428,157.84,326.67,484.52,327,158,0.00,0.00,0,0
1397494796,s2-eth1,827696.31,18527.47,846223.81,18546,828524,549.45,280.72,830.17,281,550,0.00,0.00,0,0
1397494796,s2-eth3,9032.97,395698.31,404731.28,396094,9042,136.86,262.74,399.60,263,137,0.00,0.00,0,0
1397494796,s2-eth2,9560.44,430485.53,440045.97,430916,9570,144.86,285.71,430.57,286,145,0.00,0.00,0,0
1397494796,s3-eth1,394185.81,9032.97,403218.78,9042,394580,261.74,136.86,398.60,137,262,0.00,0.00,0,0
1397494796,s3-eth2,9032.97,392673.34,401706.31,393066,9042,136.86,260.74,397.60,261,137,0.00,0.00,0,0
1397494796,eth0,0.00,0.00,0.00,0,0,0.00,0.00,0.00,0,0,0.00,0.00,0,0
1397494796,eth1,0.00,0.00,0.00,0,0,0.00,0.00,0.00,0,0,0.00,0.00,0,0
1397494796,lo,0.00,0.00,0.00,0,0,0.00,0.00,0.00,0,0,0.00,0.00,0,0
1397494796,total,2528377.75,2595622.50,5124000.00,2598218,2530906,2498.50,2542.46,5040.96,2545,2501,0.00,0.00,0,0
1397494797,s1-eth1,1249704.38,37260.74,1286965.12,37298,1250954,828.17,526.47,1354.65,527,829,0.00,0.00,0,0
1397494797,s1-eth3,23144.86,902507.50,925652.38,903410,23168,337.66,598.40,936.06,599,338,0.00,0.00,0,0
1397494797,s1-eth2,14341.66,418353.66,432695.31,418772,14356,191.81,277.72,469.53,278,192,0.00,0.00,0,0
1397494797,s2-eth1,902507.50,23144.86,925652.38,23168,903410,598.40,337.66,936.06,338,599,0.00,0.00,0,0
1397494797,s2-eth3,11676.32,376731.28,388407.59,377108,11688,163.84,249.75,413.59,250,164,0.00,0.00,0,0
1397494797,s2-eth2,11562.44,525776.25,537338.69,526302,11574,174.83,348.65,523.48,349,175,0.00,0.00,0,0
1397494797,s3-eth1,376731.28,11676.32,388407.59,11688,377108,249.75,163.84,413.59,164,250,0.00,0.00,0,0
1397494797,s3-eth2,11676.32,376731.28,388407.59,377108,11688,163.84,249.75,413.59,250,164,0.00,0.00,0,0
1397494797,eth0,0.00,0.00,0.00,0,0,0.00,0.00,0.00,0,0,0.00,0.00,0,0
1397494797,eth1,0.00,0.00,0.00,0,0,0.00,0.00,0.00,0,0,0.00,0.00,0,0
1397494797,lo,1666.33,1666.33,3332.67,1668,1668,17.98,17.98,35.96,18,18,0.00,0.00,0,0
1397494797,total,2603011.00,2673848.25,5276859.50,2676522,2605614,2726.27,2770.23,5496.50,2773,2729,0.00,0.00,0,0
1397494798,s1-eth1,1251196.88,36711.29,1287908.12,36748,1252448,829.17,495.50,1324.68,496,830,0.00,0.00,0,0
1397494798,s1-eth3,23650.35,844337.69,867988.06,845182,23674,326.67,560.44,887.11,561,327,0.00,0.00,0,0
1397494798,s1-eth2,13270.73,388779.22,402049.97,389168,13284,171.83,257.74,429.57,258,172,0.00,0.00,0,0
1397494798,s2-eth1,844337.69,23650.35,867988.06,23674,845182,560.44,326.67,887.11,327,561,0.00,0.00,0,0
1397494798,s2-eth3,10821.18,487268.75,498089.94,487756,10832,163.84,323.68,487.51,324,164,0.00,0.00,0,0
1397494798,s2-eth2,13104.90,357068.94,370173.84,357426,13118,166.83,236.76,403.60,237,167,0.00,0.00,0,0
1397494798,s3-eth1,487268.75,10821.18,498089.94,10832,487756,323.68,163.84,487.51,164,324,0.00,0.00,0,0
1397494798,s3-eth2,10821.18,487268.75,498089.94,487756,10832,163.84,323.68,487.51,324,164,0.00,0.00,0,0
1397494798,eth0,0.00,0.00,0.00,0,0,0.00,0.00,0.00,0,0,0.00,0.00,0,0
1397494798,eth1,0.00,0.00,0.00,0,0,0.00,0.00,0.00,0,0,0.00,0.00,0,0
1397494798,lo,2409.59,2409.59,4819.18,2412,2412,26.97,26.97,53.95,27,27,0.00,0.00,0,0
1397494798,total,2656881.25,2638315.75,5295197.00,2640954,2659538,2733.27,2715.28,5448.55,2718,2736,0.00,0.00,0,0
1397494799,s1-eth1,1250201.88,27626.38,1277828.25,27654,1251452,827.17,418.58,1245.75,419,828,0.00,0.00,0,0
1397494799,s1-eth3,19252.75,891033.00,910285.75,891924,19272,291.71,589.41,881.12,590,292,0.00,0.00,0,0
1397494799,s1-eth2,8373.63,387196.81,395570.44,387584,8382,126.87,255.74,382.62,256,127,0.00,0.00,0,0
1397494799,s2-eth1,891033.00,19252.75,910285.75,19272,891924,589.41,291.71,881.12,292,590,0.00,0.00,0,0
1397494799,s2-eth3,9428.57,434261.75,443690.31,434696,9438,142.86,287.71,430.57,288,143,0.00,0.00,0,0
1397494799,s2-eth2,9758.24,458283.72,468041.97,458742,9768,147.85,302.70,450.55,303,148,0.00,0.00,0,0
1397494799,s3-eth1,434261.75,9428.57,443690.31,9438,434696,287.71,142.86,430.57,143,288,0.00,0.00,0,0
1397494799,s3-eth2,9428.57,434261.75,443690.31,434696,9438,142.86,287.71,430.57,288,143,0.00,0.00,0,0
1397494799,eth0,0.00,0.00,0.00,0,0,0.00,0.00,0.00,0,0,0.00,0.00,0,0
1397494799,eth1,0.00,0.00,0.00,0,0,0.00,0.00,0.00,0,0,0.00,0.00,0,0
1397494799,lo,0.00,0.00,0.00,0,0,0.00,0.00,0.00,0,0,0.00,0.00,0,0
1397494799,total,2631738.25,2661344.75,5293083.00,2664006,2634370,2556.44,2576.42,5132.87,2579,2559,0.00,0.00,0,0
1397494800,s1-eth1,1250309.75,32423.58,1282733.25,32456,1251560,827.17,467.53,1294.71,468,828,0.00,0.00,0,0
1397494800,s1-eth3,23720.28,857702.31,881422.62,858560,23744,335.66,567.43,903.10,568,336,0.00,0.00,0,0
1397494800,s1-eth2,8703.30,394759.25,403462.56,395154,8712,131.87,260.74,392.61,261,132,0.00,0.00,0,0
1397494800,s2-eth1,857702.31,23720.28,881422.62,23744,858560,567.43,335.66,903.10,336,568,0.00,0.00,0,0
1397494800,s2-eth3,12643.36,349506.50,362149.88,349856,12656,167.83,231.77,399.60,232,168,0.00,0.00,0,0
1397494800,s2-eth2,11076.92,506683.34,517760.25,507190,11088,167.83,334.67,502.50,335,168,0.00,0.00,0,0
1397494800,s3-eth1,349506.50,12643.36,362149.88,12656,349856,231.77,167.83,399.60,168,232,0.00,0.00,0,0
1397494800,s3-eth2,12643.36,349506.50,362149.88,349856,12656,167.83,231.77,399.60,232,168,0.00,0.00,0,0
1397494800,eth0,0.00,0.00,0.00,0,0,0.00,0.00,0.00,0,0,0.00,0.00,0,0
1397494800,eth1,0.00,0.00,0.00,0,0,0.00,0.00,0.00,0,0,0.00,0.00,0,0
1397494800,lo,0.00,0.00,0.00,0,0,0.00,0.00,0.00,0,0,0.00,0.00,0,0
1397494800,total,2526305.75,2526945.00,5053251.00,2529472,2528832,2597.40,2597.40,5194.81,2600,2600,0.00,0.00,0,0
1397494801,s1-eth1,1249300.75,35510.49,1284811.25,35546,1250550,826.17,510.49,1336.66,511,827,0.00,0.00,0,0
1397494801,s1-eth3,22867.13,868513.50,891380.62,869382,22890,334.67,574.43,909.09,575,335,0.00,0.00,0,0
1397494801,s1-eth2,12577.42,342975.03,355552.47,343318,12590,174.83,226.77,401.60,227,175,0.00,0.00,0,0
1397494801,s2-eth1,868513.50,22867.13,891380.62,22890,869382,574.43,334.67,909.09,335,575,0.00,0.00,0,0
1397494801,s2-eth3,10999.00,320647.38,331646.38,320968,11010,154.85,211.79,366.63,212,155,0.00,0.00,0,0
1397494801,s2-eth2,11934.07,547866.12,559800.19,548414,11946,180.82,362.64,543.46,363,181,0.00,0.00,0,0
1397494801,s3-eth1,320647.38,10999.00,331646.38,11010,320968,211.79,154.85,366.63,155,212,0.00,0.00,0,0
1397494801,s3-eth2,10999.00,320647.38,331646.38,320968,11010,154.85,211.79,366.63,212,155,0.00,0.00,0,0
1397494801,eth0,0.00,0.00,0.00,0,0,0.00,0.00,0.00,0,0,0.00,0.00,0,0
1397494801,eth1,0.00,0.00,0.00,0,0,0.00,0.00,0.00,0,0,0.00,0.00,0,0
1397494801,lo,0.00,0.00,0.00,0,0,0.00,0.00,0.00,0,0,0.00,0.00,0,0
1397494801,total,2507838.25,2470026.00,4977864.50,2472496,2510346,2612.39,2587.41,5199.80,2590,2615,0.00,0.00,0,0
1397494802,s1-eth1,1251005.00,27494.51,1278499.50,27522,1252256,827.17,416.58,1243.76,417,828,0.00,0.00,0,0
1397494802,s1-eth3,20373.63,933382.62,953756.25,934316,20394,308.69,617.38,926.07,618,309,0.00,0.00,0,0
1397494802,s1-eth2,7186.81,341822.19,349009.00,342164,7194,108.89,225.77,334.67,226,109,0.00,0.00,0,0
1397494802,s2-eth1,933382.62,20373.63,953756.25,20394,934316,617.38,308.69,926.07,309,618,0.00,0.00,0,0
1397494802,s2-eth3,8043.96,369046.97,377090.91,369416,8052,121.88,243.76,365.63,244,122,0.00,0.00,0,0
1397494802,s2-eth2,12329.67,564335.69,576665.38,564900,12342,186.81,373.63,560.44,374,187,0.00,0.00,0,0
1397494802,s3-eth1,369046.97,8043.96,377090.91,8052,369416,243.76,121.88,365.63,122,244,0.00,0.00,0,0
1397494802,s3-eth2,8043.96,369046.97,377090.91,369416,8052,121.88,243.76,365.63,244,122,0.00,0.00,0,0
1397494802,eth0,0.00,0.00,0.00,0,0,0.00,0.00,0.00,0,0,0.00,0.00,0,0
1397494802,eth1,0.00,0.00,0.00,0,0,0.00,0.00,0.00,0,0,0.00,0.00,0,0
1397494802,lo,0.00,0.00,0.00,0,0,0.00,0.00,0.00,0,0,0.00,0.00,0,0
1397494802,total,2609412.75,2633546.50,5242959.00,2636180,2612022,2536.46,2551.45,5087.91,2554,2539,0.00,0.00,0,0
1397494803,s1-eth1,1249492.50,27494.51,1276987.00,27522,1250742,826.17,416.58,1242.76,417,827,0.00,0.00,0,0
1397494803,s1-eth3,19252.75,877420.62,896673.38,878298,19272,291.71,580.42,872.13,581,292,0.00,0.00,0,0
1397494803,s1-eth2,8241.76,385684.31,393926.09,386070,8250,124.88,254.75,379.62,255,125,0.00,0.00,0,0
1397494803,s2-eth1,877420.62,19252.75,896673.38,19272,878298,580.42,291.71,872.13,292,581,0.00,0.00,0,0
1397494803,s2-eth3,7252.75,329722.28,336975.03,330052,7260,109.89,217.78,327.67,218,110,0.00,0.00,0,0
1397494803,s2-eth2,11934.07,547698.31,559632.38,548246,11946,180.82,362.64,543.46,363,181,0.00,0.00,0,0
1397494803,s3-eth1,329722.28,7252.75,336975.03,7260,330052,217.78,109.89,327.67,110,218,0.00,0.00,0,0
1397494803,s3-eth2,7252.75,329722.28,336975.03,330052,7260,109.89,217.78,327.67,218,110,0.00,0.00,0,0
1397494803,eth0,0.00,0.00,0.00,0,0,0.00,0.00,0.00,0,0,0.00,0.00,0,0
1397494803,eth1,0.00,0.00,0.00,0,0,0.00,0.00,0.00,0,0,0.00,0.00,0,0
1397494803,lo,515.48,515.48,1030.97,516,516,8.99,8.99,17.98,9,9,0.00,0.00,0,0
1397494803,total,2511085.00,2524763.25,5035848.50,2527288,2513596,2450.55,2460.54,4911.09,2463,2453,0.00,0.00,0,0
1397494804,s1-eth1,1251005.00,27560.44,1278565.50,27588,1252256,827.17,417.58,1244.76,418,828,0.00,0.00,0,0
1397494804,s1-eth3,18989.01,854733.31,873722.31,855588,19008,287.71,565.43,853.15,566,288,0.00,0.00,0,0
1397494804,s1-eth2,8571.43,391734.28,400305.72,392126,8580,129.87,258.74,388.61,259,130,0.00,0.00,0,0
1397494804,s2-eth1,854733.31,18989.01,873722.31,19008,855588,565.43,287.71,853.15,288,566,0.00,0.00,0,0
1397494804,s2-eth3,8241.76,370559.44,378801.22,370930,8250,124.88,244.76,369.63,245,125,0.00,0.00,0,0
1397494804,s2-eth2,10758.00,484658.00,495416.00,484658,10758,163.00,321.00,484.00,321,163,0.00,0.00,0,0
1397494804,s3-eth1,370930.00,8250.00,379180.00,8250,370930,245.00,125.00,370.00,125,245,0.00,0.00,0,0
1397494804,s3-eth2,8250.00,370930.00,379180.00,370930,8250,125.00,245.00,370.00,245,125,0.00,0.00,0,0
1397494804,eth0,0.00,0.00,0.00,0,0,0.00,0.00,0.00,0,0,0.00,0.00,0,0
1397494804,eth1,0.00,0.00,0.00,0,0,0.00,0.00,0.00,0,0,0.00,0.00,0,0
1397494804,lo,0.00,0.00,0.00,0,0,0.00,0.00,0.00,0,0,0.00,0.00,0,0
1397494804,total,2533620.00,2529078.00,5062698.00,2529078,2533620,2470.00,2467.00,4937.00,2467,2470,0.00,0.00,0,0
1397494805,s1-eth1,1250742.00,27588.00,1278330.00,27588,1250742,827.00,418.00,1245.00,418,827,0.00,0.00,0,0
1397494805,s1-eth3,19206.00,870728.00,889934.00,870728,19206,291.00,576.00,867.00,576,291,0.00,0.00,0,0
1397494805,s1-eth2,8382.00,380014.00,388396.00,380014,8382,127.00,251.00,378.00,251,127,0.00,0.00,0,0
1397494805,s2-eth1,870728.00,19206.00,889934.00,19206,870728,576.00,291.00,867.00,291,576,0.00,0.00,0,0
1397494805,s2-eth3,7392.00,330052.00,337444.00,330052,7392,112.00,218.00,330.00,218,112,0.00,0.00,0,0
1397494805,s2-eth2,11814.00,543704.00,555518.00,543704,11814,179.00,360.00,539.00,360,179,0.00,0.00,0,0
1397494805,s3-eth1,329722.28,7450.55,337172.84,7458,330052,217.78,112.89,330.67,113,218,0.00,0.00,0,0
1397494805,s3-eth2,7384.62,329722.28,337106.91,330052,7392,111.89,217.78,329.67,218,112,0.00,0.00,0,0
1397494805,eth0,0.00,0.00,0.00,0,0,0.00,0.00,0.00,0,0,0.00,0.00,0,0
1397494805,eth1,0.00,0.00,0.00,0,0,0.00,0.00,0.00,0,0,0.00,0.00,0,0
1397494805,lo,0.00,0.00,0.00,0,0,0.00,0.00,0.00,0,0,0.00,0.00,0,0
1397494805,total,2503204.75,2506295.75,5009500.50,2508802,2505708,2439.56,2442.56,4882.12,2445,2442,0.00,0.00,0,0
1397494806,s1-eth1,1251005.00,27890.11,1278895.12,27918,1252256,827.17,422.58,1249.75,423,828,0.00,0.00,0,0
1397494806,s1-eth3,18923.08,850195.81,869118.88,851046,18942,286.71,562.44,849.15,563,287,0.00,0.00,0,0
1397494806,s1-eth2,8967.03,408371.62,417338.69,408780,8976,135.86,269.73,405.59,270,136,0.00,0.00,0,0
1397494806,s2-eth1,850195.81,18923.08,869118.88,18942,851046,562.44,286.71,849.15,287,563,0.00,0.00,0,0
1397494806,s2-eth3,7846.15,358459.56,366305.72,358818,7854,118.88,236.76,355.64,237,119,0.00,0.00,0,0
1397494806,s2-eth2,11076.92,488711.31,499788.22,489200,11088,167.83,323.68,491.51,324,168,0.00,0.00,0,0
1397494806,s3-eth1,358459.56,7780.22,366239.78,7788,358818,236.76,117.88,354.65,118,237,0.00,0.00,0,0
1397494806,s3-eth2,7846.15,361484.53,369330.69,361846,7854,118.88,238.76,357.64,239,119,0.00,0.00,0,0
1397494806,eth0,0.00,0.00,0.00,0,0,0.00,0.00,0.00,0,0,0.00,0.00,0,0
1397494806,eth1,0.00,0.00,0.00,0,0,0.00,0.00,0.00,0,0,0.00,0.00,0,0
1397494806,lo,0.00,0.00,0.00,0,0,0.00,0.00,0.00,0,0,0.00,0.00,0,0
1397494806,total,2514319.75,2521816.25,5036136.00,2524338,2516834,2454.55,2458.54,4913.09,2461,2457,0.00,0.00,0,0
1397494807,s1-eth1,1249492.50,38697.30,1288189.88,38736,1250742,826.17,533.47,1359.64,534,827,0.00,0.00,0,0
1397494807,s1-eth3,26533.47,909182.81,935716.31,910092,26560,367.63,601.40,969.03,602,368,0.00,0.00,0,0
1397494807,s1-eth2,12163.84,343334.69,355498.50,343678,12176,165.83,226.77,392.61,227,166,0.00,0.00,0,0
1397494807,s2-eth1,909182.81,26533.47,935716.31,26560,910092,601.40,367.63,969.03,368,602,0.00,0.00,0,0
1397494807,s2-eth3,9098.90,426521.50,435620.41,426948,9108,137.86,281.72,419.58,282,138,0.00,0.00,0,0
1397494807,s2-eth2,17434.57,485686.31,503120.91,486172,17452,229.77,321.68,551.45,322,230,0.00,0.00,0,0
1397494807,s3-eth1,426521.50,9098.90,435620.41,9108,426948,281.72,137.86,419.58,138,282,0.00,0.00,0,0
1397494807,s3-eth2,9098.90,426521.50,435620.41,426948,9108,137.86,281.72,419.58,282,138,0.00,0.00,0,0
1397494807,eth0,0.00,0.00,0.00,0,0,0.00,0.00,0.00,0,0,0.00,0.00,0,0
1397494807,eth1,0.00,0.00,0.00,0,0,0.00,0.00,0.00,0,0,0.00,0.00,0,0
1397494807,lo,0.00,0.00,0.00,0,0,0.00,0.00,0.00,0,0,0.00,0.00,0,0
1397494807,total,2659526.50,2665576.50,5325103.00,2668242,2662186,2748.25,2752.25,5500.50,2755,2751,0.00,0.00,0,0
1397494808,s1-eth1,1249492.50,41160.84,1290653.38,41202,1250742,826.17,554.45,1380.62,555,827,0.00,0.00,0,0
1397494808,s1-eth3,29446.55,791208.81,820655.38,792000,29476,397.60,523.48,921.08,524,398,0.00,0.00,0,0
1397494808,s1-eth2,11714.29,303818.19,315532.47,304122,11726,156.84,200.80,357.64,201,157,0.00,0.00,0,0
1397494808,s2-eth1,791208.81,29446.55,820655.38,29476,792000,523.48,397.60,921.08,398,524,0.00,0.00,0,0
1397494808,s2-eth3,12449.55,390221.78,402671.34,390612,12462,174.83,257.74,432.57,258,175,0.00,0.00,0,0
1397494808,s2-eth2,17062.94,419954.06,437017.00,420374,17080,223.78,278.72,502.50,279,224,0.00,0.00,0,0
1397494808,s3-eth1,390221.78,12449.55,402671.34,12462,390612,257.74,174.83,432.57,175,258,0.00,0.00,0,0
1397494808,s3-eth2,12383.62,390221.78,402605.41,390612,12396,173.83,257.74,431.57,258,174,0.00,0.00,0,0
1397494808,eth0,0.00,0.00,0.00,0,0,0.00,0.00,0.00,0,0,0.00,0.00,0,0
1397494808,eth1,0.00,0.00,0.00,0,0,0.00,0.00,0.00,0,0,0.00,0.00,0,0
1397494808,lo,515.48,515.48,1030.97,516,516,8.99,8.99,17.98,9,9,0.00,0.00,0,0
1397494808,total,2514495.50,2378997.00,4893492.50,2381376,2517010,2743.26,2654.35,5397.60,2657,2746,0.00,0.00,0,0
1397494809,s1-eth1,1251452.62,27824.18,1279276.75,27852,1252704,827.17,421.58,1248.75,422,828,0.00,0.00,0,0
1397494809,s1-eth3,21824.18,1121570.50,1143394.62,1122692,21846,330.67,741.26,1071.93,742,331,0.00,0.00,0,0
1397494809,s1-eth2,6000.00,264685.31,270685.31,264950,6006,90.91,174.83,265.73,175,91,0.00,0.00,0,0
1397494809,s2-eth1,1121570.50,21824.18,1143394.62,21846,1122692,741.26,330.67,1071.93,331,742,0.00,0.00,0,0
1397494809,s2-eth3,10813.19,517270.75,528083.94,517788,10824,163.84,341.66,505.49,342,164,0.00,0.00,0,0
1397494809,s2-eth2,10945.06,582307.69,593252.75,582890,10956,165.83,384.62,550.45,385,166,0.00,0.00,0,0
1397494809,s3-eth1,517270.75,10813.19,528083.94,10824,517788,341.66,163.84,505.49,164,342,0.00,0.00,0,0
1397494809,s3-eth2,10879.12,514245.78,525124.88,514760,10890,164.84,339.66,504.50,340,165,0.00,0.00,0,0
1397494809,eth0,0.00,0.00,0.00,0,0,0.00,0.00,0.00,0,0,0.00,0.00,0,0
1397494809,eth1,0.00,0.00,0.00,0,0,0.00,0.00,0.00,0,0,0.00,0.00,0,0
1397494809,lo,0.00,0.00,0.00,0,0,0.00,0.00,0.00,0,0,0.00,0.00,0,0
1397494809,total,2950755.25,3060541.50,6011297.00,3063602,2953706,2826.17,2898.10,5724.28,2901,2829,0.00,0.00,0,0
1397494810,s1-eth1,1250827.25,27296.70,1278123.88,27324,1252078,826.17,413.59,1239.76,414,827,0.00,0.00,0,0
1397494810,s1-eth3,22308.00,1043300.00,1065608.00,1043300,22308,338.00,690.00,1028.00,690,338,0.00,0.00,0,0
1397494810,s1-eth2,5016.00,227100.00,232116.00,227100,5016,76.00,150.00,226.00,150,76,0.00,0.00,0,0
1397494810,s2-eth1,1042257.75,22285.71,1064543.50,22308,1043300,689.31,337.66,1026.97,338,690,0.00,0.00,0,0
1397494810,s2-eth3,10681.32,496249.75,506931.09,496746,10692,161.84,328.67,490.51,329,162,0.00,0.00,0,0
1397494810,s2-eth2,11670.33,546008.00,557678.31,546554,11682,176.82,360.64,537.46,361,177,0.00,0.00,0,0
1397494810,s3-eth1,496746.00,10692.00,507438.00,10692,496746,329.00,162.00,491.00,162,329,0.00,0.00,0,0
1397494810,s3-eth2,10692.00,496746.00,507438.00,496746,10692,162.00,329.00,491.00,329,162,0.00,0.00,0,0
1397494810,eth0,0.00,0.00,0.00,0,0,0.00,0.00,0.00,0,0,0.00,0.00,0,0
1397494810,eth1,0.00,0.00,0.00,0,0,0.00,0.00,0.00,0,0,0.00,0.00,0,0
1397494810,lo,0.00,0.00,0.00,0,0,0.00,0.00,0.00,0,0,0.00,0.00,0,0
1397494810,total,2852514.00,2870770.00,5723284.00,2870770,2852514,2761.00,2773.00,5534.00,2773,2761,0.00,0.00,0,0
1397494811,s1-eth1,1251536.00,27588.00,1279124.00,27588,1251536,828.00,418.00,1246.00,418,828,0.00,0.00,0,0
1397494811,s1-eth3,22572.00,1015198.00,1037770.00,1015198,22572,342.00,671.00,1013.00,671,342,0.00,0.00,0,0
1397494811,s1-eth2,4950.00,227100.00,232050.00,227100,4950,75.00,150.00,225.00,150,75,0.00,0.00,0,0
1397494811,s2-eth1,1015198.00,22572.00,1037770.00,22572,1015198,671.00,342.00,1013.00,342,671,0.00,0.00,0,0
1397494811,s2-eth3,9966.00,441392.00,451358.00,441392,9966,151.00,292.00,443.00,292,151,0.00,0.00,0,0
1397494811,s2-eth2,12606.00,573806.00,586412.00,573806,12606,191.00,379.00,570.00,379,191,0.00,0.00,0,0
1397494811,s3-eth1,441392.00,9966.00,451358.00,9966,441392,292.00,151.00,443.00,151,292,0.00,0.00,0,0
1397494811,s3-eth2,9900.00,441392.00,451292.00,441392,9900,150.00,292.00,442.00,292,150,0.00,0.00,0,0
1397494811,eth0,0.00,0.00,0.00,0,0,0.00,0.00,0.00,0,0,0.00,0.00,0,0
1397494811,eth1,0.00,0.00,0.00,0,0,0.00,0.00,0.00,0,0,0.00,0.00,0,0
1397494811,lo,0.00,0.00,0.00,0,0,0.00,0.00,0.00,0,0,0.00,0.00,0,0
1397494811,total,2768120.00,2759014.00,5527134.00,2759014,2768120,2700.00,2695.00,5395.00,2695,2700,0.00,0.00,0,0
1397494812,s1-eth1,1249980.00,27522.00,1277502.00,27522,1249980,826.00,417.00,1243.00,417,826,0.00,0.00,0,0
1397494812,s1-eth3,22506.00,1027422.00,1049928.00,1027422,22506,341.00,679.00,1020.00,679,341,0.00,0.00,0,0
1397494812,s1-eth2,5016.00,225586.00,230602.00,225586,5016,76.00,149.00,225.00,149,76,0.00,0.00,0,0
1397494812,s2-eth1,1027422.00,22506.00,1049928.00,22506,1027422,679.00,341.00,1020.00,341,679,0.00,0.00,0,0
1397494812,s2-eth3,10494.00,483896.00,494390.00,483896,10494,159.00,320.00,479.00,320,159,0.00,0.00,0,0
1397494812,s2-eth2,12012.00,543526.00,555538.00,543526,12012,182.00,359.00,541.00,359,182,0.00,0.00,0,0
1397494812,s3-eth1,483896.00,10494.00,494390.00,10494,483896,320.00,159.00,479.00,159,320,0.00,0.00,0,0
1397494812,s3-eth2,10549.45,483412.59,493962.06,483896,10560,159.84,319.68,479.52,320,160,0.00,0.00,0,0
1397494812,eth0,0.00,0.00,0.00,0,0,0.00,0.00,0.00,0,0,0.00,0.00,0,0
1397494812,eth1,0.00,0.00,0.00,0,0,0.00,0.00,0.00,0,0,0.00,0.00,0,0
1397494812,lo,0.00,0.00,0.00,0,0,0.00,0.00,0.00,0,0,0.00,0.00,0,0
1397494812,total,2819067.00,2822026.00,5641093.00,2824848,2821886,2740.26,2741.26,5481.52,2744,2743,0.00,0.00,0,0
1397494813,s1-eth1,1250131.88,27626.38,1277758.25,27654,1251382,826.17,418.58,1244.76,419,827,0.00,0.00,0,0
1397494813,s1-eth3,22351.65,1014183.81,1036535.50,1015198,22374,338.66,670.33,1008.99,671,339,0.00,0.00,0,0
1397494813,s1-eth2,5274.73,240485.52,245760.25,240726,5280,79.92,158.84,238.76,159,80,0.00,0.00,0,0
1397494813,s2-eth1,1014183.81,22351.65,1036535.50,22374,1015198,670.33,338.66,1008.99,339,671,0.00,0.00,0,0
1397494813,s2-eth3,9890.11,456075.94,465966.03,456532,9900,149.85,301.70,451.55,302,150,0.00,0.00,0,0
1397494813,s2-eth2,12461.54,571720.31,584181.81,572292,12474,188.81,377.62,566.43,378,189,0.00,0.00,0,0
1397494813,s3-eth1,456532.00,9900.00,466432.00,9900,456532,302.00,150.00,452.00,150,302,0.00,0.00,0,0
1397494813,s3-eth2,9834.00,458046.00,467880.00,458046,9834,149.00,303.00,452.00,303,149,0.00,0.00,0,0
1397494813,eth0,0.00,0.00,0.00,0,0,0.00,0.00,0.00,0,0,0.00,0.00,0,0
1397494813,eth1,0.00,0.00,0.00,0,0,0.00,0.00,0.00,0,0,0.00,0.00,0,0
1397494813,lo,516.00,516.00,1032.00,516,516,9.00,9.00,18.00,9,9,0.00,0.00,0,0
1397494813,total,2783490.00,2803238.00,5586728.00,2803238,2783490,2716.00,2730.00,5446.00,2730,2716,0.00,0.00,0,0
1397494814,s1-eth1,1251494.00,27522.00,1279016.00,27522,1251494,827.00,417.00,1244.00,417,827,0.00,0.00,0,0
1397494814,s1-eth3,21714.00,1007044.00,1028758.00,1007044,21714,329.00,666.00,995.00,666,329,0.00,0.00,0,0
1397494814,s1-eth2,5808.00,274034.00,279842.00,274034,5808,88.00,181.00,269.00,181,88,0.00,0.00,0,0
1397494814,s2-eth1,1007044.00,21714.00,1028758.00,21714,1007044,666.00,329.00,995.00,329,666,0.00,0.00,0,0
1397494814,s2-eth3,9966.00,455948.00,465914.00,455948,9966,151.00,302.00,453.00,302,151,0.00,0.00,0,0
1397494814,s2-eth2,11748.00,538984.00,550732.00,538984,11748,178.00,356.00,534.00,356,178,0.00,0.00,0,0
1397494814,s3-eth1,455948.00,9966.00,465914.00,9966,455948,302.00,151.00,453.00,151,302,0.00,0.00,0,0
1397494814,s3-eth2,9966.00,455948.00,465914.00,455948,9966,151.00,302.00,453.00,302,151,0.00,0.00,0,0
1397494814,eth0,0.00,0.00,0.00,0,0,0.00,0.00,0.00,0,0,0.00,0.00,0,0
1397494814,eth1,0.00,0.00,0.00,0,0,0.00,0.00,0.00,0,0,0.00,0.00,0,0
1397494814,lo,0.00,0.00,0.00,0,0,0.00,0.00,0.00,0,0,0.00,0.00,0,0
1397494814,total,2770917.25,2788371.75,5559289.00,2791160,2773688,2689.31,2701.30,5390.61,2704,2692,0.00,0.00,0,0
1397494815,s1-eth1,1250229.75,34475.53,1284705.38,34510,1251480,827.17,484.52,1311.69,485,828,0.00,0.00,0,0
1397494815,s1-eth3,24115.88,872107.94,896223.81,872980,24140,341.66,577.42,919.08,578,342,0.00,0.00,0,0
1397494815,s1-eth2,10359.64,322159.84,332519.50,322482,10370,142.86,212.79,355.64,213,143,0.00,0.00,0,0
1397494815,s2-eth1,872107.94,24115.88,896223.81,24140,872980,577.42,341.66,919.08,342,578,0.00,0.00,0,0
1397494815,s2-eth3,11654.35,335772.25,347426.59,336108,11666,152.85,221.78,374.63,222,153,0.00,0.00,0,0
1397494815,s2-eth2,12461.54,572635.38,585096.94,573208,12474,188.81,379.62,568.43,380,189,0.00,0.00,0,0
1397494815,s3-eth1,335772.25,11654.35,347426.59,11666,336108,221.78,152.85,374.63,153,222,0.00,0.00,0,0
1397494815,s3-eth2,11720.28,334259.75,345980.03,334594,11732,153.85,220.78,374.63,221,154,0.00,0.00,0,0
1397494815,eth0,0.00,0.00,0.00,0,0,0.00,0.00,0.00,0,0,0.00,0.00,0,0
1397494815,eth1,0.00,0.00,0.00,0,0,0.00,0.00,0.00,0,0,0.00,0.00,0,0
1397494815,lo,0.00,0.00,0.00,0,0,0.00,0.00,0.00,0,0,0.00,0.00,0,0
1397494815,total,2528421.75,2507181.00,5035602.50,2509688,2530950,2606.39,2591.41,5197.80,2594,2609,0.00,0.00,0,0
1397494816,s1-eth1,1249492.50,29142.86,1278635.38,29172,1250742,826.17,437.56,1263.74,438,827,0.00,0.00,0,0
1397494816,s1-eth3,21068.93,982477.56,1003546.50,983460,21090,318.68,649.35,968.03,650,319,0.00,0.00,0,0
1397494816,s1-eth2,8139.86,337284.72,345424.59,337622,8148,119.88,222.78,342.66,223,120,0.00,0.00,0,0
1397494816,s2-eth1,982477.56,21068.93,1003546.50,21090,983460,649.35,318.68,968.03,319,650,0.00,0.00,0,0
1397494816,s2-eth3,8541.46,394759.25,403300.72,395154,8550,128.87,260.74,389.61,261,129,0.00,0.00,0,0
1397494816,s2-eth2,12461.54,549906.12,562367.62,550456,12474,188.81,363.64,552.45,364,189,0.00,0.00,0,0
1397494816,s3-eth1,394759.25,8607.39,403366.66,8616,395154,260.74,129.87,390.61,130,261,0.00,0.00,0,0
1397494816,s3-eth2,8541.46,397784.22,406325.69,398182,8550,128.87,262.74,391.61,263,129,0.00,0.00,0,0
1397494816,eth0,0.00,0.00,0.00,0,0,0.00,0.00,0.00,0,0,0.00,0.00,0,0
1397494816,eth1,0.00,0.00,0.00,0,0,0.00,0.00,0.00,0,0,0.00,0.00,0,0
1397494816,lo,0.00,0.00,0.00,0,0,0.00,0.00,0.00,0,0,0.00,0.00,0,0
1397494816,total,2685482.50,2721031.00,5406513.50,2723752,2688168,2621.38,2645.35,5266.73,2648,2624,0.00,0.00,0,0
1397494817,s1-eth1,1251071.00,37464.54,1288535.50,37502,1252322,828.17,520.48,1348.65,521,829,0.00,0.00,0,0
1397494817,s1-eth3,26331.67,937514.50,963846.19,938452,26358,374.63,621.38,996.00,622,375,0.00,0.00,0,0
1397494817,s1-eth2,11066.93,313084.94,324151.84,313398,11078,144.86,206.79,351.65,207,145,0.00,0.00,0,0
1397494817,s2-eth1,937514.50,26331.67,963846.19,26358,938452,621.38,374.63,996.00,375,622,0.00,0.00,0,0
1397494817,s2-eth3,10153.85,460837.19,470991.03,461298,10164,153.85,304.70,458.54,305,154,0.00,0.00,0,0
1397494817,s2-eth2,16177.82,476677.34,492855.16,477154,16194,220.78,316.68,537.46,317,221,0.00,0.00,0,0
1397494817,s3-eth1,460837.19,10087.91,470925.09,10098,461298,304.70,152.85,457.54,153,305,0.00,0.00,0,0
1397494817,s3-eth2,10153.85,457812.19,467966.03,458270,10164,153.85,302.70,456.54,303,154,0.00,0.00,0,0
1397494817,eth0,0.00,0.00,0.00,0,0,0.00,0.00,0.00,0,0,0.00,0.00,0,0
1397494817,eth1,0.00,0.00,0.00,0,0,0.00,0.00,0.00,0,0,0.00,0.00,0,0
1397494817,lo,0.00,0.00,0.00,0,0,0.00,0.00,0.00,0,0,0.00,0.00,0,0
1397494817,total,2723306.75,2719810.25,5443117.00,2722530,2726030,2802.20,2800.20,5602.40,2803,2805,0.00,0.00,0,0
1397494818,s1-eth1,1249660.38,27494.51,1277154.88,27522,1250910,826.17,416.58,1242.76,417,827,0.00,0.00,0,0
1397494818,s1-eth3,21890.11,1011158.88,1033049.00,1012170,21912,331.67,668.33,1000.00,669,332,0.00,0.00,0,0
1397494818,s1-eth2,5670.33,258635.38,264305.69,258894,5676,85.91,170.83,256.74,171,86,0.00,0.00,0,0
1397494818,s2-eth1,1011158.88,21890.11,1033049.00,21912,1012170,668.33,331.67,1000.00,332,669,0.00,0.00,0,0
1397494818,s2-eth3,9626.37,434901.12,444527.50,435336,9636,145.85,287.71,433.57,288,146,0.00,0.00,0,0
1397494818,s2-eth2,12329.67,577770.25,590099.94,578348,12342,186.81,381.62,568.43,382,187,0.00,0.00,0,0
1397494818,s3-eth1,434901.12,9626.37,444527.50,9636,435336,287.71,145.85,433.57,146,288,0.00,0.00,0,0
1397494818,s3-eth2,9626.37,434901.12,444527.50,435336,9636,145.85,287.71,433.57,288,146,0.00,0.00,0,0
1397494818,eth0,0.00,0.00,0.00,0,0,0.00,0.00,0.00,0,0,0.00,0.00,0,0
1397494818,eth1,0.00,0.00,0.00,0,0,0.00,0.00,0.00,0,0,0.00,0.00,0,0
1397494818,lo,515.48,515.48,1030.97,516,516,8.99,8.99,17.98,9,9,0.00,0.00,0,0
1397494818,total,2755378.75,2776893.25,5532272.00,2779670,2758134,2687.31,2699.30,5386.61,2702,2690,0.00,0.00,0,0
1397494819,s1-eth1,1249726.25,30143.86,1279870.12,30174,1250976,827.17,448.55,1275.72,449,828,0.00,0.00,0,0
1397494819,s1-eth3,21758.24,982833.19,1004591.44,983816,21780,329.67,651.35,981.02,652,330,0.00,0.00,0,0
1397494819,s1-eth2,8319.68,252585.42,260905.11,252838,8328,117.88,166.83,284.72,167,118,0.00,0.00,0,0
1397494819,s2-eth1,982833.19,21758.24,1004591.44,21780,983816,651.35,329.67,981.02,330,652,0.00,0.00,0,0
1397494819,s2-eth3,9494.51,433566.44,443060.94,434000,9504,143.86,287.71,431.57,288,144,0.00,0.00,0,0
1397494819,s2-eth2,12263.74,549266.75,561530.50,549816,12276,185.81,363.64,549.45,364,186,0.00,0.00,0,0
1397494819,s3-eth1,433566.44,9494.51,443060.94,9504,434000,287.71,143.86,431.57,144,288,0.00,0.00,0,0
1397494819,s3-eth2,9494.51,433566.44,44