26393
20140424112148,10.0.0.2,45011,10.0.0.1,5001,3,0.0-1.0,2228224,17825792
20140424112149,10.0.0.2,45011,10.0.0.1,5001,3,1.0-2.0,1441792,11534336
20140424112150,10.0.0.2,45011,10.0.0.1,5001,3,2.0-3.0,1441792,11534336
20140424112151,10.0.0.2,45011,10.0.0.1,5001,3,3.0-4.0,1310720,10485760
20140424112152,10.0.0.2,45011,10.0.0.1,5001,3,4.0-5.0,1572864,12582912
20140424112153,10.0.0.2,45011,10.0.0.1,5001,3,5.0-6.0,1572864,12582912
20140424112154,10.0.0.2,45011,10.0.0.1,5001,3,6.0-7.0,1310720,10485760
20140424112155,10.0.0.2,45011,10.0.0.1,5001,3,7.0-8.0,1310720,10485760
20140424112156,10.0.0.2,45011,10.0.0.1,5001,3,8.0-9.0,1572864,12582912
20140424112157,10.0.0.2,45011,10.0.0.1,5001,3,9.0-10.0,1048576,8388608
20140424112158,10.0.0.2,45011,10.0.0.1,5001,3,10.0-11.0,1835008,14680064
20140424112159,10.0.0.2,45011,10.0.0.1,5001,3,11.0-12.0,1310720,10485760
20140424112200,10.0.0.2,45011,10.0.0.1,5001,3,12.0-13.0,1572864,12582912
20140424112201,10.0.0.2,45011,10.0.0.1,5001,3,13.0-14.0,1179648,9437184
20140424112202,10.0.0.2,45011,10.0.0.1,5001,3,14.0-15.0,1572864,12582912
20140424112203,10.0.0.2,45011,10.0.0.1,5001,3,15.0-16.0,1310720,10485760
20140424112204,10.0.0.2,45011,10.0.0.1,5001,3,16.0-17.0,1441792,11534336
20140424112205,10.0.0.2,45011,10.0.0.1,5001,3,17.0-18.0,1441792,11534336
20140424112206,10.0.0.2,45011,10.0.0.1,5001,3,18.0-19.0,1572864,12582912
20140424112210,10.0.0.2,45011,10.0.0.1,5001,3,19.0-20.0,1179648,9437184
20140424112210,10.0.0.2,45011,10.0.0.1,5001,3,20.0-21.0,0,0
20140424112210,10.0.0.2,45011,10.0.0.1,5001,3,21.0-22.0,0,0
20140424112210,10.0.0.2,45011,10.0.0.1,5001,3,22.0-23.0,0,0
20140424112220,10.0.0.2,45011,10.0.0.1,5001,3,23.0-24.0,262144,2097152
20140424112220,10.0.0.2,45011,10.0.0.1,5001,3,24.0-25.0,0,0
20140424112220,10.0.0.2,45011,10.0.0.1,5001,3,25.0-26.0,0,0
20140424112220,10.0.0.2,45011,10.0.0.1,5001,3,26.0-27.0,0,0
20140424112220,10.0.0.2,45011,10.0.0.1,5001,3,27.0-28.0,0,0
20140424112220,10.0.0.2,45011,10.0.0.1,5001,3,28.0-29.0,0,0
20140424112220,10.0.0.2,45011,10.0.0.1,5001,3,29.0-30.0,0,0
20140424112220,10.0.0.2,45011,10.0.0.1,5001,3,30.0-31.0,0,0
20140424112220,10.0.0.2,45011,10.0.0.1,5001,3,31.0-32.0,0,0
20140424112220,10.0.0.2,45011,10.0.0.1,5001,3,32.0-33.0,0,0
20140424112232,10.0.0.2,45011,10.0.0.1,5001,3,33.0-34.0,262144,2097152
20140424112232,10.0.0.2,45011,10.0.0.1,5001,3,34.0-35.0,0,0
20140424112232,10.0.0.2,45011,10.0.0.1,5001,3,35.0-36.0,0,0
20140424112232,10.0.0.2,45011,10.0.0.1,5001,3,36.0-37.0,0,0
20140424112232,10.0.0.2,45011,10.0.0.1,5001,3,37.0-38.0,0,0
20140424112232,10.0.0.2,45011,10.0.0.1,5001,3,38.0-39.0,0,0
20140424112232,10.0.0.2,45011,10.0.0.1,5001,3,39.0-40.0,0,0
20140424112232,10.0.0.2,45011,10.0.0.1,5001,3,40.0-41.0,0,0
20140424112232,10.0.0.2,45011,10.0.0.1,5001,3,41.0-42.0,0,0
20140424112232,10.0.0.2,45011,10.0.0.1,5001,3,42.0-43.0,0,0
20140424112232,10.0.0.2,45011,10.0.0.1,5001,3,43.0-44.0,0,0
20140424112232,10.0.0.2,45011,10.0.0.1,5001,3,44.0-45.0,0,0
20140424112243,10.0.0.2,45011,10.0.0.1,5001,3,45.0-46.0,262144,2097152
20140424112243,10.0.0.2,45011,10.0.0.1,5001,3,46.0-47.0,0,0
20140424112243,10.0.0.2,45011,10.0.0.1,5001,3,47.0-48.0,0,0
20140424112243,10.0.0.2,45011,10.0.0.1,5001,3,48.0-49.0,0,0
20140424112243,10.0.0.2,45011,10.0.0.1,5001,3,49.0-50.0,0,0
20140424112243,10.0.0.2,45011,10.0.0.1,5001,3,50.0-51.0,0,0
20140424112243,10.0.0.2,45011,10.0.0.1,5001,3,51.0-52.0,0,0
20140424112243,10.0.0.2,45011,10.0.0.1,5001,3,52.0-53.0,0,0
20140424112243,10.0.0.2,45011,10.0.0.1,5001,3,53.0-54.0,0,0
20140424112243,10.0.0.2,45011,10.0.0.1,5001,3,54.0-55.0,0,0
20140424112243,10.0.0.2,45011,10.0.0.1,5001,3,55.0-56.0,0,0
20140424112255,10.0.0.2,45011,10.0.0.1,5001,3,56.0-57.0,262144,2097152
20140424112255,10.0.0.2,45011,10.0.0.1,5001,3,57.0-58.0,0,0
20140424112255,10.0.0.2,45011,10.0.0.1,5001,3,58.0-59.0,0,0
20140424112255,10.0.0.2,45011,10.0.0.1,5001,3,59.0-60.0,0,0
20140424112255,10.0.0.2,45011,10.0.0.1,5001,3,60.0-61.0,0,0
20140424112255,10.0.0.2,45011,10.0.0.1,5001,3,61.0-62.0,0,0
20140424112255,10.0.0.2,45011,10.0.0.1,5001,3,62.0-63.0,0,0
20140424112255,10.0.0.2,45011,10.0.0.1,5001,3,63.0-64.0,0,0
20140424112255,10.0.0.2,45011,10.0.0.1,5001,3,64.0-65.0,0,0
20140424112255,10.0.0.2,45011,10.0.0.1,5001,3,65.0-66.0,0,0
20140424112255,10.0.0.2,45011,10.0.0.1,5001,3,66.0-67.0,0,0
20140424112255,10.0.0.2,45011,10.0.0.1,5001,3,67.0-68.0,0,0
20140424112257,10.0.0.2,45011,10.0.0.1,5001,3,68.0-69.0,262144,2097152
20140424112257,10.0.0.2,45011,10.0.0.1,5001,3,69.0-70.0,0,0
20140424112258,10.0.0.2,45011,10.0.0.1,5001,3,70.0-71.0,917504,7340032
20140424112259,10.0.0.2,45011,10.0.0.1,5001,3,71.0-72.0,1310720,10485760
20140424112300,10.0.0.2,45011,10.0.0.1,5001,3,72.0-73.0,1048576,8388608
20140424112301,10.0.0.2,45011,10.0.0.1,5001,3,73.0-74.0,1310720,10485760
20140424112302,10.0.0.2,45011,10.0.0.1,5001,3,74.0-75.0,1179648,9437184
20140424112303,10.0.0.2,45011,10.0.0.1,5001,3,75.0-76.0,1310720,10485760
20140424112304,10.0.0.2,45011,10.0.0.1,5001,3,76.0-77.0,1048576,8388608
20140424112305,10.0.0.2,45011,10.0.0.1,5001,3,77.0-78.0,5242880,41943040
20140424112307,10.0.0.2,45011,10.0.0.1,5001,3,78.0-79.0,1835008,14680064
20140424112307,10.0.0.2,45011,10.0.0.1,5001,3,79.0-80.0,0,0
20140424112307,10.0.0.2,45011,10.0.0.1,5001,3,0.0-80.3,45875200,4568510
