9931
20140224184213,10.0.0.2,54952,10.0.0.4,5001,3,0.0-1.0,524288,4194304
20140224184213,10.0.0.3,57217,10.0.0.4,5001,3,1.0-2.0,393216,3145728
20140224184214,10.0.0.1,46182,10.0.0.4,5001,3,2.0-3.0,524288,4194304
20140224184215,10.0.0.3,57217,10.0.0.4,5001,3,3.0-4.0,393216,3145728
20140224184216,10.0.0.3,57217,10.0.0.4,5001,3,4.0-5.0,393216,3145728
20140224184217,10.0.0.1,46182,10.0.0.4,5001,3,5.0-6.0,524288,4194304
20140224184219,10.0.0.3,57217,10.0.0.4,5001,3,6.0-7.0,655360,5242880
20140224184220,10.0.0.2,54952,10.0.0.4,5001,3,7.0-8.0,393216,3145728
20140224184221,10.0.0.2,54952,10.0.0.4,5001,3,8.0-9.0,262144,2097152
20140224184222,10.0.0.2,54952,10.0.0.4,5001,3,9.0-10.0,262144,2097152
20140224184223,10.0.0.2,54952,10.0.0.4,5001,3,10.0-11.0,262144,2097152
20140224184223,10.0.0.2,54952,10.0.0.4,5001,3,11.0-12.0,262144,2097152
20140224184225,10.0.0.2,54952,10.0.0.4,5001,3,12.0-13.0,393216,3145728
20140224184226,10.0.0.3,57217,10.0.0.4,5001,3,13.0-14.0,393216,3145728
20140224184227,10.0.0.3,57217,10.0.0.4,5001,3,14.0-15.0,393216,3145728
20140224184227,10.0.0.3,57217,10.0.0.4,5001,3,15.0-16.0,262144,2097152
20140224184229,10.0.0.3,57217,10.0.0.4,5001,3,16.0-17.0,393216,3145728
20140224184230,10.0.0.3,57217,10.0.0.4,5001,3,17.0-18.0,262144,2097152
20140224184231,10.0.0.3,57217,10.0.0.4,5001,3,18.0-19.0,393216,3145728
20140224184231,10.0.0.3,57217,10.0.0.4,5001,3,19.0-20.0,262144,2097152
20140224184233,10.0.0.3,57217,10.0.0.4,5001,3,20.0-21.0,393216,3145728
20140224184234,10.0.0.1,46182,10.0.0.4,5001,3,21.0-22.0,393216,3145728
20140224184235,10.0.0.1,46182,10.0.0.4,5001,3,22.0-23.0,262144,2097152
20140224184235,10.0.0.1,46182,10.0.0.4,5001,3,23.0-24.0,262144,2097152
20140224184237,10.0.0.1,46182,10.0.0.4,5001,3,24.0-25.0,393216,3145728
20140224184237,10.0.0.1,46182,10.0.0.4,5001,3,25.0-26.0,262144,2097152
20140224184238,10.0.0.1,46182,10.0.0.4,5001,3,26.0-27.0,262144,2097152
20140224184239,10.0.0.1,46182,10.0.0.4,5001,3,27.0-28.0,262144,2097152
20140224184241,10.0.0.1,46182,10.0.0.4,5001,3,28.0-29.0,393216,3145728
20140224184242,10.0.0.1,46182,10.0.0.4,5001,3,29.0-30.0,131072,1048576
20140224184242,10.0.0.1,46182,10.0.0.4,5001,3,0.0-30.6,11796480,3081436
