20140221134055,10.0.0.1,34069,10.0.0.3,5001,3,0.0-1.0,0,0
20140221134056,10.0.0.1,34069,10.0.0.3,5001,3,1.0-2.0,0,0
20140221134056,10.0.0.1,34069,10.0.0.3,5001,3,2.0-3.0,0,0
20140221134056,10.0.0.1,34069,10.0.0.3,5001,3,3.0-4.0,0,0
20140221134056,10.0.0.1,34069,10.0.0.3,5001,3,4.0-5.0,0,0
20140221134056,10.0.0.1,34069,10.0.0.3,5001,3,5.0-6.0,0,0
20140221134056,10.0.0.1,34069,10.0.0.3,5001,3,6.0-7.0,0,0
20140221134056,10.0.0.1,34069,10.0.0.3,5001,3,7.0-8.0,0,0
20140221134056,10.0.0.1,34069,10.0.0.3,5001,3,8.0-9.0,0,0
20140221134056,10.0.0.1,34069,10.0.0.3,5001,3,9.0-10.0,0,0
20140221134056,10.0.0.1,34069,10.0.0.3,5001,3,10.0-11.0,0,0
20140221134056,10.0.0.1,34069,10.0.0.3,5001,3,11.0-12.0,0,0
20140221134056,10.0.0.1,34069,10.0.0.3,5001,3,12.0-13.0,0,0
20140221134056,10.0.0.1,34069,10.0.0.3,5001,3,13.0-14.0,0,0
20140221134056,10.0.0.1,34069,10.0.0.3,5001,3,14.0-15.0,0,0
20140221134056,10.0.0.1,34069,10.0.0.3,5001,3,15.0-16.0,0,0
20140221134056,10.0.0.1,34069,10.0.0.3,5001,3,16.0-17.0,0,0
20140221134056,10.0.0.1,34069,10.0.0.3,5001,3,17.0-18.0,0,0
20140221134056,10.0.0.1,34069,10.0.0.3,5001,3,18.0-19.0,0,0
20140221134056,10.0.0.1,34069,10.0.0.3,5001,3,19.0-20.0,0,0
20140221134056,10.0.0.1,34069,10.0.0.3,5001,3,20.0-21.0,0,0
20140221134056,10.0.0.1,34069,10.0.0.3,5001,3,21.0-22.0,0,0
20140221134056,10.0.0.1,34069,10.0.0.3,5001,3,22.0-23.0,0,0
20140221134056,10.0.0.1,34069,10.0.0.3,5001,3,23.0-24.0,0,0
20140221134056,10.0.0.1,34069,10.0.0.3,5001,3,24.0-25.0,0,0
20140221134056,10.0.0.1,34069,10.0.0.3,5001,3,25.0-26.0,0,0
20140221134056,10.0.0.1,34069,10.0.0.3,5001,3,26.0-27.0,0,0
20140221134056,10.0.0.1,34069,10.0.0.3,5001,3,27.0-28.0,0,0
20140221134056,10.0.0.1,34069,10.0.0.3,5001,3,28.0-29.0,0,0
20140221134056,10.0.0.1,34069,10.0.0.3,5001,3,29.0-30.0,0,0
20140221134056,10.0.0.1,34069,10.0.0.3,5001,3,30.0-31.0,0,0
20140221134056,10.0.0.1,34069,10.0.0.3,5001,3,31.0-32.0,0,0
20140221134056,10.0.0.1,34069,10.0.0.3,5001,3,32.0-33.0,0,0
20140221134056,10.0.0.1,34069,10.0.0.3,5001,3,33.0-34.0,0,0
20140221134056,10.0.0.1,34069,10.0.0.3,5001,3,34.0-35.0,0,0
20140221134056,10.0.0.1,34069,10.0.0.3,5001,3,35.0-36.0,0,0
20140221134056,10.0.0.1,34069,10.0.0.3,5001,3,36.0-37.0,0,0
20140221134056,10.0.0.1,34069,10.0.0.3,5001,3,37.0-38.0,0,0
20140221134056,10.0.0.1,34069,10.0.0.3,5001,3,38.0-39.0,0,0
20140221134056,10.0.0.1,34069,10.0.0.3,5001,3,39.0-40.0,0,0
20140221134056,10.0.0.1,34069,10.20140221134058,10.0.0.1,34037,10.0.0.3,5001,3,40.0-41.0,131072,1048576
20140221134059,10.0.0.1,34037,10.0.0.3,5001,3,41.0-42.0,0,0
20140221134059,10.0.0.1,34037,10.0.0.3,5001,3,42.0-43.0,0,0
20140221134059,10.0.0.1,34037,10.0.0.3,5001,3,43.0-44.0,0,0
20140221134059,10.0.0.1,34037,10.0.0.3,5001,3,44.0-45.0,0,0
20140221134059,10.0.0.1,34037,10.0.0.3,5001,3,45.0-46.0,0,0
20140221134059,10.0.0.1,34037,10.0.0.3,5001,3,46.0-47.0,0,0
20140221134059,10.0.0.1,34037,10.0.0.3,5001,3,47.0-48.0,0,0
20140221134059,10.0.0.1,34037,10.0.0.3,5001,3,48.0-49.0,0,0
20140221134059,10.0.0.1,34037,10.0.0.3,5001,3,49.0-50.0,0,0
20140221134059,10.0.0.1,34037,10.0.0.3,5001,3,50.0-51.0,0,0
20140221134059,10.0.0.1,34037,10.0.0.3,5001,3,51.0-52.0,0,0
20140221134059,10.0.0.1,34037,10.0.0.3,5001,3,52.0-53.0,0,0
20140221134059,10.0.0.1,34037,10.0.0.3,5001,3,53.0-54.0,0,0
20140221134059,10.0.0.1,34037,10.0.0.3,5001,3,54.0-55.0,0,0
20140221134059,10.0.0.1,34037,10.0.0.3,5001,3,55.0-56.0,0,0
20140221134059,10.0.0.1,34037,10.0.0.3,5001,3,56.0-57.0,0,0
20140221134059,10.0.0.1,34037,10.0.0.3,5001,3,57.0-58.0,0,0
20140221134059,10.0.0.1,34037,10.0.0.3,5001,3,58.0-59.0,0,0
20140221134059,10.0.0.1,34037,10.0.0.3,5001,3,59.0-60.0,0,0
20140221134059,10.0.0.1,34037,10.0.0.3,5001,3,60.0-61.0,0,0
20140221134059,10.0.0.1,34037,10.0.0.3,5001,3,61.0-62.0,0,0
20140221134059,10.0.0.1,34037,10.0.0.3,5001,3,62.0-63.0,0,0
20140221134059,10.0.0.1,34037,10.0.0.3,5001,3,63.0-64.0,0,0
20140221134059,10.0.0.1,34037,10.0.0.3,5001,3,64.0-65.0,0,0
20140221134059,10.0.0.1,34037,10.0.0.3,5001,3,65.0-66.0,0,0
20140221134059,10.0.0.1,34037,10.0.0.3,5001,3,66.0-67.0,0,0
20140221134059,10.0.0.1,34037,10.0.0.3,5001,3,67.0-68.0,0,0
20140221134059,10.0.0.1,34037,10.0.0.3,5001,3,68.0-69.0,0,0
20140221134059,10.0.0.1,34037,10.0.0.3,5001,3,69.0-70.0,0,0
20140221134059,10.0.0.1,34037,10.0.0.3,5001,3,70.0-71.0,0,0
20140221134059,10.0.0.1,34037,10.0.0.3,5001,3,71.0-72.0,0,0
20140221134059,10.0.0.1,34037,10.0.0.3,5001,3,72.0-73.0,0,0
20140221134059,10.0.0.1,34037,10.0.0.3,5001,3,73.0-74.0,0,0
20140221134059,10.0.0.1,34037,10.0.0.3,5001,3,74.0-75.0,0,0
20140221134059,10.0.0.1,34037,10.0.0.3,5001,3,75.0-76.0,0,0
20140221134059,10.0.0.1,34037,10.0.0.3,5001,3,76.0-77.0,0,0
20140221134059,10.0.0.1,34037,10.0.0.3,5001,3,77.0-78.0,0,0
20140221134059,10.0.0.1,34037,10.0.0.3,5001,3,78.0-79.0,0,0
20140221134059,10.0.0.1,34037,10.0.0.3,5001,3,79.0-80.0,0,0
20140221134059,10.0.0.1,34037,10.0.0.3,5001,3,80.0-81.0,0,0
20140221134059,10.0.0.1,34037,10.0.0.3,5001,3,81.0-82.0,0,0
20140221134059,10.0.0.1,34037,10.0.0.3,5001,3,82.0-83.0,0,0
20140221134059,10.0.0.1,34037,10.0.0.3,5001,3,83.0-84.0,0,0
20140221134059,10.0.0.1,34037,10.0.0.3,5001,3,84.0-85.0,0,0
20140221134059,10.0.0.1,34037,10.0.0.3,5001,3,85.0-86.0,0,0
20140221134059,10.0.0.1,34037,10.0.0.3,5001,3,86.0-87.0,0,0
20140221134059,10.0.0.1,34037,10.0.0.3,5001,3,87.0-88.0,0,0
20140221134059,10.0.0.1,34037,10.0.0.3,5001,3,88.0-89.0,0,0
20140221134059,10.0.0.1,34037,10.0.0.3,5001,3,89.0-90.0,0,0
20140221134059,10.0.0.1,34037,10.0.0.3,5001,3,90.0-91.0,0,0
20140221134059,10.0.0.1,34037,10.0.0.3,5001,3,91.0-92.0,0,0
20140221134059,10.0.0.1,34037,10.0.0.3,5001,3,92.0-93.0,0,0
20140221134059,10.0.0.1,34037,10.0.0.3,5001,3,93.0-94.0,0,0
20140221134059,10.0.0.1,34037,10.0.0.3,5001,3,94.0-95.0,0,0
20140221134059,10.0.0.1,34037,10.0.0.3,5001,3,95.0-96.0,0,0
20140221134059,10.0.0.1,34037,10.0.0.3,5001,3,96.0-97.0,0,0
20140221134059,10.0.0.1,34037,10.0.0.3,5001,3,97.0-98.0,0,0
20140221134059,10.0.0.1,34037,10.0.0.3,5001,3,98.0-99.0,0,0
20140221134059,10.0.0.1,34037,10.0.0.3,5001,3,99.0-100.0,0,0
20140221134059,10.0.0.1,34037,10.0.0.3,5001,3,100.0-101.0,0,0
20140221134059,10.0.0.1,34037,10.0.0.3,5001,3,101.0-102.0,0,0
20140221134059,10.0.0.1,34037,10.0.0.3,5001,3,102.0-103.0,0,0
20140221134059,10.0.0.1,34037,10.0.0.3,5001,3,103.0-104.0,0,0
20140221134059,10.0.0.1,34037,10.0.0.3,5001,3,104.0-105.0,0,0
20140221134059,10.0.0.1,34037,10.0.0.3,5001,3,105.0-106.0,0,0
20140221134059,10.0.0.1,34037,10.0.0.3,5001,3,106.0-107.0,0,0
20140221134059,10.0.0.1,34037,10.0.0.3,5001,3,107.0-108.0,0,0
20140221134059,10.0.0.1,34037,10.0.0.3,5001,3,108.0-109.0,0,0
20140221134059,10.0.0.1,34037,10.0.0.3,5001,3,109.0-110.0,0,0
20140221134059,10.0.0.1,34037,10.0.0.3,5001,3,110.0-111.0,0,0
20140221134059,10.0.0.1,34037,10.0.0.3,5001,3,111.0-112.0,0,0
20140221134059,10.0.0.1,34037,10.0.0.3,5001,3,112.0-113.0,0,0
20140221134059,10.0.0.1,34037,10.0.0.3,5001,3,113.0-114.0,0,0
20140221134059,10.0.0.1,34037,10.0.0.3,5001,3,114.0-115.0,0,0
20140221134059,10.0.0.1,34037,10.0.0.3,5001,3,115.0-116.0,0,0
20140221134059,10.0.0.1,34037,10.0.0.3,5001,3,116.0-117.0,0,0
20140221134059,10.0.0.1,34037,10.0.0.3,5001,3,117.0-118.0,0,0
20140221134059,10.0.0.1,34037,10.0.0.3,5001,3,118.0-119.0,0,0
20140221134059,10.0.0.1,34037,10.0.0.3,5001,3,119.0-120.0,0,0
20140221134059,10.0.0.1,34037,10.0.0.3,5001,3,120.0-121.0,0,0
20140221134059,10.0.0.1,34037,10.0.0.3,5001,3,121.0-122.0,0,0
20140221134059,10.0.0.1,34037,10.0.0.3,5001,3,122.0-123.0,0,0
20140221134059,10.0.0.1,34037,10.0.0.3,5001,3,123.0-124.0,0,0
20140221134059,10.0.0.1,34037,10.0.0.3,5001,3,124.0-125.0,0,0
20140221134059,10.0.0.1,34037,10.0.0.3,5001,3,125.0-126.0,0,0
20140221134059,10.0.0.1,34037,10.0.0.3,5001,3,126.0-127.0,0,0
20140221134059,10.0.0.1,34037,10.0.0.3,5001,3,127.0-128.0,0,0
20140221134059,10.0.0.1,34037,10.0.0.3,5001,3,128.0-129.0,0,0
20140221134059,10.0.0.1,34037,10.0.0.3,5001,3,129.0-130.0,0,0
20140221134059,10.0.0.1,34037,10.0.0.3,5001,3,130.0-131.0,0,0
20140221134059,10.0.0.1,34037,10.0.0.3,5001,3,131.0-132.0,0,0
20140221134059,10.0.0.1,34037,10.0.0.3,5001,3,132.0-133.0,0,0
20140221134059,10.0.0.1,34037,10.0.0.3,5001,3,133.0-134.0,0,0
20140221134059,10.0.0.1,34037,10.0.0.3,5001,3,134.0-135.0,0,0
20140221134059,10.0.0.1,34037,10.0.0.3,5001,3,135.0-136.0,0,0
20140221134059,10.0.0.1,34037,10.0.0.3,5001,3,136.0-137.0,0,0
20140221134059,10.0.0.1,34037,10.0.0.3,5001,3,137.0-138.0,0,0
20140221134059,10.0.0.1,34037,10.0.0.3,5001,3,138.0-139.0,0,0
20140221134059,10.0.0.1,34037,10.0.0.3,5001,3,139.0-140.0,0,0
20140221134059,10.0.0.1,34037,10.0.0.3,5001,3,140.0-141.0,0,0
20140221134059,10.0.0.1,34037,10.0.0.3,5001,3,141.0-142.0,0,0
20140221134059,10.0.0.1,34037,10.0.0.3,5001,3,142.0-143.0,0,0
20140221134059,10.0.0.1,34037,10.0.0.3,5001,3,143.0-144.0,0,0
20140221134059,10.0.0.1,34037,10.0.0.3,5001,3,144.0-145.0,0,0
20140221134059,10.0.0.1,34037,10.0.0.3,5001,3,145.0-146.0,0,0
20140221134059,10.0.0.1,34037,10.0.0.3,5001,3,146.0-147.0,0,0
20140221134059,10.0.0.1,34037,10.0.0.3,5001,3,147.0-148.0,0,0
20140221134059,10.0.0.1,34037,10.0.0.3,5001,3,148.0-149.0,0,0
20140221134059,10.0.0.1,34037,10.0.0.3,5001,3,149.0-150.0,0,0
20140221134059,10.0.0.1,34037,10.0.0.3,5001,3,150.0-151.0,0,0
20140221134059,10.0.0.1,34037,10.0.0.3,5001,3,151.0-152.0,0,0
20140221134059,10.0.0.1,34037,10.0.0.3,5001,3,152.0-153.0,0,0
20140221134059,10.0.0.1,34037,10.0.0.3,5001,3,153.0-154.0,0,0
20140221134059,10.0.0.1,34037,10.0.0.3,5001,3,154.0-155.0,0,0
20140221134059,10.0.0.1,34037,10.0.0.3,5001,3,155.0-156.0,0,0
20140221134059,10.0.0.1,34037,10.0.0.3,5001,3,156.0-157.0,0,0
20140221134059,10.0.0.1,34037,10.0.0.3,5001,3,157.0-158.0,0,0
20140221134059,10.0.0.1,34037,10.0.0.3,5001,3,158.0-159.0,0,0
20140221134059,10.0.0.1,34037,10.0.0.3,5001,3,159.0-160.0,0,0
20140221134059,10.0.0.1,34037,10.0.0.3,5001,3,160.0-161.0,0,0
20140221134100,10.0.0.1,34037,10.0.0.3,5001,3,161.0-162.0,0,0
20140221134100,10.0.0.1,34037,10.0.0.3,5001,3,162.0-163.0,0,0
20140221134100,10.0.0.1,34037,10.0.0.3,5001,3,163.0-164.0,0,0
20140221134100,10.0.0.1,34037,10.0.0.3,5001,3,164.0-165.0,0,0
20140221134100,10.0.0.1,34037,10.0.0.3,5001,3,165.0-166.0,0,0
20140221134100,10.0.0.1,34037,10.0.0.3,5001,3,166.0-167.0,0,0
20140221134100,10.0.0.1,34037,10.0.0.3,5001,3,167.0-168.0,0,0
20140221134101,10.0.0.1,34037,10.0.0.3,5001,3,168.0-169.0,0,0
20140221134101,10.0.0.1,34037,10.0.0.3,5001,3,169.0-170.0,0,0
20140221134101,10.0.0.1,34037,10.0.0.3,5001,3,170.0-171.0,0,0
20140221134101,10.0.0.1,34037,10.0.0.3,5001,3,171.0-172.0,0,0
20140221134101,10.0.0.1,34037,10.0.0.3,5001,3,172.0-173.0,0,0
20140221134101,10.0.0.1,34037,10.0.0.3,5001,3,173.0-174.0,0,0
20140221134101,10.0.0.1,34037,10.0.0.3,5001,3,174.0-175.0,0,0
20140221134101,10.0.0.1,34037,10.0.0.3,5001,3,175.0-176.0,0,0
20140221134101,10.0.0.1,34037,10.0.0.3,5001,3,176.0-177.0,0,0
20140221134101,10.0.0.1,34037,10.0.0.3,5001,3,177.0-178.0,0,0
20140221134101,10.0.0.1,34037,10.0.0.3,5001,3,178.0-179.0,0,0
20140221134101,10.0.0.1,34037,10.0.0.3,5001,3,179.0-180.0,0,0
20140221134101,10.0.0.1,34037,10.0.0.3,5001,3,180.0-181.0,0,0
20140221134101,10.0.0.1,34037,10.0.0.3,5001,3,181.0-182.0,0,0
20140221134101,10.0.0.1,34037,10.0.0.3,5001,3,182.0-183.0,0,0
20140221134101,10.0.0.1,34037,10.0.0.3,5001,3,183.0-184.0,0,0
20140221134101,10.0.0.1,34037,10.0.0.3,5001,3,184.0-185.0,0,0
20140221134101,10.0.0.1,34037,10.0.0.3,5001,3,185.0-186.0,0,0
20140221134101,10.0.0.1,34037,10.0.0.3,5001,3,186.0-187.0,0,0
20140221134102,10.0.0.1,34037,10.0.0.3,5001,3,187.0-188.0,0,0
20140221134102,10.0.0.1,34037,10.0.0.3,5001,3,188.0-189.0,0,0
20140221134102,10.0.0.1,34037,10.0.0.3,5001,3,189.0-190.0,0,0
20140221134102,10.0.0.1,34037,10.0.0.3,5001,3,190.0-191.0,0,0
20140221134102,10.0.0.1,34037,10.0.0.3,5001,3,191.0-192.0,0,0
20140221134102,10.0.0.1,34037,10.0.0.3,5001,3,192.0-193.0,0,0
20140221134102,10.0.0.1,34037,10.0.0.3,5001,3,193.0-194.0,0,0
20140221134102,10.0.0.1,34037,10.0.0.3,5001,3,194.0-195.0,0,0
20140221134102,10.0.0.1,34037,10.0.0.3,5001,3,195.0-196.0,0,0
20140221134102,10.0.0.1,34037,10.0.0.3,5001,3,196.0-197.0,0,0
20140221134102,10.0.0.1,34037,10.0.0.3,5001,3,197.0-198.0,0,0
20140221134102,10.0.0.1,34037,10.0.0.3,5001,3,198.0-199.0,0,0
20140221134102,10.0.0.1,34037,10.0.0.3,5001,3,199.0-200.0,0,0
20140221134102,10.0.0.1,34037,10.0.0.3,5001,3,200.0-201.0,0,0
20140221134102,10.0.0.1,34037,10.0.0.3,5001,3,201.0-202.0,0,0
20140221134102,10.0.0.1,34037,10.0.0.3,5001,3,202.0-203.0,0,0
20140221134102,10.0.0.1,34037,10.0.0.3,5001,3,203.0-204.0,0,0
20140221134102,10.0.0.1,34037,10.0.0.3,5001,3,204.0-205.0,0,0
20140221134102,10.0.0.1,34037,10.0.0.3,5001,3,205.0-206.0,0,0
20140221134102,10.0.0.1,34037,10.0.0.3,5001,3,206.0-207.0,0,0
20140221134102,10.0.0.1,34037,10.0.0.3,5001,3,207.0-208.0,0,0
20140221134102,10.0.0.1,34037,10.0.0.3,5001,3,208.0-209.0,0,0
20140221134102,10.0.0.1,34037,10.0.0.3,5001,3,209.0-210.0,0,0
20140221134102,10.0.0.1,34037,10.0.0.3,5001,3,210.0-211.0,0,0
20140221134102,10.0.0.1,34037,10.0.0.3,5001,3,211.0-212.0,0,0
20140221134102,10.0.0.1,34037,10.0.0.3,5020140221134103,10.0.0.1,33961,10.0.0.3,5001,3,210.0-211.0,131072,1048576
20140221134104,10.0.0.1,33961,10.0.0.3,5001,3,211.0-212.0,0,0
20140221134104,10.0.0.1,33961,10.0.0.3,5001,3,212.0-213.0,0,0
20140221134104,10.0.0.1,33961,10.0.0.3,5001,3,213.0-214.0,0,0
20140221134104,10.0.0.1,33961,10.0.0.3,5001,3,214.0-215.0,0,0
20140221134104,10.0.0.1,33961,10.0.0.3,5001,3,215.0-216.0,0,0
20140221134104,10.0.0.1,33961,10.0.0.3,5001,3,216.0-217.0,0,0
20140221134104,10.0.0.1,33961,10.0.0.3,5001,3,217.0-218.0,0,0
20140221134104,10.0.0.1,33961,10.0.0.3,5001,3,218.0-219.0,0,0
20140221134104,10.0.0.1,33961,10.0.0.3,5001,3,219.0-220.0,0,0
20140221134104,10.0.0.1,33961,10.0.0.3,5001,3,220.0-221.0,0,0
20140221134104,10.0.0.1,33961,10.0.0.3,5001,3,221.0-222.0,0,0
20140221134104,10.0.0.1,33961,10.0.0.3,5001,3,222.0-223.0,0,0
20140221134104,10.0.0.1,33961,10.0.0.3,5001,3,223.0-224.0,0,0
20140221134104,10.0.0.1,33961,10.0.0.3,5001,3,224.0-225.0,0,0
20140221134104,10.0.0.1,33961,10.0.0.3,5001,3,225.0-226.0,0,0
20140221134104,10.0.0.1,33961,10.0.0.3,5001,3,226.0-227.0,0,0
20140221134104,10.0.0.1,33961,10.0.0.3,5001,3,227.0-228.0,0,0
20140221134104,10.0.0.1,33961,10.0.0.3,5001,3,228.0-229.0,0,0
20140221134104,10.0.0.1,33961,10.0.0.3,5001,3,229.0-230.0,0,0
20140221134104,10.0.0.1,33961,10.0.0.3,5001,3,230.0-231.0,0,0
20140221134105,10.0.0.1,33961,10.0.0.3,5001,3,231.0-232.0,0,0
20140221134105,10.0.0.1,33961,10.0.0.3,5001,3,232.0-233.0,0,0
20140221134105,10.0.0.1,33961,10.0.0.3,5001,3,233.0-234.0,0,0
20140221134105,10.0.0.1,33961,10.0.0.3,5001,3,234.0-235.0,0,0
20140221134105,10.0.0.1,33961,10.0.0.3,5001,3,235.0-236.0,0,0
20140221134105,10.0.0.1,33961,10.0.0.3,5001,3,236.0-237.0,0,0
20140221134105,10.0.0.1,33961,10.0.0.3,5001,3,237.0-238.0,0,0
20140221134105,10.0.0.1,33961,10.0.0.3,5001,3,238.0-239.0,0,0
20140221134105,10.0.0.1,33961,10.0.0.3,5001,3,239.0-240.0,0,0
20140221134105,10.0.0.1,33961,10.0.0.3,5001,3,240.0-241.0,0,0
20140221134105,10.0.0.1,33961,10.0.0.3,5001,3,241.0-242.0,0,0
20140221134105,10.0.0.1,33961,10.0.0.3,5001,3,242.0-243.0,0,0
20140221134105,10.0.0.1,33961,10.0.0.3,5001,3,243.0-244.0,0,0
20140221134105,10.0.0.1,33961,10.0.0.3,5001,3,244.0-245.0,0,0
20140221134105,10.0.0.1,33961,10.0.0.3,5001,3,245.0-246.0,0,0
20140221134105,10.0.0.1,33961,10.0.0.3,5001,3,246.0-247.0,0,0
20140221134105,10.0.0.1,33961,10.0.0.3,5001,3,247.0-248.0,0,0
20140221134105,10.0.0.1,33961,10.0.0.3,5001,3,248.0-249.0,0,0
20140221134105,10.0.0.1,33961,10.0.0.3,5001,3,249.0-250.0,0,0
20140221134105,10.0.0.1,33961,10.0.0.3,5001,3,250.0-251.0,0,0
20140221134105,10.0.0.1,33961,10.0.0.3,5001,3,251.0-252.0,0,0
20140221134105,10.0.0.1,33961,10.0.0.3,5001,3,252.0-253.0,0,0
20140221134105,10.0.0.1,33961,10.0.0.3,5001,3,253.0-254.0,0,0
20140221134105,10.0.0.1,33961,10.0.0.3,5001,3,254.0-255.0,0,0
20140221134105,10.0.0.1,33961,10.0.0.3,5001,3,255.0-256.0,0,0
20140221134105,10.0.0.1,33961,10.0.0.3,5001,3,256.0-257.0,0,0
20140221134105,10.0.0.1,33961,10.0.0.3,5001,3,257.0-258.0,0,0
20140221134105,10.0.0.1,33961,10.0.0.3,5001,3,258.0-259.0,0,0
20140221134105,10.0.0.1,33961,10.0.0.3,5001,3,259.0-260.0,0,0
20140221134105,10.0.0.1,33961,10.0.0.3,5001,3,260.0-261.0,0,0
20140221134105,10.0.0.1,33961,10.0.0.3,5001,3,261.0-262.0,0,0
20140221134105,10.0.0.1,33961,10.0.0.3,5001,3,262.0-263.0,0,0
20140221134106,10.0.0.1,33961,10.0.0.3,5001,3,263.0-264.0,0,0
20140221134106,10.0.0.1,33961,10.0.0.3,5001,3,264.0-265.0,0,0
20140221134106,10.0.0.1,33961,10.0.0.3,5001,3,265.0-266.0,0,0
20140221134106,10.0.0.1,33961,10.0.0.3,5001,3,266.0-267.0,0,0
20140221134106,10.0.0.1,33961,10.0.0.3,5001,3,267.0-268.0,0,0
20140221134106,10.0.0.1,33961,10.0.0.3,5001,3,268.0-269.0,0,0
20140221134106,10.0.0.1,33961,10.0.0.3,5001,3,269.0-270.0,0,0
20140221134106,10.0.0.1,33961,10.0.0.3,5001,3,270.0-271.0,0,0
20140221134106,10.0.0.1,33961,10.0.0.3,5001,3,271.0-272.0,0,0
20140221134106,10.0.0.1,33961,10.0.0.3,5001,3,272.0-273.0,0,0
20140221134106,10.0.0.1,33961,10.0.0.3,5001,3,273.0-274.0,0,0
20140221134106,10.0.0.1,33961,10.0.0.3,5001,3,274.0-275.0,0,0
20140221134106,10.0.0.1,33961,10.0.0.3,5001,3,275.0-276.0,0,0
20140221134106,10.0.0.1,33961,10.0.0.3,5001,3,276.0-277.0,0,0
20140221134106,10.0.0.1,33961,10.0.0.3,5001,3,277.0-278.0,0,0
20140221134106,10.0.0.1,33961,10.0.0.3,5001,3,278.0-279.0,0,0
20140221134106,10.0.0.1,33961,10.0.0.3,5001,3,279.0-280.0,0,0
20140221134106,10.0.0.1,33961,10.0.0.3,5001,3,280.0-281.0,0,0
20140221134106,10.0.0.1,33961,10.0.0.3,5001,3,281.0-282.0,0,0
20140221134107,10.0.0.1,33961,10.0.0.3,5001,3,282.0-283.0,0,0
20140221134107,10.0.0.1,33961,10.0.0.3,5001,3,283.0-284.0,0,0
20140221134107,10.0.0.1,33961,10.0.0.3,5001,3,284.0-285.0,0,0
20140221134107,10.0.0.1,33961,10.0.0.3,5001,3,285.0-286.0,0,0
20140221134107,10.0.0.1,33961,10.0.0.3,5001,3,286.0-287.0,0,0
20140221134107,10.0.0.1,33961,10.0.0.3,5001,3,287.0-288.0,0,0
20140221134107,10.0.0.1,33961,10.0.0.3,5001,3,288.0-289.0,0,0
20140221134107,10.0.0.1,33961,10.0.0.3,5001,3,289.0-290.0,0,0
20140221134107,10.0.0.1,33961,10.0.0.3,5001,3,290.0-291.0,0,0
20140221134107,10.0.0.1,33961,10.0.0.3,5001,3,291.0-292.0,0,0
20140221134107,10.0.0.1,33961,10.0.0.3,5001,3,292.0-293.0,0,0
20140221134107,10.0.0.1,33961,10.0.0.3,5001,3,293.0-294.0,0,0
20140221134107,10.0.0.1,33961,10.0.0.3,5001,3,294.0-295.0,0,0
20140221134107,10.0.0.1,33961,10.0.0.3,5001,3,295.0-296.0,0,0
20140221134107,10.0.0.1,33961,10.0.0.3,5001,3,296.0-297.0,0,0
20140221134107,10.0.0.1,33961,10.0.0.3,5001,3,297.0-298.0,0,0
20140221134107,10.0.0.1,33961,10.0.0.3,5001,3,298.0-299.0,0,0
20140221134107,10.0.0.1,33961,10.0.0.3,5001,3,299.0-300.0,0,0
20140221134107,10.0.0.1,33961,10.0.0.3,5001,3,300.0-301.0,0,0
20140221134107,10.0.0.1,33961,10.0.0.3,5001,3,301.0-302.0,0,0
20140221134107,10.0.0.1,33961,10.0.0.3,5001,3,302.0-303.0,0,0
20140221134107,10.0.0.1,33961,10.0.0.3,5001,3,303.0-304.0,0,0
20140221134107,10.0.0.1,33961,10.0.0.3,5001,3,304.0-305.0,0,0
20140221134107,10.0.0.1,33961,10.0.0.3,5001,3,305.0-306.0,0,0
20140221134107,10.0.0.1,33961,10.0.0.3,5001,3,306.0-307.0,0,0
20140221134107,10.0.0.1,33961,10.0.0.3,5001,3,307.0-308.0,0,0
20140221134107,10.0.0.1,33961,10.0.0.3,5001,3,308.0-309.0,0,0
20140221134107,10.0.0.1,33961,10.0.0.3,5001,3,309.0-310.0,0,0
20140221134107,10.0.0.1,33961,10.0.0.3,5001,3,310.0-311.0,0,0
20140221134107,10.0.0.1,33961,10.0.0.3,5001,3,311.0-312.0,0,0
20140221134107,10.0.0.1,33961,10.0.0.3,5001,3,312.0-313.0,0,0
20140221134107,10.0.0.1,33961,10.0.0.3,5001,3,313.0-314.0,0,0
20140221134107,10.0.0.1,33961,10.0.0.3,5001,3,314.0-315.0,0,0
20140221134107,10.0.0.1,33961,10.0.0.3,5001,3,315.0-316.0,0,0
20140221134107,10.0.0.1,33961,10.0.0.3,5001,3,316.0-317.0,0,0
20140221134107,10.0.0.1,33961,10.0.0.3,5001,3,317.0-318.0,0,0
20140221134107,10.0.0.1,33961,10.0.0.3,5001,3,318.0-319.0,0,0
20140221134107,10.0.0.1,33961,10.0.0.3,5001,3,319.0-320.0,0,0
20140221134107,10.0.0.1,33961,10.0.0.3,5001,3,320.0-321.0,0,0
20140221134107,10.0.0.1,33961,10.0.0.3,5001,3,321.0-322.0,0,0
20140221134107,10.0.0.1,33961,10.0.0.3,5001,3,322.0-323.0,0,0
20140221134107,10.0.0.1,33961,10.0.0.3,5001,3,323.0-324.0,0,0
20140221134107,10.0.0.1,33961,10.0.0.3,5001,3,324.0-325.0,0,0
20140221134108,10.0.0.1,33961,10.0.0.3,5001,3,325.0-326.0,0,0
20140221134108,10.0.0.1,33961,10.0.0.3,5001,3,326.0-327.0,0,0
20140221134108,10.0.0.1,33961,10.0.0.3,5001,3,327.0-328.0,0,0
20140221134108,10.0.0.1,33961,10.0.0.3,5001,3,328.0-329.0,0,0
20140221134108,10.0.0.1,33961,10.0.0.3,5001,3,329.0-330.0,0,0
20140221134108,10.0.0.1,33961,10.0.0.3,5001,3,330.0-331.0,0,0
20140221134108,10.0.0.1,33961,10.0.0.3,5001,3,331.0-332.0,0,0
20140221134108,10.0.0.1,33961,10.0.0.3,5001,3,332.0-333.0,0,0
20140221134108,10.0.0.1,33961,10.0.0.3,5001,3,333.0-334.0,0,0
20140221134108,10.0.0.1,33961,10.0.0.3,5001,3,334.0-335.0,0,0
20140221134108,10.0.0.1,33961,10.0.0.3,5001,3,335.0-336.0,0,0
20140221134108,10.0.0.1,33961,10.0.0.3,5001,3,336.0-337.0,0,0
20140221134108,10.0.0.1,33961,10.0.0.3,5001,3,337.0-338.0,0,0
20140221134108,10.0.0.1,33961,10.0.0.3,5001,3,338.0-339.0,0,0
20140221134108,10.0.0.1,33961,10.0.0.3,5001,3,339.0-340.0,0,0
20140221134108,10.0.0.1,33961,10.0.0.3,5001,3,340.0-341.0,0,0
20140221134108,10.0.0.1,33961,10.0.0.3,5001,3,341.0-342.0,0,0
20140221134108,10.0.0.1,33961,10.0.0.3,5001,3,342.0-343.0,0,0
20140221134108,10.0.0.1,33961,10.0.0.3,5001,3,343.0-344.0,0,0
20140221134108,10.0.0.1,33961,10.0.0.3,5001,3,344.0-345.0,0,0
20140221134108,10.0.0.1,33961,10.0.0.3,5001,3,345.0-346.0,0,0
20140221134108,10.0.0.1,33961,10.0.0.3,5001,3,346.0-347.0,0,0
20140221134108,10.0.0.1,33961,10.0.0.3,5001,3,347.0-348.0,0,0
20140221134108,10.0.0.1,33961,10.0.0.3,5001,3,348.0-349.0,0,0
20140221134108,10.0.0.1,33961,10.0.0.3,5001,3,349.0-350.0,0,0
20140221134108,10.0.0.1,33961,10.0.0.3,5001,3,350.0-351.0,0,0
20140221134108,10.0.0.1,33961,10.0.0.3,5001,3,351.0-352.0,0,0
20140221134108,10.0.0.1,33961,10.0.0.3,5001,3,352.0-353.0,0,0
20140221134108,10.0.0.1,33961,10.0.0.3,5001,3,353.0-354.0,0,0
20140221134108,10.0.0.1,33961,10.0.0.3,5001,3,354.0-355.0,0,0
20140221134108,10.0.0.1,33961,10.0.0.3,5001,3,355.0-356.0,0,0
20140221134108,10.0.0.1,33961,10.0.0.3,5001,3,356.0-357.0,0,0
20140221134108,10.0.0.1,33961,10.0.0.3,5001,320140221134108,10.0.0.1,33644,10.0.0.3,5001,3,354.0-355.0,131072,1048576
20140221134109,10.0.0.1,33644,10.0.0.3,5001,3,355.0-356.0,0,0
20140221134109,10.0.0.1,33644,10.0.0.3,5001,3,356.0-357.0,0,0
20140221134109,10.0.0.1,33644,10.0.0.3,5001,3,357.0-358.0,0,0
20140221134109,10.0.0.1,33644,10.0.0.3,5001,3,358.0-359.0,0,0
20140221134109,10.0.0.1,33644,10.0.0.3,5001,3,359.0-360.0,0,0
20140221134109,10.0.0.1,33644,10.0.0.3,5001,3,360.0-361.0,0,0
20140221134109,10.0.0.1,33644,10.0.0.3,5001,3,361.0-362.0,0,0
20140221134109,10.0.0.1,33644,10.0.0.3,5001,3,362.0-363.0,0,0
20140221134109,10.0.0.1,33644,10.0.0.3,5001,3,363.0-364.0,0,0
20140221134109,10.0.0.1,33644,10.0.0.3,5001,3,364.0-365.0,0,0
20140221134109,10.0.0.1,33644,10.0.0.3,5001,3,365.0-366.0,0,0
0,0,0
20140221134109,10.0.0.1,33961,10.0.0.3,5001,3,370.0-371.0,0,0
20140221134109,10.0.0.1,33961,10.0.0.3,5001,3,371.0-372.0,0,0
20140221134109,10.0.0.1,33961,10.0.0.3,5001,3,372.0-373.0,0,0
20140221134109,10.0.0.1,33961,10.0.0.3,5001,3,373.0-374.0,0,0
20140221134109,10.0.0.1,33961,10.0.0.3,5001,3,374.0-375.0,0,0
20140221134109,10.0.0.1,33961,10.0.0.3,5001,3,375.0-376.0,0,0
20140221134109,10.0.0.1,33961,10.0.0.3,5001,3,376.0-377.0,0,0
20140221134109,10.0.0.1,33961,10.0.0.3,5001,3,377.0-378.0,0,0
20140221134109,10.0.0.1,33961,10.0.0.3,5001,3,378.0-379.0,0,0
77.0-378.0,0,0
20140221134107,10.0.0.1,33748,10.0.0.3,5001,3,378.0-379.0,0,0
20140221134107,10.0.0.1,33748,10.0.0.3,5001,3,379.0-380.0,0,0
20140221134107,10.0.0.1,33748,10.0.0.3,5001,3,380.0-381.0,0,0
20140221134107,10.0.0.1,33748,10.0.0.3,5001,3,381.0-20140221134108,10.0.0.1,33902,10.0.0.3,5001,3,379.0-380.0,131072,1048576
20140221134108,10.0.0.1,33902,10.0.0.3,5001,3,380.0-381.0,0,0
20140221134108,10.0.0.1,33902,10.0.0.3,5001,3,381.0-382.0,0,0
20140221134108,10.0.0.1,33902,10.0.0.3,5001,3,382.0-383.0,0,0
20140221134108,10.0.0.1,33902,10.0.0.3,5001,3,383.0-384.0,0,0
20140221134108,10.0.0.1,33902,10.0.0.3,5001,3,384.0-385.0,0,0
20140221134108,10.0.0.1,33902,10.0.0.3,5001,3,385.0-386.0,0,0
20140221134108,10.0.0.1,33902,10.0.020140221134109,10.0.0.1,33746,10.0.0.3,5001,3,388.0-389.0,131072,1048576
20140221134109,10.0.0.1,33746,10.0.0.3,5001,3,389.0-390.0,0,0
20140221134109,10.0.0.1,33746,10.0.0.3,5001,3,390.0-391.0,0,0
20140221134109,10.0.0.1,33746,10.0.0.3,5001,3,391.0-392.0,0,0
20140221134109,10.0.0.1,33746,10.0.0.3,5001,3,392.0-393.0,0,0
1134108,10.0.0.1,33847,10.0.0.3,5001,20140221134109,10.0.0.1,34104,10.0.0.3,5001,3,392.0-393.0,131072,1048576
3,393.0-39420140221134109,10.0.0.1,33926,10.0.0.3,5001,3,393.0-394.0,131072,1048576
20140221134109,10.0.0.1,3392620140221134109,10.0.0.1,33843,10.0.0.3,5001,3,395.0-396.0,131072,1048576
20140221134109,10.0.0.1,33709,10.0.0.3,5001,3,396.0-397.0,131072,1048576
3,5001,3,398.0-399.0,0,0
20140221134109,10.0.0.1,33589,10.0.0.3,5001,3,399.0-400.0,0,0
20140221134109,10.0.0.1,33589,10.0.0.3,5001,3,400.0-401.0,0,0
,10.0.0.1,33926,10.0.0.3,5001,3,399.0-400.0,0,0
20140221134109,10.0.0.1,33926,10.0.0.3,5001,3,400.020140221134109,10.0.0.1,33652,10.0.0.3,5001,3,401.0-402.0,0,0
3,402.0-403.0,0,0
0,0
20140221134109,10.0.0.1,33526,10.0.0.3,5001,3,402.0-403.0,0,0
20140221134109,10.0.0.1,33526,10.0.0.3,5001,3,403.0-404.0,0,0
20140221134109,10.0.0.1,33526,10.0.0.3,5001,3,404.0-405.0,0,0
