20140414104055,10.0.0.2,58383,10.0.0.3,5001,3,0.0-1.0,0,0
20140414104055,10.0.0.2,58269,10.0.0.3,5001,3,1.0-2.0,13102014041410420140414104058,10.0.0.2,58229,10.0.0.3,5001,3,220140414104058,10.0.0.2,58321,10.0.0.3,5001,3,3.0-4.0,131020140414104100,10.0.0.2,58399,10.0.0.3,5001,3,4.0-5.0,131072,1048576
20140414104100,10.0.0.2,58399,10.0.0.3,5001,3,5.0-6.0,0,0
2014041410420140414104101,10.0.0.2,58324,10.0.0.3,5001,3,620140414104101,10.0.0.2,58315,10.0.0.3,5001,3,7.0-8.0,131020140414104102,10.0.0.2,58341,10.0.0.3,5001,3,8.0-9.0,131020140414104103,10.0.0.2,58342,10.0.0.3,5001,3,9.0-10.0,1310201404141042014041410420140414104105,10.0.0.2,58351,10.0.0.3,5001,3,10.2014041410420140414104107,10.0.0.2,58416,10.0.0.3,5001,3,11.0-12.0,131072,1048576
20140414104107,10.0.0.2,58416,10.0.0.320140414104108,10.0.0.2,58304,10.0.0.3,5001,3,13.0-14.0,13102014041410420140414104110,10.0.0.2,58417,10.20140414104112,10.0.0.2,58364,10.0.0.3,5001,3,14.0-15.0,131072,1048576
20140414104112,10.0.0.2,58364,10.0.0.3,5001,3,15.0-16.0,0,0
20140414104112,10.0.0.2,58364,10.0.0.3,5001,3,16.0-17.0,0,0
20140414104112,10.0.0.2,58364,10.0.0.320140414104112,10.0.0.2,58409,10.0.0.3,5001,3,18.2014041410420140414104115,10.0.0.2,58395,10.0.0.3,5001,3,19.0-20.0,131020140414104115,10.0.0.2,58325,10.0.0.3,5001,3,20.20140414104117,10.0.0.2,58404,10.0.0.3,5001,3,21.0-22.0,131072,1048576
20140414104117,10.0.0.2,58404,10.0.0.3,5001,3,22.0-23.0,0,0
2014041410420140414104118,10.0.0.2,58394,10.0.0.3,5001,3,23.20140414104119,10.0.0.2,58374,10.0.0.3,5001,3,24.0-25.0,131072,1048576
20140414104121,10.0.0.2,58379,10.0.0.3,5001,3,25.0-26.0,131072,1048576
20140414104122,10.0.0.2,58409,10.0.0.3,5001,3,26.0-27.0,131072,1048576
20140414104122,10.0.0.2,58409,10.0.0.3,5001,3,27.0-28.0,0,0
20140414104122,10.0.0.2,58409,10.0.0.32014041410420140414104125,10.0.0.2,58416,10.0.0.3,5001,3,29.0-30.0,131072,1048576
20140414104125,10.0.0.2,58416,10.0.0.3,5001,3,30.20140414104126,10.0.0.20140414104127,10.0.0.2,58406,10.0.0.3,5001,3,31.0-32.0,131072,1048576
20140414104127,10.0.0.2,58406,10.0.0.3,5001,3,32.0-33.0,0,0
20140414104128,10.0.0.2,58364,10.0.0.320140414104129,10.0.0.2,58352,10.0.0.3,5001,3,34.0-35.0,13102014041410420140414104129,10.0.0.20140414104130,10.0.0.2,58356,10.0.0.3,5001,3,35.0-36.0,131020140414104131,10.0.0.2,58220140414104134,10.0.0.2,58303,10.0.0.3,5001,3,37.0-38.0,131072,1048576
20140414104134,10.0.0.20140414104134,10.0.0.2,58350,10.0.0.3,5001,3,38.0-39.0,131072,1048576
20140414104134,10.0.0.2,58320140414104135,10.0.0.20140414104135,10.0.0.20140414104135,10.0.0.2,58320140414104135,10.0.0.2,58410,10.0.0.3,5001,3,41.0-42.0,1310201404141042014041410420140414104137,10.0.0.2,58396,10.0.0.3,5001,3,42.2014041410420140414104137,10.0.0.20140414104138,120140414104139,10.0.0.2,58374,10.0.0.3,5001,3,44.0-45.0,131020140414104140,10.0.0.2014041410420140414104141,10.0.0.2,58388,10.0.0.320140414104142,10.0.0.2,58298,10.0.0.3,5001,3,46.0-47.0,131072,1048576
20140414104142,10.0.0.2,58298,10.0.0.3,5001,3,47.2014041410420140414104144,10.0.0.2,58342,10.0.0.3,5001,3,48.0-49.0,131020140414104145,10.0.0.2,58417,10.0.0.3,5001,3,49.0-50.0,131020140414104145,10.0.0.2,58313,10.0.0.3,5001,3,50.0-51.0,13102014041410420140414104147,10.0.0.2,58345,10.0.0.3,5001,3,51.0-52.0,13102014041410420140414104147,10.0.0.2,58396,10.0.0.320140414104149,10.0.0.20140414104149,10.0.0.2,58295,10.0.0.3,5001,3,53.0-54.0,131072,1048576
20140414104151,10.0.0.2,58286,10.0.0.3,5001,3,54.0-55.0,131020140414104151,10.0.0.2,58320,10.0.0.3,5001,3,55.0-56.0,131072,1048576
20140414104151,10.0.0.2,58320,10.0.0.320140414104152,10.0.0.2,58345,10.0.0.3,5001,3,57.0-58.0,13102014041410420140414104153,10.0.0.2,58383,10.0.0.3,5001,20140414104154,10.0.0.2,58320140414104154,10.0.0.2,58406,10.0.0.320140414104154,10.0.0.20140414104155,10.0.0.20140414104155,10.0.0.2,58387,10.0.0.3,5001,3,60.2014041410420140414104155,120140414104157,10.0.0.2,58404,10.0.0.3,5001,3,62.0-63.0,131072,1048576
20140414104200,10.0.0.2,58345,10.0.0.3,5001,3,63.0-64.0,131072,1048576
2014041410420140414104200,10.0.0.2,58410,10.0.0.3,5001,3,64.0-65.0,131072,1048576
20140414104200,10.0.0.2,58410,10.0.0.3,5001,3,65.20140414104201,10.0.0.2,58417,10.0.0.3,5001,3,66.20140414104202,10.0.0.2,58303,10.0.0.3,5001,3,67.0-68.0,131072,1048576
2014041410420140414104202,10.0.0.20140414104203,10.0.0.2,58387,10.0.0.3,5001,3,68.0-69.0,131072,1048576
20140414104204,10.0.0.2,58395,10.0.0.3,5001,3,69.20140414104205,10.0.0.2,58368,10.0.0.320140414104206,10.0.0.2,58417,10.0.0.3,5001,3,71.0-72.0,131072,1048576
20140414104206,10.0.0.2,58417,10.0.0.32014041410420140414104207,10.0.0.2014041410420140414104208,10.0.0.2,58387,10.0.0.32014041410420140414104211,10.0.0.2,58409,10.0.0.3,5001,3,74.0-75.0,131072,1048576
20140414104211,10.0.0.2,58409,10.0.0.320140414104211,10.0.0.20140414104211,10.0.0.2,58394,10.0.0.320140414104212,10.0.0.2,58383,10.0.0.3,5001,3,77.0-78.0,131072,1048576
20140414104214,10.0.0.2,58410,10.0.0.3,5001,3,78.0-79.0,131072,1048576
20140414104214,10.0.0.2,58410,10.0.0.3,5001,3,79.0-80.0,0,0
20140414104214,10.0.0.2,58410,10.20140414104214,10.0.0.201402014041410420140414104216,10.0.0.2,58318,10.0.0.320140414104218,10.0.0.2,58383,10.0.0.3,5001,3,82.0-83.0,131072,1048576
20140414104218,10.0.0.2,58383,10.0.0.3,5001,3,83.0-84.0,0,0
20140414104220,10.0.0.2,58313,10.0.0.3,5001,3,84.0-85.0,131072,1048576
20140414104220,10.0.0.2,58313,10.20140414104220,10.0.0.2,58320140414104221,10.0.0.20140414104221,10.0.0.2,58406,10.0.0.32014041410420140414104222,10.0.0.2,58294,10.0.0.32014041410420140414104224,10.0.0.2,58404,10.0.0.3,5001,3,88.0-89.0,131072,1048576
20140414104224,10.0.0.2,58404,10.0.0.3,5001,3,89.0-90.0,0,0
2014041410420140414104226,10.0.0.2,58309,10.0.0.3,5001,3,90.0-91.0,131072,1048576
20140414104226,10.0.0.2,58368,10.0.0.32014041410420140414104227,10.0.0.20140414104227,10.0.0.2,58413,10.0.0.3,5001,3,92.0-93.0,131072,1048576
20140414104228,10.0.0.2,58396,10.0.0.320140414104228,10.0.0.2014041410420140414104229,10.0.0.2,58320140414104229,10.0.0.201404141042014020140414104230,10.0.0.2,58383,10.20140414104230,10.0.0.2,58368,10.0.0.3,5001,3,96.0-97.0,131020140414104231,10.0.0.2,58341,10.0.0.320140420140414104232,120140414104232,10.0.0.20140414104233,10.0.0.2,58320140414104236,10.0.0.2,58325,10.0.0.3,5001,3,99.0-100.0,131072,1048576
20140414104236,10.0.0.2,58325,10.0.0.3,5001,3,100.0-101.0,0,0
20140414104236,10.0.0.2,58325,10.0.0.3,5001,3,101.0-102.0,0,0
20140414104236,10.0.0.2,58325,10.0.0.3,5001,20140414104237,10.20140414104238,10.0.0.2,58327,10.0.0.3,5001,3,103.0-104.0,131072,1048576
20140414104239,10.0.0.2,58309,10.0.0.3,5001,20140414104240,10.0.0.2,58329,10.0.0.3,5001,3,104.0-105.0,131072,1048576
201404120140414104241,10.0.0.2,58379,10.0.0.3,5001,3,106.0-107.0,131072,1048576
20140414104241,10.0.0.20140414104242,10.0.0.2,58315,10.0.0.3,5001,3,107.020140414104242,10.0.0.2,58341,10.0.0.3,5001,3,108.0-109.0,131072,1048576
2014041410420140414104201404120140414104246,10.0.0.20140414104246,10.0.0.2,58394,10.0.0.3,5001,3,110.0-111.0,131072,1048576
20140414104246,10.0.0.20140414104246,10.20140414104248,10.0.0.2,58404,10.0.0.3,5001,3,112.0-113.0,131072,1048576
20140414104248,10.0.0.2,58404,10.0.0.3,5001,2014041410420140414104248,10.0.0.2,58354,10.0.0.3,5001,3,113.0-114.0,131072,1048576
20140414104248,10.2014041410420140414104250,10.0.0.2,58378,10.0.0.3,5001,3,115.0-116.0,131020140414104250,10.0.0.2,58234,10.0.0.3,5001,3,116.020140414104252,10.0.0.20140414104253,10.0.0.2,58388,10.0.0.3,5001,3,117.0-118.0,131072,1048576
2014041410420140414104253,10.20140414104255,10.0.0.2,58368,10.0.0.3,5001,3,119.0-120.0,131072,1048576
20140414104255,10.0.0.2,58368,10.0.0.3,520140414104255,10.0.0.20140414104255,10.0.0.2,5839420140414104256,10.0.0.2,582014041410420140414104256,10.2014041410420140414104258,10.0.0.2,58358,10.0.0.3,5001,3,122.0-123.0,131072,1048576
20140414104258,10.20140414104300,10.0.0.2,58383,10.0.0.3,5001,3,124.0-125.0,131072,1048576
20140414104301,10.0.0.2,58410,10.0.0.3,5001,3,125.0-126.0,131072,1048576
20140414104301,10.0.0.2,58410,10.0.0.3,5001,3,126.0-127.0,0,0
2014041410420140414104303,10.0.0.2,58315,10.0.0.3,5001,3,127.0-128.0,131020140414104304,10.0.0.2,58342,10.0.0.3,5001,3,128.0-129.0,131072,1048576
20140414104304,10.0.0.2,58342,10.0.0.3,5001,3,129.0-130.0,0,0
20140414104304,10.0.0.2,5834220140414104305,10.0.0.2,58309,10.0.0.3,5001,201404120140414104307,10.0.0.2,58301,10.0.0.3,5001,3,132.0-1332014041410420140414104307,10.0.0.2,58332,10.0.0.3,5001,3,132.020140414104308,10.0.0.2,58350,10.0.0.3,5001,3,133.0-134.0,131072,1048576
2014041201420140414104309,10.201420140414104310,10.0.0.2,58403,10.0.0.3,5001,3,134.0-135.0,2014041410420140414104311,10.0.0.2,58331,10.0.0.3,5001,3,136.02014041410420140414104312,10.0.0.2,58345,10.0.0.3,5001,3,137.0-13820140414104312,10.0.0.2,5828420140414104313,10.0.0.2,58293,10.0.0.3,520140414104315,10.0.0.2,58410,10.0.0.3,5001,3,139.0-140.0,131072,1048576
20140414104315,10.0.0.2,58410,10.20140414104316,10.0.0.2,58406,10.0.0.3,5001,3,140.0-141.0,131072,1048576
20140414104316,10.2014041410420140414104317,10.0.0.2,58378,10.0.0.3,5001,3,142.0-143.0,131072,1048576
20140414104317,10.0.0.20140414104317,10.0.0.2,583772014041410420140414104318,10.0.0.2,582932014041410420140414104321,10.0.0.2,58404,10.0.0.3,5001,3,145.0-146.0,131072,1048576
20140414104321,10.0.0.2,58404,10.0.0.3,5001,3,146.0-147.0,0,0
20140414104321,201404120140414104322,10.0.0.2,58350,10.0.0.3,5001,3,147.0-148.0,131072,1048576
2014041410420140414104322,10.20140414104324,10.0.0.2,58410,10.0.0.3,5001,20140414104324,10.0.0.2,58295,10.20140414104324,10.20140414104324,10.0.0.2,5837420140414104326,10.0.0.2,58304,10.20140414104326,10.0.0.2,58318,10.0.0.3,5001,3,151.0-152.0,131072,1048576
20140414104327,10.0.0.2,58409,10.0.0.3,5001,3,152.0-153.0,131072,1048576
20140414104327,10.2014041410420140414104328,10.0.0.20140414104329,10.0.0.2,58341,10.0.0.3,5001,20140414104330,10.0.0.2,58395,10.0.0.3,5001,3,120140414104330,10.0.0.2014041410420140414104331,10.0.0.2,58315,10.0.0.3,520140414104331,10.0.0.2,5820140414104332,10.0.0.2,5834620140414104333,10.0.0.2,58396,10.0.0.3,520140414104333,10.0.0.2,58263,10.0.0.3,5001,3,158.020140414104333,10.0.0.2,58345,10.0.0.3,5001,3,159.0-160.0,131072,1048576
20140414104334,10.0.0.2,58383,10.0.0.3,520140414104336,10.0.0.2,58404,10.20140414104336,10.0.0.2,58409,10.0.0.3,5001,3,161.0-162.0,13102014041410420140414104337,10.0.0.20140414104338,10.0.0.2,58403,10.0.0.3,5001,3,162.0-163.0,131072,1048576
20140414104338,10.20140414104338,10.0.0.20140414104339,10.0.0.2,58358,10.0.0.3,5001,3,164.0-165.0,131020140414104340,10.0.0.2,58342,10.0.0.3,520140414104340,10.0.0.20140414104341,10.0.0.2,58416,10.0.0.3,52014041410420140414104342,10.0.0.2,58383,10.0.0.3,5001,3,167.020140414104343,10.0.0.2,58410,10.0.0.3,5001,3,168.020140414104344,10.0.0.2,58304,10.0.0.3,5001,3,169.0-170.0,131072,1048576
20140414104345,10.0.0.2,58404,10.0.0.3,5001,3,170.0-171.0,131072,1048576
20140414104345,10.0.0.2,58315,10.0.0.3,5001,3,171.0-172.0,131020140414104347,10.0.0.20140414104347,10.0.0.2,58409,10.0.0.3,5001,3,172.0-173.0,131072,1048576
2014041410420140414104349,10.0.0.2,58413,10.0.0.3,5001,3,173.0-174.0,131072,1048576
2014041201404141042014041410420140414104350,10.0.0.2,58383,10.20140414104351,10.0.0.2,58406,10.0.0.3,520140414104351,10.0.0.2,58350,10.0.0.3,52014041410420140414104353,10.0.0.2,58318,10.0.0.3,5001,20140414104353,10.0.0.2,58329,10.0.0.3,5001,3,177.0-178.0,131020140414104355,10.0.0.2,58269,10.0.0.3,5001,3,178.0-179.0,131072,1048576
20140414104355,10.20140414104356,10.0.0.2,58383,10.0.0.3,5001,3,180.0-181.0,131072,1048576
20140414104356,10.0.0.2,58383,10.0.0.3,520140414104356,10.0.0.2,58331,10.20140414104356,10.0.0.2,5834220140414104357,20140414104357,10.20140414104358,10.0.0.2,58314,10.0.0.3,520140414104359,10.0.0.20140414104359,10.0.0.2,58378,10.0.0.3,5001,3,184.0-185.0,131072,1048576
20140414104359,10.0.0.2,58222,10.0.0.3,520140414104359,10.0.0.2,58248,10.201404141042014041410420140414104401,10.0.0.2,58324,10.0.0.3,5001,3,186.02014041410420140414104402,10.0.0.2,58349,10.0.0.3,5001,3,187.0-188.0,20140414104403,10.0.0.2014201404120140414104404,10.0.0.20140414104404,10.0.0.2,58413,10.0.0.3,5001,3,189.0-190.0,131072,1048576
201404120140414104404,10.0.0.2,58301,10.20140414104405,10.0.0.2,58345,10.20140414104406,10.0.0.2,5827420140414104406,10.0.0.2,58351,10.0.0.3,52014041410420140414104407,10.0.0.20140414104408,10.0.0.2,58342,10.0.0.3,5001,20140414104409,10.0.0.2,5839520140414104409,10.0.0.2,58413,10.0.0.3,5001,3,194.0-195.0,131072,1048576
20140414104410,10.20140414104410,10.0.0.2,58331,10.20140414104411,20140414104412,10.0.0.2,520140414104412,10.0.0.2,58404,10.0.0.3,5001,20140414104413,10.0.0.20140414104414,10.0.0.2,58389,10.0.0.3,5001,3,197.0-198.0,131072,1048576
20140414104414,10.20140414104415,10.0.0.2,58374,10.0.0.3,5001,3,199.020140414104415,10.0.0.20140414104415,10.0.0.2,58286,10.0.0.3,5001,3,200.020140414104416,10.0.0.2,58378,10.0.0.3,5001,3,201.0-202.0,131072,1048576
2014041410420140414104419,10.0.0.2,58352,10.0.0.3,5001,3,202.0-203.0,131072,1048576
20140414104419,10.0.0.2,58352,10.0.0.3,5001,3,203.0-204.0,0,0
20140414104419,10.20140414104420,10.0.0.2,58315,10.0.0.3,5001,3,205.0-206.0,131072,1048576
2014041410420140414104422,10.0.0.2,58243,10.0.0.3,5001,3,206.0-207.0,131072,1048576
20140414104422,10.0.0.2,58243,10.0.0.3,520140414104423,10.0.0.2,58410,10.0.0.3,5001,3,208.0-209.0,131072,1048576
20140414104423,10.0.0.2,58410,10.20140414104424,10.20140414104425,10.0.0.2,58318,10.0.0.3,5001,3,210.0-211.0,131072,1048576
20140414104425,10.0.0.2014041410420140414104426,10.0.0.2,58352,10.0.0.3,5001,3,211.020140414104426,10.0.0.2,58379,10.0.0.3,520140414104428,10.0.0.2,58410,10.0.0.3,5001,2014041410420140414104428,10.0.0.2,58400,10.0.0.3,520140414104430,10.0.0.2,58383,10.0.0.3,5001,3,214.0-215.0,131072,1048576
20140414104430,10.0.0.2,58416,10.0.0.3,5001,3,215.0-216.0,131072,1048576
20140414104430,10.0.0.2,58416,10.0.0.3,52014041410420140414104431,10.0.0.2,5840920140414104432,10.0.0.2,58325,10.0.0.3,5001,2014041410420140414104433,10.0.0.2,58400,10.0.0.3,5001,3,218.0-219.0,131020140414104434,10.20140414104434,10.0.0.2,58410,10.0.0.3,5001,3,220.0-221.0,131020140414104435,20140412014041410420140414104437,10.0.0.20140414104438,10.0.0.2,58396,10.0.0.3,5001,3,221.0-222.0,131072,1048576
20140414104438,10.0.0.2,58396,10.0.0.3,5001,3,222.0-223.0,0,0
201404120140414104438,10.0.0.2,5820140414104439,10.0.0.2,58371,10.0.020140414104440,10.0.0.2,58318,10.0.0.3,5001,3,225.0-226.0,131072,1048576
20140414104442,10.0.0.2,58404,10.0.0.3,5001,3,226.0-227.0,131072,1048576
20140414104442,10.0.0.20140414104442,10.0.0.2,58388,10.0.0.3,5001,3,227.020140414104443,10.0.0.2,58351,10.0.0.3,5001,3,228.0-229.0,131072,1048576
20140414104443,10.2014041410420140414104444,10.0.0.2,58325,10.0.0.3,5001,20140414104444,10.20140414104445,10.0.0.2,58318,10.0.0.3,5001,20140414104447,10.0.0.2,58379,10.0.0.3,5001,3,231.0-232.0,131072,1048576
20140414104447,10.0.0.2,58379,10.0.0.3,5001,3,232.020140414104447,10.0.0.201404120140414104448,10.0.0.2,58304,10.0.0.3,5001,20140414104450,10.0.0.2,58413,10.0.0.3,5001,3,234.0-235.0,131072,1048576
201404120140414104451,10.0.0.2,58318,10.0.0.3,5001,3,236.0-237.0,131072,1048576
20140414104451,20140414104451,10.20140414104452,10.0.0.2,58374,10.0.0.3,5001,3,237.0-238.0,131020140414104453,10.0.0.2,58313,10.0.0.3,5001,3,238.0-239.0,131072,1048576
20140414104453,10.0.0.2,5831320140414104453,20140414104454,10.0.0.2,5839920140414104455,10.0.0.2,58403,10.0.0.3,5001,3,240.0-241.0,131072,1048576
2014041410420140414104455,10.0.0.2,58276,10.0.0.3,5001,3,241.020140414104457,10.0.0.2,58352,10.0.0.3,5001,3,242.020140414104458,10.0.0.2,58341,10.0.0.3,520140414104459,10.0.0.2,58404,10.20140414104459,10.0.0.2,58413201420140414104459,10.0.0.2,5838020140414104500,10.20140414104500,10.0.0.2,58318,10.0.0.3,5001,20140414104500,10.0.0.2,58269,10.0.0.3,5001,3,246.0201404141042014041410420140414104502,10.0.0.2,58272,10.0.0.3,52014041410420140414104502,10.0.0.2,58341,10.0.0.3,520140414104503,10.0.0.2,5820140414104504,10.0.0.2,58371,10.0.020140414104504,10.0.0.2,58325,10.0.0.3,5001,3,250.0201420140414104505,10.20140414104506,10.0.0.2,58410,10.0.0.3,5001,3,251.0-252.0,131020140414104506,10.0.0.2,58368,10.0.0.3,5001,3,252.0-253.0,131072,1048576
201420140412014041410420140414104508,10.20140414104508,10.0.0.2,58315,10.20140414104508,10.0.0.2014041201420140414104509,10.0.0.2,58396,10.0.0.3,5001,3,254.0-255.0,131020140414104510,10.20140414104510,10.0.0.2014041410420140414104512,10.0.0.2,58409,10.0.0.3,5001,3,256.0-257.0,131072,1048576
20140414104512,10.20140414104513,10.0.0.2,58325,10.0.0.3,5001,20140414104513,10.0.0.2,58413,10.0.0.3,5001,3,258.0-259.0,131072,1048201404141042014041410420140414104515,10.0.0.20140414104515,10.0.0.2,58394,10.0.0.3,5001,3,260.020140414104516,10.0.0.2,58303,10.0.0.3,520140414104516,10.0.0.2,58315,10.0.0.3,5001,3,262.0-26320140414104517,10.0.0.2,5832920140414104519,10.0.0.2,58404,10.0.0.3,5001,3,263.0-264.0,131072,1048576
20140414104519,10.0.0.2,58404,10.0.0.3,5001,2014041410420140414104520,10.0.0.2,58354,10.0.0.3,5001,3,264.0-265.0,131072,1048576
20140414104520,10.0.0.2,5835420140414104520,10.20140414104521,10.0.0.2,58301,10.0.0.3,5001,3,267.0-268.0,13102014041410420140414104525,10.0.0.2,58368,10.0.0.3,5001,3,268.0-269.0,131072,1048576
20140414104525,10.0.0.2,58368,10.0.0.3,5001,3,269.0-270.0,0,0
20140414104525,10.0.0.2,58368,10.20140414104527,10.0.0.2,58413,10.0.0.3,5001,3,270.0-271.0,131072,1048576
20140414104527,10.0.0.2,58413,10.0.0.3,520140414104527,10.0.0.2,58410,10.20140414104528,10.0.0.2,58403,10.0.0.3,5001,3,272.0-273.0,131072,1048576
2014041410420140414104529,10.0.0.2,58346,10.0.0.3,5001,3,273.0-274.0,131072,1048576
20140414104530,10.0.0.2,58349,10.0.020140414104531,10.0.0.2,58368,10.0.0.3,5001,3,276.0-277.0,131072,1048576
20140414104531,10.0.0.2014041410420140414104532,10.0.0.2,58413,10.0.0.3,5001,3,277.0-278.0,131072,1048576
201404120140414104532,10.0.0.2,58318,10.0.0.20140414104533,10.20140414104534,10.0.0.2,58358,10.0.0.3,5001,3,279.020140414104534,10.0.0.2,5835120140414104536,10.0.0.2,58325,10.20140414104538,10.0.0.2,58410,10.0.0.3,5001,3,281.0-282.0,131072,1048576
20140414104538,10.0.0.2,58410,10.0.0.3,5001,3,282.0-283.0,0,0
2014041410420140414104538,10.0.0.2,58329,10.0.0.3,520140414104201404141042014041410420140414104539,10.0.0.2,58406,10.2014041410420140414104540,10.0.0.2,520140414104540,10.0.0.2,58368,10.0.0.3,5001,3,286.0-287.0,131072,1048576
20142014041410420140414104543,10.0.0.2,58380,10.0.0.3,5001,3,286.0-287.0,131072,1048576
20140414104543,10.0.0.2,58380,10.0.0.3,5001,3,287.0-288.0,0,0
20140414104543,10.20140414104543,10.0.0.20140414104544,10.0.0.2,58257,10.0.0.3,5001,3,289.0-290.0,131072,1048576
201404141042014041410420140414104545,10.0.0.2,58395,10.0.0.3,5001,3,290.0-291.0,131072,1048576
2014041410420140414104546,10.0.0.2,520140414104547,10.0.0.2,58331,10.20140414104548,10.0.0.2,58327,10.0.0.3,5001,3,293.0-29420140414104548,10.20140414104548,10.0.0.2,58358,10.0.0.3,520140414104550,10.0.0.2,58404,10.0.0.3,5001,3,295.0-296.0,131072,1048576
2014041410420140414104550,10.201420140414104551,10.0.0.2,58379,10.0.0.3,5001,3,296.0-297.0,131072,1048576
20140414104553,10.0.0.2,58400,10.0.0.3,5001,3,297.0-298.0,131072,1048576
20140414104553,10.0.0.2,5840020140414104201404120140414104554,10.0.0.2,58325,10.0.0.3,5001,20140414104201404120140414104556,10.0.0.2,58368,10.0.0.3,5001,3,301.0-302.0,131072,1048576
201420140414104556,10.0.0.2,58279,10.0.0.3,52014041410420140414104557,10.0.0.2,58383,10.0.0.3,5001,3,302.0-303.0,13102014041410420140414104559,10.0.0.2,58400,10.0.0.3,5001,3,303.020140414104559,10.0.0.2,58309,10.0.0.3,5001,3,304.0-305.0,131020140414104600,10.0.0.2,58358,10.0.0.3,5001,3,305.0-306.0,131072,1048576
201404141042014041410420140414104600,10.0.0.2,5828220140414104601,10.0.0.2,58374,10.0.0.3,520140414104602,10.0.0.20140414104602,10.0.0.2,58341,10.0.0.3,5001,3,308.0-309.0,131020140414104603,10.0.0.2014041201420140414104606,10.0.0.2,58403,10.0.0.3,5001,3,309.0-310.0,131072,1048576
20140414104606,10.0.0.2,58403,10.0.0.3,5001,3,310.0-311.0,20140414104606,10.0.0.2,58315,10.20140414104606,10.0.0.2,58394,10.0.0.3,5001,3,312.0-313.0,131072,1048576
20140414104201404120140414104607,10.0.0.2,58325,10.0.0.3,5001,3,314.0-31520140414104608,10.20140414104609,10.0.0.2,58318,10.0.0.3,5001,3,315.020140414104610,10.0.0.2,58304,10.0.0.3,5001,3,316.0-31720140414104611,10.0.0.2,58309,10.0.0.3,5001,3,316.0-317.0,131072,1048576
20140414104612,10.0.0.2,58406,10.0.0.3,5001,3,317.0-318.0,131020140414104614,10.0.0.2,58413,10.0.0.3,5001,3,318.0-319.0,131072,1048576
20140414104614,10.0.0.2,58413,10.0.0.3,520140414104615,10.0.0.2,58394,10.0.0.3,5001,20140414104615,10.2014041410420140414104618,10.0.0.2,58358,10.0.0.3,5001,3,321.0-322.0,131072,1048576
20140414104618,10.0.0.2,58358,10.0.0.3,5001,3,322.0-323.0,0,0
20140414104618,10.0.0.2,58358,10.20140414104620,10.0.0.2,5839520140414104620,10.0.0.2,58413,10.0.0.3,5001,3,324.0-325.0,131072,1048576
20140414104620,10.0.0.2,58413,10.0.0.3,5001,20140414104620,10.0.0.2,5832020140414104621,10.0.0.2,58400,10.0.0.3,5001,3,326.020140414104621,10.201420140414104622,10.0.0.2,5838320140414104622,10.0.0.20140414104623,10.0.0.2,58379,10.0.0.3,5001,3,328.0-329.0,1310201404120140414104623,10.0.0.2,58304,10.0.0.3,5001,20140414104626,10.0.0.2,58410,10.0.0.3,5001,3,330.0-331.0,131072,1048576
20140414104626,10.0.0.2,58410,10.20140414104627,10.0.0.2,58416,10.0.0.3,5001,3,331.020140414104627,10.0.0.2,58378,10.0.0.3,520140414104627,10.0.0.2,5834120140414104628,10.0.0.2,58368,10.20140414104629,10.0.0.2,58413,10.0.0.3,5001,3,334.0-335201404120140414104631,10.0.0.2,58294,10.0.0.3,5001,3,335.0-336.0,131072,1048576
20140414104631,10.0.0.2,58294,10.0.0.3,5001,3,336.0-337.0,0,0
20140414104631,10.0.0.2,5829420140414104632,10.0.0.20140414104632,10.0.0.2,58314,10.0.0.3,520140414104633,10.0.0.2,58318,10.20140414104634,10.0.0.2,58413,10.0.0.3,5001,3,339.0-340.0,131020140414104635,10.0.0.2,58329,10.0.0.3,5001,3,340.0-341.0,131072,1048576
20140414104635,10.0.0.2,58329,10.20140414104636,10.0.0.2,5834920140414104636,10.0.0.2,58201404120140414104637,10.0.0.2,58352,10.20140414104638,10.0.0.2,58275,10.0.0.3,5001,3,342.0-343.0,131072,1048576
20140412014041410420140414104640,10.0.0.2,58400,10.0.0.3,5001,3,344.0-345.0,131072,1048576
20140414104640,10.0.0.2,58400,10.0.0.3,5001,3,345.0-34620120140414104641,10.0.0.2,58315,10.20140414104642,10.0.0.2,58413,10.0.0.3,5001,3,347.0-348.0,131020140414104642,10.0.0.2,58303,10.20140414104642,10.0.0.2,58379,10.0.0.3,520140414104644,10.0.0.2,58341,10.0.0.3,5001,3,349.020140414104644,10.0.0.2,58368,10.20140414104645,10.0.0.2,58400,10.0.0.3,5001,3,350.0-351201404120140414104645,10.0.0.20140414104645,10.20140414104646,10.0.0.2,58413,10.2014041410420140414104201404120140414104647,10.0.0.20140414104647,10.20140414104651,10.0.0.2,58325,10.0.0.3,5001,3,354.0-355.0,131072,1048576
20140414104651,10.0.0.2,58325,10.0.0.3,5001,3,355.0-356.0,0,0
20140414104651,10.0.0.2,58325,10.0.0.3,5001,3,356.0-357.0,0,0
20140414104651,20140414104652,10.0.0.2,58396,10.0.0.3,5001,3,356.0-357.0,131072,104820140414104652,10.0.0.2,58294,10.0.0.3,5001,3,358.0-35920140414104653,10.0.0.2,58387,10.0.0.3,5001,3,358.020140414104654,10.0.0.2,58403,10.0.0.3,5001,3,359.0-360.0,131020140414104655,10.0.0.2,58406,10.0.0.3,5001,3,360.0201404120140414104656,10.0.0.2,58325,10.20140414104656,10.0.0.2,58368,10.0.0.3,5001,3,362.0-36320140414104657,10.20140414104657,10.0.0.2,58331,10.0.0.3,5001,20140414104659,10.0.0.2,58387,10.0.0.3,520140414104659,10.0.0.2,58394,10.0.0.3,5001,3,364.0-365.0,131072,1048576
20140414104701,10.0.0.2,58400,10.0.0.3,5001,3,365.0-366.0,131072,1048576
20140414104702,10.0.0.2,58378,10.0.0.3,5001,3,366.0-367.0,131072,1048576
20140414104702,10.0.0.2,58378,10.0.0.3,5001,3,367.020140414104702,10.0.0.2,58374,10.0.0.3,5001,2014041410470220140414104702,10.0.0.2,58325,10.0.0.20140412014041410420140414104704,10.0.0.2,58394,10.20140414104706,10.0.0.2,58396,10.0.0.3,5001,3,370.0-371.0,131072,1048576
20140414104706,10.0.0.2,583962014041201420140414104707,10.0.0.2,58378,10.0.0.3,5001,20140414104707,10.0.0.2,5835620140414104708,10.0.0.2,58403,10.0.0.3,5001,3,373.0-374.0,131020140414104709,10.0.0.2,58377,10.0.0.3,5001,3,374.0-375.0,131072,1201404120140414104709,10.20140414104709,2014041410471120140414104711,10.0.0.2,58325,10.0.0.3,5001,3,377.0-378.0,131072,120140414104711,10.0.0.2,58410201420140414104713,10.0.0.2,58364,10.0.0.3,5001,3,377.020140414104713,10.0.0.2,58379,10.0.0.3,520140414104714,10.0.0.2,58341,10.0.0.3,5001,3,379.0-380.0,131020140414104715,10.0.0.2,58413,10.20140414104716,10.0.0.2,58342,10.0.0.3,5001,3,380.0-381.0,20140414104717,10.0.0.2,58304,10.0.0.3,5001,3,382.0-383.0,131072,1201404120140414104717,10.0.0.2,58318,10.0.0.3,5001,2014041410420140414104719,10.0.0.2,58379,10.0.0.3,5001,3,383.020140414104720,10.0.0.2,58374,10.20140414104721,10.0.0.2,520140414104721,10.0.0.2,58325,10.0.0.3,5001,3,3820140414104722,10.0.0.2,58231,10.0.0.3,5001,3,385.0-386.0,131072,1048576
20140414104722,10.20140414104723,10.0.0.2,58410,10.0.0.3,5001,3,387.020140414104723,10.0.0.2,58394,10.0.0.3,5001,3,388.0-389.0,131072,1048576
2014041410420140414104724,10.0.0.2,58379,10.0.0.3,5001,20140414104724,10.0.0.2,58388,10.0.0.3,5001,3,389.0-390.0,131072,1048576
20140414104724,10.0.0.2,58388,10.0.0.3,5001,3,390.0-391.0,0,0
20140414104724,10.0.0.2,58388,10.0.0.3,5001,3,391.0-392.0,0,0
20140414104724,10.0.0.2,58388,10.0.0.3,5001,3,392.0-393.0,0,0
20140414104724,10.0.0.2,58388,10.0.0.3,5001,3,393.0-394.0,0,0
20140414104724,10.0.0.2,58388,10.0.0.3,5001,3,394.0-395.0,0,0
,10.0.0.3,5001,3,394.0-395.0,0,0
20140414104724,10.0.0.2,58239,10.0.0.3,5001,3,395.0-396.0,0,0
