1397606370,s1-eth1,0.00,0.00,0.00,0,0,0.00,0.00,0.00,0,0,0.00,0.00,0,0
1397606370,s1-eth3,0.00,0.00,0.00,0,0,0.00,0.00,0.00,0,0,0.00,0.00,0,0
1397606370,s1-eth2,0.00,0.00,0.00,0,0,0.00,0.00,0.00,0,0,0.00,0.00,0,0
1397606370,s2-eth1,0.00,0.00,0.00,0,0,0.00,0.00,0.00,0,0,0.00,0.00,0,0
1397606370,s2-eth2,0.00,0.00,0.00,0,0,0.00,0.00,0.00,0,0,0.00,0.00,0,0
1397606370,eth0,0.00,0.00,0.00,0,0,0.00,0.00,0.00,0,0,0.00,0.00,0,0
1397606370,eth1,0.00,0.00,0.00,0,0,0.00,0.00,0.00,0,0,0.00,0.00,0,0
1397606370,lo,0.00,0.00,0.00,0,0,0.00,0.00,0.00,0,0,0.00,0.00,0,0
1397606370,total,0.00,0.00,0.00,0,0,0.00,0.00,0.00,0,0,0.00,0.00,0,0
1397606371,s1-eth1,1250412.00,27984.00,1278396.00,27984,1250412,830.00,424.00,1254.00,424,830,0.00,0.00,0,0
1397606371,s1-eth3,14388.00,654414.00,668802.00,654414,14388,218.00,435.00,653.00,435,218,0.00,0.00,0,0
1397606371,s1-eth2,13596.00,611956.00,625552.00,611956,13596,206.00,406.00,612.00,406,206,0.00,0.00,0,0
1397606371,s2-eth1,654414.00,14388.00,668802.00,14388,654414,435.00,218.00,653.00,218,435,0.00,0.00,0,0
1397606371,s2-eth2,14388.00,654414.00,668802.00,654414,14388,218.00,435.00,653.00,435,218,0.00,0.00,0,0
1397606371,eth0,0.00,0.00,0.00,0,0,0.00,0.00,0.00,0,0,0.00,0.00,0,0
1397606371,eth1,0.00,0.00,0.00,0,0,0.00,0.00,0.00,0,0,0.00,0.00,0,0
1397606371,lo,0.00,0.00,0.00,0,0,0.00,0.00,0.00,0,0,0.00,0.00,0,0
1397606371,total,1947198.00,1963156.00,3910354.00,1963156,1947198,1907.00,1918.00,3825.00,1918,1907,0.00,0.00,0,0
1397606372,s1-eth1,1250014.00,28483.52,1278497.50,28512,1251264,831.17,431.57,1262.74,432,832,0.00,0.00,0,0
1397606372,s1-eth3,14727.27,645380.62,660107.94,646026,14742,222.78,428.57,651.35,429,223,0.00,0.00,0,0
1397606372,s1-eth2,13846.15,615916.12,629762.25,616532,13860,209.79,409.59,619.38,410,210,0.00,0.00,0,0
1397606372,s2-eth1,645380.62,14727.27,660107.94,14742,646026,428.57,222.78,651.35,223,429,0.00,0.00,0,0
1397606372,s2-eth2,14727.27,645380.62,660107.94,646026,14742,222.78,428.57,651.35,429,223,0.00,0.00,0,0
1397606372,eth0,0.00,0.00,0.00,0,0,0.00,0.00,0.00,0,0,0.00,0.00,0,0
1397606372,eth1,0.00,0.00,0.00,0,0,0.00,0.00,0.00,0,0,0.00,0.00,0,0
1397606372,lo,575.42,575.42,1150.85,576,576,5.99,5.99,11.99,6,6,0.00,0.00,0,0
1397606372,total,1939270.75,1950463.62,3889734.25,1952414,1941210,1921.08,1927.07,3848.15,1929,1923,0.00,0.00,0,0
1397606373,s1-eth1,1249872.12,28417.58,1278289.75,28446,1251122,830.17,430.57,1260.74,431,831,0.00,0.00,0,0
1397606373,s1-eth3,14443.56,657480.56,671924.12,658138,14458,218.78,436.56,655.34,437,219,0.00,0.00,0,0
1397606373,s1-eth2,14109.89,627300.69,641410.62,627928,14124,213.79,417.58,631.37,418,214,0.00,0.00,0,0
1397606373,s2-eth1,657480.56,14443.56,671924.12,14458,658138,436.56,218.78,655.34,219,437,0.00,0.00,0,0
1397606373,s2-eth2,14443.56,657480.56,671924.12,658138,14458,218.78,436.56,655.34,437,219,0.00,0.00,0,0
1397606373,eth0,0.00,0.00,0.00,0,0,0.00,0.00,0.00,0,0,0.00,0.00,0,0
1397606373,eth1,0.00,0.00,0.00,0,0,0.00,0.00,0.00,0,0,0.00,0.00,0,0
1397606373,lo,535.46,535.46,1070.93,536,536,5.99,5.99,11.99,6,6,0.00,0.00,0,0
1397606373,total,1950885.12,1985658.38,3936543.50,1987644,1952836,1924.08,1946.05,3870.13,1948,1926,0.00,0.00,0,0
1397606374,s1-eth1,1251244.00,28318.00,1279562.00,28318,1251244,832.00,429.00,1261.00,429,832,0.00,0.00,0,0
1397606374,s1-eth3,14302.00,628666.00,642968.00,628666,14302,217.00,419.00,636.00,419,217,0.00,0.00,0,0
1397606374,s1-eth2,14240.00,628596.00,642836.00,628596,14240,216.00,418.00,634.00,418,216,0.00,0.00,0,0
1397606374,s2-eth1,628666.00,14302.00,642968.00,14302,628666,419.00,217.00,636.00,217,419,0.00,0.00,0,0
1397606374,s2-eth2,14302.00,628666.00,642968.00,628666,14302,217.00,419.00,636.00,419,217,0.00,0.00,0,0
1397606374,eth0,0.00,0.00,0.00,0,0,0.00,0.00,0.00,0,0,0.00,0.00,0,0
1397606374,eth1,0.00,0.00,0.00,0,0,0.00,0.00,0.00,0,0,0.00,0.00,0,0
1397606374,lo,2253.75,2253.75,4507.49,2256,2256,23.98,23.98,47.95,24,24,0.00,0.00,0,0
1397606374,total,1923087.00,1928875.12,3851962.25,1930804,1925010,1923.08,1924.08,3847.15,1926,1925,0.00,0.00,0,0
1397606375,s1-eth1,1251052.00,28710.00,1279762.00,28710,1251052,830.00,435.00,1265.00,435,830,0.00,0.00,0,0
1397606375,s1-eth3,14835.17,668067.94,682903.12,668736,14850,224.78,443.56,668.33,444,225,0.00,0.00,0,0
1397606375,s1-eth2,13846.15,630255.75,644101.94,630886,13860,209.79,418.58,628.37,419,210,0.00,0.00,0,0
1397606375,s2-eth1,668067.94,14835.17,682903.12,14850,668736,443.56,224.78,668.33,225,444,0.00,0.00,0,0
1397606375,s2-eth2,14769.23,669580.44,684349.69,670250,14784,223.78,444.56,668.33,445,224,0.00,0.00,0,0
1397606375,eth0,0.00,0.00,0.00,0,0,0.00,0.00,0.00,0,0,0.00,0.00,0,0
1397606375,eth1,0.00,0.00,0.00,0,0,0.00,0.00,0.00,0,0,0.00,0.00,0,0
1397606375,lo,0.00,0.00,0.00,0,0,0.00,0.00,0.00,0,0,0.00,0.00,0,0
1397606375,total,1963282.00,2013432.00,3976714.00,2013432,1963282,1933.00,1968.00,3901.00,1968,1933,0.00,0.00,0,0
1397606376,s1-eth1,1250619.38,28483.52,1279102.88,28512,1251870,830.17,431.57,1261.74,432,831,0.00,0.00,0,0
1397606376,s1-eth3,14058.00,664890.00,678948.00,664890,14058,213.00,441.00,654.00,441,213,0.00,0.00,0,0
1397606376,s1-eth2,14388.00,661166.00,675554.00,661166,14388,218.00,439.00,657.00,439,218,0.00,0.00,0,0
1397606376,s2-eth1,664890.00,14058.00,678948.00,14058,664890,441.00,213.00,654.00,213,441,0.00,0.00,0,0
1397606376,s2-eth2,14124.00,664890.00,679014.00,664890,14124,214.00,441.00,655.00,441,214,0.00,0.00,0,0
1397606376,eth0,0.00,0.00,0.00,0,0,0.00,0.00,0.00,0,0,0.00,0.00,0,0
1397606376,eth1,0.00,0.00,0.00,0,0,0.00,0.00,0.00,0,0,0.00,0.00,0,0
1397606376,lo,0.00,0.00,0.00,0,0,0.00,0.00,0.00,0,0,0.00,0.00,0,0
1397606376,total,1959330.00,2033516.00,3992846.00,2033516,1959330,1917.00,1966.00,3883.00,1966,1917,0.00,0.00,0,0
1397606377,s1-eth1,1249750.25,41764.24,1291514.50,41806,1251000,829.17,552.45,1381.62,553,830,0.00,0.00,0,0
1397606377,s1-eth3,20701.30,599066.94,619768.25,599666,20722,272.73,396.60,669.33,397,273,0.00,0.00,0,0
1397606377,s1-eth2,21198.80,665686.31,686885.12,666352,21220,281.72,441.56,723.28,442,282,0.00,0.00,0,0
1397606377,s2-eth1,599066.94,20701.30,619768.25,20722,599666,396.60,272.73,669.33,273,397,0.00,0.00,0,0
1397606377,s2-eth2,20701.30,600579.44,621280.75,601180,20722,272.73,397.60,670.33,398,273,0.00,0.00,0,0
1397606377,eth0,0.00,0.00,0.00,0,0,0.00,0.00,0.00,0,0,0.00,0.00,0,0
1397606377,eth1,0.00,0.00,0.00,0,0,0.00,0.00,0.00,0,0,0.00,0.00,0,0
1397606377,lo,535.46,535.46,1070.93,536,536,5.99,5.99,11.99,6,6,0.00,0.00,0,0
1397606377,total,1911954.12,1928333.75,3840287.75,1930262,1913866,2058.94,2066.93,4125.87,2069,2061,0.00,0.00,0,0
1397606378,s1-eth1,1250987.00,27366.63,1278353.62,27394,1252238,828.17,414.59,1242.76,415,829,0.00,0.00,0,0
1397606378,s1-eth3,13124.88,624817.19,637942.06,625442,13138,198.80,414.59,613.39,415,199,0.00,0.00,0,0
1397606378,s1-eth2,14405.59,668519.50,682925.06,669188,14420,217.78,441.56,659.34,442,218,0.00,0.00,0,0
1397606378,s2-eth1,624817.19,13124.88,637942.06,13138,625442,414.59,198.80,613.39,199,415,0.00,0.00,0,0
1397606378,s2-eth2,13124.88,621792.25,634917.12,622414,13138,198.80,412.59,611.39,413,199,0.00,0.00,0,0
1397606378,eth0,0.00,0.00,0.00,0,0,0.00,0.00,0.00,0,0,0.00,0.00,0,0
1397606378,eth1,0.00,0.00,0.00,0,0,0.00,0.00,0.00,0,0,0.00,0.00,0,0
1397606378,lo,1646.35,1646.35,3292.71,1648,1648,17.98,17.98,35.96,18,18,0.00,0.00,0,0
1397606378,total,1918106.00,1957266.75,3875372.75,1959224,1920024,1876.12,1900.10,3776.22,1902,1878,0.00,0.00,0,0
1397606379,s1-eth1,1252078.00,27324.00,1279402.00,27324,1252078,827.00,414.00,1241.00,414,827,0.00,0.00,0,0
1397606379,s1-eth3,13464.00,622254.00,635718.00,622254,13464,204.00,411.00,615.00,411,204,0.00,0.00,0,0
1397606379,s1-eth2,13926.00,629824.00,643750.00,629824,13926,211.00,416.00,627.00,416,211,0.00,0.00,0,0
1397606379,s2-eth1,622254.00,13464.00,635718.00,13464,622254,411.00,204.00,615.00,204,411,0.00,0.00,0,0
1397606379,s2-eth2,13398.00,623768.00,637166.00,623768,13398,203.00,412.00,615.00,412,203,0.00,0.00,0,0
1397606379,eth0,0.00,0.00,0.00,0,0,0.00,0.00,0.00,0,0,0.00,0.00,0,0
1397606379,eth1,0.00,0.00,0.00,0,0,0.00,0.00,0.00,0,0,0.00,0.00,0,0
1397606379,lo,0.00,0.00,0.00,0,0,0.00,0.00,0.00,0,0,0.00,0.00,0,0
1397606379,total,1915120.00,1916634.00,3831754.00,1916634,1915120,1856.00,1857.00,3713.00,1857,1856,0.00,0.00,0,0
1397606380,s1-eth1,1250326.00,27390.00,1277716.00,27390,1250326,827.00,415.00,1242.00,415,827,0.00,0.00,0,0
1397606380,s1-eth3,13530.00,617712.00,631242.00,617712,13530,205.00,408.00,613.00,408,205,0.00,0.00,0,0
1397606380,s1-eth2,13860.00,629586.00,643446.00,629586,13860,210.00,417.00,627.00,417,210,0.00,0.00,0,0
1397606380,s2-eth1,617712.00,13530.00,631242.00,13530,617712,408.00,205.00,613.00,205,408,0.00,0.00,0,0
1397606380,s2-eth2,13530.00,617712.00,631242.00,617712,13530,205.00,408.00,613.00,408,205,0.00,0.00,0,0
1397606380,eth0,0.00,0.00,0.00,0,0,0.00,0.00,0.00,0,0,0.00,0.00,0,0
1397606380,eth1,0.00,0.00,0.00,0,0,0.00,0.00,0.00,0,0,0.00,0.00,0,0
1397606380,lo,0.00,0.00,0.00,0,0,0.00,0.00,0.00,0,0,0.00,0.00,0,0
1397606380,total,1908958.00,1905930.00,3814888.00,1905930,1908958,1855.00,1853.00,3708.00,1853,1855,0.00,0.00,0,0
1397606381,s1-eth1,1250808.00,27456.00,1278264.00,27456,1250808,828.00,416.00,1244.00,416,828,0.00,0.00,0,0
1397606381,s1-eth3,13530.00,625282.00,638812.00,625282,13530,205.00,413.00,618.00,413,205,0.00,0.00,0,0
1397606381,s1-eth2,13860.00,627162.00,641022.00,627162,13860,210.00,417.00,627.00,417,210,0.00,0.00,0,0
1397606381,s2-eth1,625282.00,13530.00,638812.00,13530,625282,413.00,205.00,618.00,205,413,0.00,0.00,0,0
1397606381,s2-eth2,13596.00,625282.00,638878.00,625282,13596,206.00,413.00,619.00,413,206,0.00,0.00,0,0
1397606381,eth0,0.00,0.00,0.00,0,0,0.00,0.00,0.00,0,0,0.00,0.00,0,0
1397606381,eth1,0.00,0.00,0.00,0,0,0.00,0.00,0.00,0,0,0.00,0.00,0,0
1397606381,lo,0.00,0.00,0.00,0,0,0.00,0.00,0.00,0,0,0.00,0.00,0,0
1397606381,total,1917076.00,1918712.00,3835788.00,1918712,1917076,1862.00,1864.00,3726.00,1864,1862,0.00,0.00,0,0
1397606382,s1-eth1,1251626.00,27456.00,1279082.00,27456,1251626,829.00,416.00,1245.00,416,829,0.00,0.00,0,0
1397606382,s1-eth3,13596.00,623768.00,637364.00,623768,13596,206.00,412.00,618.00,412,206,0.00,0.00,0,0
1397606382,s1-eth2,13912.09,628621.38,642533.50,629250,13926,210.79,416.58,627.37,417,211,0.00,0.00,0,0
1397606382,s2-eth1,623144.88,13582.42,636727.31,13596,623768,411.59,205.79,617.38,206,412,0.00,0.00,0,0
1397606382,s2-eth2,13582.42,623144.88,636727.31,623768,13596,205.79,411.59,617.38,412,206,0.00,0.00,0,0
1397606382,eth0,0.00,0.00,0.00,0,0,0.00,0.00,0.00,0,0,0.00,0.00,0,0
1397606382,eth1,0.00,0.00,0.00,0,0,0.00,0.00,0.00,0,0,0.00,0.00,0,0
1397606382,lo,0.00,0.00,0.00,0,0,0.00,0.00,0.00,0,0,0.00,0.00,0,0
1397606382,total,1914597.50,1915922.12,3830519.50,1917838,1916512,1862.14,1861.14,3723.28,1863,1864,0.00,0.00,0,0
1397606383,s1-eth1,1250163.88,27494.51,1277658.38,27522,1251414,826.17,416.58,1242.76,417,827,0.00,0.00,0,0
1397606383,s1-eth3,13582.42,618065.94,631648.38,618684,13596,205.79,409.59,615.38,410,206,0.00,0.00,0,0
1397606383,s1-eth2,13846.15,630707.31,644553.44,631338,13860,209.79,416.58,626.37,417,210,0.00,0.00,0,0
1397606383,s2-eth1,618065.94,13582.42,631648.38,13596,618684,409.59,205.79,615.38,206,410,0.00,0.00,0,0
1397606383,s2-eth2,13582.42,618065.94,631648.38,618684,13596,205.79,409.59,615.38,410,206,0.00,0.00,0,0
1397606383,eth0,89.91,89.91,179.82,90,90,1.00,1.00,2.00,1,1,0.00,0.00,0,0
1397606383,eth1,0.00,0.00,0.00,0,0,0.00,0.00,0.00,0,0,0.00,0.00,0,0
1397606383,lo,343.66,343.66,687.31,344,344,5.99,5.99,11.99,6,6,0.00,0.00,0,0
1397606383,total,1909674.38,1908349.75,3818024.00,1910258,1911584,1864.14,1865.13,3729.27,1867,1866,0.00,0.00,0,0
1397606384,s1-eth1,1250026.00,27494.51,1277520.50,27522,1251276,829.17,416.58,1245.75,417,830,0.00,0.00,0,0
1397606384,s1-eth3,13714.29,606751.25,620465.56,607358,13728,207.79,402.60,610.39,403,208,0.00,0.00,0,0
1397606384,s1-eth2,13846.15,629540.50,643386.62,630170,13860,209.79,416.58,626.37,417,210,0.00,0.00,0,0
1397606384,s2-eth1,606751.25,13714.29,620465.56,13728,607358,402.60,207.79,610.39,208,403,0.00,0.00,0,0
1397606384,s2-eth2,13648.35,621876.12,635524.50,622498,13662,206.79,412.59,619.38,413,207,0.00,0.00,0,0
1397606384,eth0,0.00,0.00,0.00,0,0,0.00,0.00,0.00,0,0,0.00,0.00,0,0
1397606384,eth1,0.00,0.00,0.00,0,0,0.00,0.00,0.00,0,0,0.00,0.00,0,0
1397606384,lo,0.00,0.00,0.00,0,0,0.00,0.00,0.00,0,0,0.00,0.00,0,0
1397606384,total,1897986.12,1899376.62,3797362.75,1901276,1899884,1856.14,1856.14,3712.29,1858,1858,0.00,0.00,0,0
1397606385,s1-eth1,1251314.75,27560.44,1278875.12,27588,1252566,830.17,417.58,1247.75,418,831,0.00,0.00,0,0
1397606385,s1-eth3,13582.42,623388.62,636971.06,624012,13596,205.79,413.59,619.38,414,206,0.00,0.00,0,0
1397606385,s1-eth2,13912.09,632463.56,646375.62,633096,13926,210.79,419.58,630.37,420,211,0.00,0.00,0,0
1397606385,s2-eth1,623388.62,13582.42,636971.06,13596,624012,413.59,205.79,619.38,206,414,0.00,0.00,0,0
1397606385,s2-eth2,13648.35,606751.25,620399.62,607358,13662,206.79,402.60,609.39,403,207,0.00,0.00,0,0
1397606385,eth0,89.91,89.91,179.82,90,90,1.00,1.00,2.00,1,1,0.00,0.00,0,0
1397606385,eth1,0.00,0.00,0.00,0,0,0.00,0.00,0.00,0,0,0.00,0.00,0,0
1397606385,lo,0.00,0.00,0.00,0,0,0.00,0.00,0.00,0,0,0.00,0.00,0,0
1397606385,total,1917852.00,1905740.00,3823592.00,1905740,1917852,1870.00,1862.00,3732.00,1862,1870,0.00,0.00,0,0
1397606386,s1-eth1,1250168.00,35850.00,1286018.00,35850,1250168,828.00,491.00,1319.00,491,828,0.00,0.00,0,0
1397606386,s1-eth3,18840.00,599844.00,618684.00,599844,18840,258.00,398.00,656.00,398,258,0.00,0.00,0,0
1397606386,s1-eth2,16982.00,552092.00,569074.00,552092,16982,233.00,366.00,599.00,366,233,0.00,0.00,0,0
1397606386,s2-eth1,599844.00,18840.00,618684.00,18840,599844,398.00,258.00,656.00,258,398,0.00,0.00,0,0
1397606386,s2-eth2,18746.00,599844.00,618590.00,599844,18746,257.00,398.00,655.00,398,257,0.00,0.00,0,0
1397606386,eth0,0.00,0.00,0.00,0,0,0.00,0.00,0.00,0,0,0.00,0.00,0,0
1397606386,eth1,0.00,0.00,0.00,0,0,0.00,0.00,0.00,0,0,0.00,0.00,0,0
1397606386,lo,0.00,0.00,0.00,0,0,0.00,0.00,0.00,0,0,0.00,0.00,0,0
1397606386,total,1902677.38,1804665.38,3707342.75,1806470,1904580,1972.03,1909.09,3881.12,1911,1974,0.00,0.00,0,0
1397606387,s1-eth1,1249670.38,33044.96,1282715.38,33078,1250920,827.17,468.53,1295.70,469,828,0.00,0.00,0,0
1397606387,s1-eth3,18235.77,777596.44,795832.19,778374,18254,260.74,514.49,775.22,515,261,0.00,0.00,0,0
1397606387,s1-eth2,14903.10,630707.31,645610.44,631338,14918,208.79,416.58,625.37,417,209,0.00,0.00,0,0
1397606387,s2-eth1,777596.44,18235.77,795832.19,18254,778374,514.49,260.74,775.22,261,515,0.00,0.00,0,0
1397606387,s2-eth2,18263.74,780621.38,798885.12,781402,18282,260.74,516.48,777.22,517,261,0.00,0.00,0,0
1397606387,eth0,0.00,0.00,0.00,0,0,0.00,0.00,0.00,0,0,0.00,0.00,0,0
1397606387,eth1,0.00,0.00,0.00,0,0,0.00,0.00,0.00,0,0,0.00,0.00,0,0
1397606387,lo,0.00,0.00,0.00,0,0,0.00,0.00,0.00,0,0,0.00,0.00,0,0
1397606387,total,2080748.00,2242446.00,4323194.00,2242446,2080748,2074.00,2179.00,4253.00,2179,2074,0.00,0.00,0,0
1397606388,s1-eth1,1251005.00,27296.70,1278301.75,27324,1252256,827.17,413.59,1240.76,414,828,0.00,0.00,0,0
1397606388,s1-eth3,15098.90,692897.12,707996.00,693590,15114,228.77,458.54,687.31,459,229,0.00,0.00,0,0
1397606388,s1-eth2,12197.80,567182.81,579380.62,567750,12210,184.82,374.63,559.44,375,185,0.00,0.00,0,0
1397606388,s2-eth1,692897.12,15098.90,707996.00,15114,693590,458.54,228.77,687.31,229,459,0.00,0.00,0,0
1397606388,s2-eth2,15098.90,691384.62,706483.56,692076,15114,228.77,457.54,686.31,458,229,0.00,0.00,0,0
1397606388,eth0,149.85,149.85,299.70,150,150,2.00,2.00,4.00,2,2,0.00,0.00,0,0
1397606388,eth1,0.00,0.00,0.00,0,0,0.00,0.00,0.00,0,0,0.00,0.00,0,0
1397606388,lo,343.66,343.66,687.31,344,344,5.99,5.99,11.99,6,6,0.00,0.00,0,0
1397606388,total,1986791.25,1994353.75,3981145.00,1996348,1988778,1936.06,1941.06,3877.12,1943,1938,0.00,0.00,0,0
1397606389,s1-eth1,1251494.00,27654.00,1279148.00,27654,1251494,827.00,419.00,1246.00,419,827,0.00,0.00,0,0
1397606389,s1-eth3,14718.00,670118.00,684836.00,670118,14718,223.00,443.00,666.00,443,223,0.00,0.00,0,0
1397606389,s1-eth2,12936.00,582890.00,595826.00,582890,12936,196.00,385.00,581.00,385,196,0.00,0.00,0,0
1397606389,s2-eth1,670118.00,14718.00,684836.00,14718,670118,443.00,223.00,666.00,223,443,0.00,0.00,0,0
1397606389,s2-eth2,14718.00,670118.00,684836.00,670118,14718,223.00,443.00,666.00,443,223,0.00,0.00,0,0
1397606389,eth0,0.00,0.00,0.00,0,0,0.00,0.00,0.00,0,0,0.00,0.00,0,0
1397606389,eth1,0.00,0.00,0.00,0,0,0.00,0.00,0.00,0,0,0.00,0.00,0,0
1397606389,lo,0.00,0.00,0.00,0,0,0.00,0.00,0.00,0,0,0.00,0.00,0,0
1397606389,total,1963984.00,1965498.00,3929482.00,1965498,1963984,1912.00,1913.00,3825.00,1913,1912,0.00,0.00,0,0
1397606390,s1-eth1,1250864.00,27786.00,1278650.00,27786,1250864,828.00,421.00,1249.00,421,828,0.00,0.00,0,0
1397606390,s1-eth3,14784.00,661918.00,676702.00,661918,14784,224.00,439.00,663.00,439,224,0.00,0.00,0,0
1397606390,s1-eth2,12936.00,576834.00,589770.00,576834,12936,196.00,381.00,577.00,381,196,0.00,0.00,0,0
1397606390,s2-eth1,661918.00,14784.00,676702.00,14784,661918,439.00,224.00,663.00,224,439,0.00,0.00,0,0
1397606390,s2-eth2,14850.00,660404.00,675254.00,660404,14850,225.00,438.00,663.00,438,225,0.00,0.00,0,0
1397606390,eth0,0.00,0.00,0.00,0,0,0.00,0.00,0.00,0,0,0.00,0.00,0,0
1397606390,eth1,0.00,0.00,0.00,0,0,0.00,0.00,0.00,0,0,0.00,0.00,0,0
1397606390,lo,0.00,0.00,0.00,0,0,0.00,0.00,0.00,0,0,0.00,0.00,0,0
1397606390,total,1955352.00,1941726.00,3897078.00,1941726,1955352,1912.00,1903.00,3815.00,1903,1912,0.00,0.00,0,0
1397606391,s1-eth1,1250046.00,27720.00,1277766.00,27720,1250046,827.00,420.00,1247.00,420,827,0.00,0.00,0,0
1397606391,s1-eth3,15114.00,686838.00,701952.00,686838,15114,229.00,455.00,684.00,455,229,0.00,0.00,0,0
1397606391,s1-eth2,12672.00,569264.00,581936.00,569264,12672,192.00,376.00,568.00,376,192,0.00,0.00,0,0
1397606391,s2-eth1,686838.00,15114.00,701952.00,15114,686838,455.00,229.00,684.00,229,455,0.00,0.00,0,0
1397606391,s2-eth2,15114.00,686838.00,701952.00,686838,15114,229.00,455.00,684.00,455,229,0.00,0.00,0,0
1397606391,eth0,0.00,0.00,0.00,0,0,0.00,0.00,0.00,0,0,0.00,0.00,0,0
1397606391,eth1,0.00,0.00,0.00,0,0,0.00,0.00,0.00,0,0,0.00,0.00,0,0
1397606391,lo,0.00,0.00,0.00,0,0,0.00,0.00,0.00,0,0,0.00,0.00,0,0
1397606391,total,1979784.00,1985774.00,3965558.00,1985774,1979784,1932.00,1935.00,3867.00,1935,1932,0.00,0.00,0,0
1397606392,s1-eth1,1251560.00,27720.00,1279280.00,27720,1251560,828.00,420.00,1248.00,420,828,0.00,0.00,0,0
1397606392,s1-eth3,15180.00,683810.00,698990.00,683810,15180,230.00,453.00,683.00,453,230,0.00,0.00,0,0
1397606392,s1-eth2,12540.00,573806.00,586346.00,573806,12540,190.00,379.00,569.00,379,190,0.00,0.00,0,0
1397606392,s2-eth1,683810.00,15180.00,698990.00,15180,683810,453.00,230.00,683.00,230,453,0.00,0.00,0,0
1397606392,s2-eth2,15180.00,683810.00,698990.00,683810,15180,230.00,453.00,683.00,453,230,0.00,0.00,0,0
1397606392,eth0,0.00,0.00,0.00,0,0,0.00,0.00,0.00,0,0,0.00,0.00,0,0
1397606392,eth1,0.00,0.00,0.00,0,0,0.00,0.00,0.00,0,0,0.00,0.00,0,0
1397606392,lo,0.00,0.00,0.00,0,0,0.00,0.00,0.00,0,0,0.00,0.00,0,0
1397606392,total,1978270.00,1984326.00,3962596.00,1984326,1978270,1931.00,1935.00,3866.00,1935,1931,0.00,0.00,0,0
1397606393,s1-eth1,1249924.00,29244.00,1279168.00,29244,1249924,826.00,436.00,1262.00,436,826,0.00,0.00,0,0
1397606393,s1-eth3,15054.00,611138.00,626192.00,611138,15054,221.00,405.00,626.00,405,221,0.00,0.00,0,0
1397606393,s1-eth2,14124.00,663132.00,677256.00,663132,14124,214.00,438.00,652.00,438,214,0.00,0.00,0,0
1397606393,s2-eth1,611138.00,15054.00,626192.00,15054,611138,405.00,221.00,626.00,221,405,0.00,0.00,0,0
1397606393,s2-eth2,15054.00,611138.00,626192.00,611138,15054,221.00,405.00,626.00,405,221,0.00,0.00,0,0
1397606393,eth0,402.00,402.00,804.00,402,402,2.00,2.00,4.00,2,2,0.00,0.00,0,0
1397606393,eth1,0.00,0.00,0.00,0,0,0.00,0.00,0.00,0,0,0.00,0.00,0,0
1397606393,lo,344.00,344.00,688.00,344,344,6.00,6.00,12.00,6,6,0.00,0.00,0,0
1397606393,total,1906040.00,1930452.00,3836492.00,1930452,1906040,1895.00,1913.00,3808.00,1913,1895,0.00,0.00,0,0
1397606394,s1-eth1,1251336.75,46493.51,1297830.25,46540,1252588,829.17,591.41,1420.58,592,830,0.00,0.00,0,0
1397606394,s1-eth3,26343.66,524955.06,551298.69,525480,26370,324.68,347.65,672.33,348,325,0.00,0.00,0,0
1397606394,s1-eth2,20149.85,576645.38,596795.25,577222,20170,266.73,382.62,649.35,383,267,0.00,0.00,0,0
1397606394,s2-eth1,524955.06,26343.66,551298.69,26370,525480,347.65,324.68,672.33,325,348,0.00,0.00,0,0
1397606394,s2-eth2,26343.66,526467.56,552811.19,526994,26370,324.68,348.65,673.33,349,325,0.00,0.00,0,0
1397606394,eth0,0.00,0.00,0.00,0,0,0.00,0.00,0.00,0,0,0.00,0.00,0,0
1397606394,eth1,0.00,0.00,0.00,0,0,0.00,0.00,0.00,0,0,0.00,0.00,0,0
1397606394,lo,0.00,0.00,0.00,0,0,0.00,0.00,0.00,0,0,0.00,0.00,0,0
1397606394,total,1849128.88,1700905.12,3550034.00,1702606,1850978,2092.91,1995.01,4087.91,1997,2095,0.00,0.00,0,0
1397606395,s1-eth1,1249436.62,27758.24,1277194.88,27786,1250686,826.17,420.58,1246.75,421,827,0.00,0.00,0,0
1397606395,s1-eth3,13252.75,642807.19,656059.94,643450,13266,200.80,424.58,625.37,425,201,0.00,0.00,0,0
1397606395,s1-eth2,14571.43,716919.12,731490.50,717636,14586,220.78,473.53,694.31,474,221,0.00,0.00,0,0
1397606395,s2-eth1,642807.19,13252.75,656059.94,13266,643450,424.58,200.80,625.37,201,425,0.00,0.00,0,0
1397606395,s2-eth2,13252.75,641294.75,654547.50,641936,13266,200.80,423.58,624.38,424,201,0.00,0.00,0,0
1397606395,eth0,179.82,179.82,359.64,180,180,2.00,2.00,4.00,2,2,0.00,0.00,0,0
1397606395,eth1,0.00,0.00,0.00,0,0,0.00,0.00,0.00,0,0,0.00,0.00,0,0
1397606395,lo,0.00,0.00,0.00,0,0,0.00,0.00,0.00,0,0,0.00,0.00,0,0
1397606395,total,1933500.50,2042211.88,3975712.50,2044254,1935434,1875.12,1945.05,3820.18,1947,1877,0.00,0.00,0,0
1397606396,s1-eth1,1252078.00,27324.00,1279402.00,27324,1252078,827.00,414.00,1241.00,414,827,0.00,0.00,0,0
1397606396,s1-eth3,12606.00,581376.00,593982.00,581376,12606,191.00,384.00,575.00,384,191,0.00,0.00,0,0
1397606396,s1-eth2,14652.00,691898.00,706550.00,691898,14652,222.00,457.00,679.00,457,222,0.00,0.00,0,0
1397606396,s2-eth1,581376.00,12606.00,593982.00,12606,581376,384.00,191.00,575.00,191,384,0.00,0.00,0,0
1397606396,s2-eth2,12606.00,581376.00,593982.00,581376,12606,191.00,384.00,575.00,384,191,0.00,0.00,0,0
1397606396,eth0,0.00,0.00,0.00,0,0,0.00,0.00,0.00,0,0,0.00,0.00,0,0
1397606396,eth1,0.00,0.00,0.00,0,0,0.00,0.00,0.00,0,0,0.00,0.00,0,0
1397606396,lo,0.00,0.00,0.00,0,0,0.00,0.00,0.00,0,0,0.00,0.00,0,0
1397606396,total,1871446.62,1892687.38,3764134.00,1894580,1873318,1813.19,1828.17,3641.36,1830,1815,0.00,0.00,0,0
1397606397,s1-eth1,1249716.38,27296.70,1277013.00,27324,1250966,826.17,413.59,1239.76,414,827,0.00,0.00,0,0
1397606397,s1-eth3,12131.87,558107.94,570239.75,558666,12144,183.82,368.63,552.45,369,184,0.00,0.00,0,0
1397606397,s1-eth2,15230.77,700683.31,715914.12,701384,15246,230.77,463.54,694.31,464,231,0.00,0.00,0,0
1397606397,s2-eth1,558666.00,12144.00,570810.00,12144,558666,369.00,184.00,553.00,184,369,0.00,0.00,0,0
1397606397,s2-eth2,12144.00,558666.00,570810.00,558666,12144,184.00,369.00,553.00,369,184,0.00,0.00,0,0
1397606397,eth0,0.00,168.00,168.00,168,0,0.00,1.00,1.00,1,0,0.00,0.00,0,0
1397606397,eth1,0.00,168.00,168.00,168,0,0.00,1.00,1.00,1,0,0.00,0.00,0,0
1397606397,lo,0.00,0.00,0.00,0,0,0.00,0.00,0.00,0,0,0.00,0.00,0,0
1397606397,total,1847318.75,1856663.38,3703982.00,1858520,1849166,1793.21,1800.20,3593.41,1802,1795,0.00,0.00,0,0
1397606398,s1-eth1,1251005.00,27296.70,1278301.75,27324,1252256,827.17,413.59,1240.76,414,828,0.00,0.00,0,0
1397606398,s1-eth3,12131.87,559620.38,571752.25,560180,12144,183.82,369.63,553.45,370,184,0.00,0.00,0,0
1397606398,s1-eth2,15164.84,694587.44,709752.25,695282,15180,229.77,460.54,690.31,461,230,0.00,0.00,0,0
1397606398,s2-eth1,559620.38,12131.87,571752.25,12144,560180,369.63,183.82,553.45,184,370,0.00,0.00,0,0
1397606398,s2-eth2,12131.87,559620.38,571752.25,560180,12144,183.82,369.63,553.45,370,184,0.00,0.00,0,0
1397606398,eth0,0.00,0.00,0.00,0,0,0.00,0.00,0.00,0,0,0.00,0.00,0,0
1397606398,eth1,0.00,0.00,0.00,0,0,0.00,0.00,0.00,0,0,0.00,0.00,0,0
1397606398,lo,343.66,343.66,687.31,344,344,5.99,5.99,11.99,6,6,0.00,0.00,0,0
1397606398,total,1852248.00,1855454.00,3707702.00,1855454,1852248,1802.00,1805.00,3607.00,1805,1802,0.00,0.00,0,0
1397606399,s1-eth1,1250920.00,27390.00,1278310.00,27390,1250920,828.00,415.00,1243.00,415,828,0.00,0.00,0,0
1397606399,s1-eth3,12342.00,560180.00,572522.00,560180,12342,187.00,370.00,557.00,370,187,0.00,0.00,0,0
1397606399,s1-eth2,15048.00,684506.00,699554