------------------------------------------------------------
Server listening on TCP port 5001
TCP window size: 85.3 KByte (default)
------------------------------------------------------------
[  4] local 10.0.0.3 port 5001 connected with 10.0.0.1 port 42527
[  5] local 10.0.0.3 port 5001 connected with 10.0.0.2 port 53911
