20140414104824,10.0.0.1,41320,10.0.0.3,5001,3,0.0-1.0,0,0
20140414104824,10.0.0.1,41320,10.0.0.3,5001,3,1.0-2.0,0,0
20140414104824,10.0.0.1,41320,10.0.0.3,5001,3,2.0-3.0,0,0
20140414104824,10.0.0.1,41320,10.0.0.3,5001,3,3.0-4.0,0,0
20140414104824,10.0.0.1,41320,10.0.0.3,5001,3,4.0-5.0,0,0
20140414104825,10.0.0.1,41370,10.0.0.3,5001,3,5.0-6.0,131020140414104825,10.0.0.1,41381,10.0.0.3,5001,3,6.0-7.0,131072,1048576
20140414104826,10.0.0.1,41371,10.0.0.3,5001,3,72014041410420140414104827,10.0.0.1,41234,10.0.0.3,5001,3,8.0-9.0,13102014041410420140414104828,10.0.0.1,41303,10.0.0.3,5001,3,9.0-10.0,131072,1048576
20140414104828,10.0.0.1,41303,10.0.0.320140414104830,10.0.0.1,41382,10.0.0.3,5001,3,11.0-12.0,13102014041410420140414104831,10.0.0.1,41362,10.0.0.3,5001,3,12.0-13.0,131020140414104832,10.0.0.1,41324,10.0.0.3,5001,3,13.0-14.0,131020140414104835,10.0.0.1,41393,10.0.0.3,5001,3,14.0-15.0,131020140414104836,10.0.0.1,41359,10.0.0.3,5001,3,15.0-16.0,131020140414104839,10.0.0.1,41397,10.0.0.3,5001,3,16.0-17.0,131072,1048576
20140414104839,10.0.0.1,41397,10.0.0.3,5001,3,17.0-18.0,0,0
20140414104839,10.0.0.1,41397,10.0.0.3,5001,3,18.0-19.0,0,0
20140414104839,10.0.0.1,41397,10.0.0.3,5001,3,19.0-20.0,0,0
20140414104839,10.0.0.1,41397,10.0.0.3,5001,3,20.0-21.0,0,0
2014041410420140414104840,10.0.0.1,41372,10.0.0.3,5001,3,21.20140414104842,10.0.0.1,41238,10.0.0.3,5001,3,22.0-23.0,13102014041410420140414104842,10.0.0.1,41389,10.0.0.3,5001,3,23.0-24.0,131020140414104843,10.0.0.1,41309,10.0.0.3,5001,3,24.2014041410420140414104844,10.0.0.1,41324,10.0.0.3,5001,3,25.0-26.0,131020140414104845,10.0.0.1,41303,10.0.0.3,5001,3,26.2014041410420140414104846,10.0.0.1,41381,10.0.0.3,5001,3,27.0-28.0,131072,1048576
2014041410420140414104847,10.0.0.1,41353,10.0.0.320140414104849,10.0.0.1,41321,10.0.0.3,5001,3,29.0-30.0,131072,1048576
20140414104850,10.0.0.1,41331,10.0.0.3,5001,3,30.0-31.0,131020140414104851,10.0.0.1,41344,10.0.0.3,5001,3,31.0-32.0,13102014041410420140414104852,10.0.0.1,41333,10.0.0.3,5001,3,32.0-33.0,131072,1048576
20140414104852,10.0.0.1,41333,10.0.0.320140414104854,10.0.0.1,41393,10.0.0.3,5001,3,34.0-35.0,131072,1048576
20140414104854,10.0.0.1,41393,10.0.0.3,5001,3,35.0-36.0,0,0
2014041410420140414104854,10.0.0.1,41176,10.0.0.3,5001,3,36.20140414104856,10.0.0.1,41182,10.0.0.3,5001,3,37.0-38.0,131072,1048576
20140414104856,10.0.0.1,41182,10.0.0.3,5001,3,38.20140414104858,10.0.0.1,41326,10.0.0.3,5001,3,39.0-40.0,131020140414104859,10.0.0.1,41382,10.0.0.3,5001,3,40.0-41.0,13102014041410420140414104902,10.0.0.1,41333,10.0.0.3,5001,3,41.0-42.0,131072,1048576
20140414104902,10.0.0.1,41333,10.0.0.3,5001,3,42.20140414104904,10.0.0.1,41350,10.0.0.3,5001,3,43.0-44.0,131072,1048576
20140414104904,10.0.0.1,41350,10.0.0.3,5001,3,44.20140414104905,10.0.0.1,41371,10.0.0.3,5001,3,45.0-46.0,131072,1048576
20140414104906,10.0.0.1,41392,10.0.0.3,5001,3,46.20140414104907,10.0.0.1,41303,10.0.0.3,5001,3,47.0-48.0,131072,1048576
20140414104907,10.0.0.1,41303,10.0.0.3,5001,3,48.0-49.0,0,0
20140414104907,10.0.0.1,41303,10.0.0.3,5001,3,49.0-50.0,0,0
20140414104908,10.0.0.1,41283,10.0.0.3,5001,3,50.0-51.0,131020140414104912,10.0.0.1,41379,10.0.0.3,5001,3,51.0-52.0,131072,1048576
20140414104912,10.0.0.1,41379,10.0.0.3,5001,3,52.0-53.0,0,0
20140414104912,10.0.0.1,41379,10.0.0.3,5001,3,53.0-54.0,0,0
2014041410420140414104913,10.0.0.1,41344,10.0.0.3,5001,3,54.0-55.0,131020140414104915,10.0.0.1,41396,10.0.0.3,5001,3,55.0-56.0,131072,1048576
20140414104915,10.0.0.1,41396,10.0.0.3,5001,3,56.20140414104918,10.0.0.1,41380,10.0.0.3,5001,3,57.0-58.0,131072,1048576
20140414104918,10.0.0.1,41380,10.0.0.320140414104918,10.0.0.1,41371,10.0.0.3,5001,3,59.0-60.0,131072,1048576
20140414104920,10.0.0.1,41381,10.0.0.3,5001,3,60.0-61.0,131072,1048576
20140414104920,10.0.0.1,41381,10.0.0.3,5001,3,61.2014041410420140414104921,10.0.0.1,41344,10.0.0.3,5001,3,62.0-63.0,131072,1048576
20140414104921,10.0.0.1,41344,10.0.0.320140414104923,10.0.0.1,41302,10.0.0.3,5001,20140414104923,10.0.0.1,4132014041410420140414104924,10.0.0.1,41351,10.0.0.3,5001,3,65.0-66.0,131020140414104926,10.0.0.1,41349,10.0.0.3,5001,3,66.0-67.0,131072,1048576
20140414104926,10.0.0.1,41349,10.0.0.3,5001,3,67.20140414104927,10.0.0.1,41370,10.0.0.3,5001,3,68.2014041410420140414104927,10.0.0.1,41344,10.0.0.3,5001,3,69.20140414104928,10.0.0.1,41300,10.0.0.3,5001,20140414104929,10.0.0.1,41131,10.0.0.32014041410420140414104929,10.0.0.1,4122014041410420140414104931,10.0.0.1,41380,10.0.0.3,5001,3,72.0-73.0,131072,1048576
2014041410420140414104933,10.0.0.1,41293,10.0.0.320140414104936,10.0.0.1,41234,10.0.0.3,5001,3,74.0-75.0,131072,1048576
20140414104936,10.0.0.1,41234,10.0.0.3,5001,3,75.0-76.0,0,0
20140414104936,10.0.0.1,41234,10.0.0.3,5001,3,76.0-77.0,0,0
20140414104937,10.0.0.1,41397,10.0.0.3,5001,3,77.0-78.0,131072,1048576
20140414104937,10.0.0.1,41397,10.0.0.32014041410420140414104938,10.0.0.1,41238,10.0.0.3,5001,3,79.0-80.0,131072,1048576
20140414104940,10.0.0.1,41314,10.0.0.3,5001,3,80.0-81.0,131072,1048576
20140414104940,10.0.0.1,41314,10.0.0.3,5001,3,81.0-82.0,0,0
20140414104942,10.0.0.1,41393,10.0.0.3,5001,3,82.0-83.0,131072,1048576
20140414104942,10.0.0.1,41320140414104944,10.0.0.20140414104945,10.0.0.1,41378,10.0.0.3,5001,3,84.0-85.0,131020140414104947,10.0.0.1,41228,10.0.0.3,5001,3,85.0-86.0,131072,1048576
20140414104947,10.0.0.1,41228,10.0.0.3,5001,3,86.0-87.0,0,0
20140414104947,10.0.0.1,41228,10.0.0.320140414104947,10.0.0.1,41302,10.0.0.3,5001,3,88.0-89.0,131072,1048576
2014041410420140414104949,10.0.0.1,41274,10.0.0.3,5001,3,89.0-90.0,131072,1048576
20140414104949,10.0.0.1,41274,10.0.0.32014041410420140414104951,10.0.0.1,41337,10.0.0.3,5001,3,91.0-92.0,131072,1048576
20140414104951,10.0.0.1,41337,10.0.0.3,5001,3,92.0-93.0,0,0
20140414104952,10.0.0.1,41393,10.0.0.3,5001,3,93.20140414104953,10.0.0.1,41314,10.0.0.3,5001,3,94.0-95.0,131072,1048576
20140414104955,10.0.0.1,41321,10.0.0.3,5001,3,95.20140414104955,10.0.0.1,41264,10.0.0.3,5001,3,96.0-97.0,13102014041410420140414104955,10.0.0.1,41372,10.0.0.3,5001,3,97.0-98.0,131020140414104957,10.0.0.1,41378,10.0.0.3,5001,3,98.20140414104958,10.0.0.20140414104959,10.0.0.1,41338,10.0.0.3,5001,3,99.0-100.0,131072,1048576
20140414104959,10.0.0.1,413852014041410420140414105000,10.0.0.1,41290,10.20140414105001,10.0.0.1,41353,10.0.0.3,5001,3,101.0-102.0,131072,1048576
20140414105001,10.0.0.1,4135320140414105001,10.0.0.20140414105002,10.0.0.1,41389,10.0.0.3,5001,3,103.020140414105002,10.0.0.1,41380,10.0.0.3,5001,3,104.020140414105005,10.0.0.1,41337,10.0.0.3,5001,3,105.0-106.0,131072,1048576
2014041410520140414105005,10.0.0.1,41391,10.0.0.3,5001,3,106.0-107.0,131020140414105005,10.0.0.1,4134220140414105006,10.0.0.2014041410520140414105006,10.0.0.1,41257,10.0.0.3,5001,3,108.020140414105008,10.0.0.1,41319,10.0.0.3,5001,3,109.0-110.0,131072,1048576
2014041410520140414105009,10.0.0.1,41370,10.0.0.3,520140414105010,10.0.0.1,41379,10.0.0.3,5001,3,111.0-112.0,131072,1048576
20140414105010,10.0.0.1,41379,10.0.0.3,5001,3,112.020140414105012,10.0.0.20140414105012,10.0.0.1,41268,10.0.0.3,5001,3,113.0-114.0,131072,1048576
20140414105012,10.0.0.1,41268,10.0.0.3,5001,3,114.0-115.0,0,0
20140414105012,10.0.0.1,41268,10.0.0.3,52014041410520140414105015,10.0.0.1,41338,10.0.0.3,5001,3,116.0-117.0,131072,1048576
20140414105016,10.0.0.1,41362,10.0.0.3,520140414105016,10.0.0.20140414105016,10.0.0.1,4126320140414105017,10.0.0.1,41300,10.0.0.3,5001,3,119.0-120.0,131020140414105019,10.0.0.1,41302,10.0.0.3,5001,3,120.0-121.0,131072,1048576
201404141052014041410520140414105020,10.0.0.1,41396,10.0.0.3,5001,3,121.0-122.0,131020140414105021,10.0.0.1,41372,10.0.0.3,5001,3,122.0-123.0,131072,1048576
2014041410520140414105022,10.0.0.1,41272,10.0.0.3,5001,3,123.0-124.0,131020140414105022,10.20140414105023,10.0.0.1,41219,10.0.0.3,5001,20140414105023,10.20140414105024,10.0.0.1,41300,10.20140414105024,10.0.0.1,41321,10.0.0.3,5001,3,126.020140414105026,10.0.0.1,41319,10.0.0.3,520140414105027,10.0.0.1,41302,10.0.0.3,5001,3,128.0-129.0,131072,1048576
20140414105027,10.0.0.1,41302,10.20140414105031,10.0.0.1,41176,10.0.0.3,5001,3,129.0-130.0,131072,1048576
20140414105031,10.0.0.1,41176,10.0.0.3,5001,3,130.0-131.0,0,0
20140414105031,10.0.0.1,41176,10.0.0.3,5001,3,131.0-132.0,0,0
20140414105031,10.0.0.1,41176,10.0.0.3,5001,3,132.02014041410520140414105031,10.0.0.1,412892014041410520140414105033,10.0.0.1,41274,10.0.0.3,5001,3,134.0-135.0,131072,1048576
2014041410520140414105035,10.0.0.1,41380,10.0.0.3,5001,3,135.020140414105037,10.0.0.1,41156,10.0.0.3,5001,3,136.0-137.0,131072,1048576
20140414105037,10.0.0.1,41204,10.0.0.3,5001,3,137.0-138.0,131020140414105038,10.0.0.1,41366,10.0.0.3,5001,3,138.02014041410520140414105038,10.0.0.1,41358,10.0.0.3,5001,3,139.0-140.0,131072,1048576
20140414105038,10.0.0.1,41333,10.0.0.3,520140414105039,10.0.0.20140414105040,10.0.0.1,41342,10.0.0.3,5001,3,141.020140414105041,10.0.0.1,41397,10.0.0.3,5001,20140414105042,10.0.0.1,413592014041410520140414105043,10.0.0.1,41385,10.0.0.3,5001,3,143.0-144.0,131020140414105043,10.0.0.1,41381,10.0.0.3,5001,3,144.0-145.0,131020140414105044,10.0.0.1,41382,10.0.0.3,5001,3,145.0-146.0,131072,1048576
20140414105044,10.0.0.1,4138220140414105045,10.0.0.20140414105046,10.0.0.1,41281,10.0.0.3,520140414105047,10.0.0.1,41259,10.0.0.3,5001,3,148.0-14920140414105048,10.0.0.1,41352,10.0.0.3,5001,3,148.0-149.0,131072,1048576
20140414105048,10.0.0.1,41352,10.0.0.3,5001,3,149.020140414105049,10.0.0.1,4135920140414105050,10.0.0.1,41207,10.0.0.3,5001,3,151.0-152.0,131072,1048576
20140414105050,10.0.0.1,41309,10.20140414105050,10.20140414105053,10.0.0.1,41371,10.0.0.3,5001,3,153.0-154.0,131072,1048576
20140414105053,10.0.0.1,41371,10.0.0.3,5001,3,154.0-155.0,0,0
2014041410520140414105053,10.0.0.1,4136220140414105055,10.0.0.20140414105055,10.0.0.1,41160,10.0.0.3,5001,3,156.0-157.0,131020140414105056,10.0.0.1,41257,10.0.0.3,5001,3,157.0-158.0,131072,1048576
20140414105057,10.0.0.1,41380,10.0.0.3,5001,3,158.02014041410520140414105058,10.0.0.1,41366,10.20140414105058,10.0.0.1,41356,10.0.0.3,5001,3,159.020140414105058,10.0.0.20140414105059,10.2014041410520140414105100,10.0.0.1,41392,10.0.0.3,520140414105101,10.0.0.1,41300,10.0.0.3,5001,3,162.0-163.0,131072,1048576
2014041410520140414105102,10.0.0.1,41342,10.0.0.3,520140414105102,10.0.0.20140414105102,10.0.0.1,41338,10.0.0.3,5001,3,164.020140414105104,10.0.0.1,41378,10.0.0.3,5001,3,165.0-166.0,131020140414105107,10.0.0.1,41371,10.0.0.3,5001,3,166.0-167.0,131072,1048576
2014041410520140414105107,10.0.0.1,41372,10.0.0.3,5001,3,167.0-168.0,131020140414105108,10.0.0.1,41392,10.0.0.3,5001,3,168.0-169.0,131020140414105108,10.0.0.20140414105108,10.0.0.1,41118,10.0.0.3,52014041410520140414105110,10.0.0.1,41334,10.0.0.3,5001,3,170.0-171.0,131072,1048576
20140414105110,10.20140414105111,10.0.0.1,41302,10.0.0.3,5001,3,172.0-173.0,131072,1048576
20140414105111,10.0.0.1,41302,10.0.0.3,5001,3,173.0-174.0,0,0
2014041410520140414105112,10.0.0.20140414105113,10.0.0.1,4122120140414105115,10.0.0.1,41300,10.0.0.3,5001,3,175.0-176.0,131072,1048576
2014041410520140414105116,10.0.0.1,41315,10.0.0.3,5001,3,176.0-177.0,131072,1048576
20140414105117,10.0.0.1,41391,10.0.0.3,5001,3,177.0-178.0,131072,1048576
20140414105117,10.0.0.1,41391,10.0.0.3,5001,3,178.020140414105118,10.0.0.1,41358,10.0.0.3,5001,3,179.0-180.0,131072,1048576
20140414105118,10.0.0.1,41358,10.0.0.3,52014041410520140414105120,10.0.0.1,41351,10.0.0.3,5001,3,181.0-182.0,131072,1048576
2014041410520140414105125,10.0.0.1,41224,10.0.0.3,5001,3,182.0-183.0,131072,1048576
20140414105125,10.0.0.1,41224,10.0.0.3,5001,3,183.0-184.0,0,0
20140414105125,10.0.0.1,41224,10.0.0.3,5001,3,184.0-185.0,0,0
20140414105125,10.0.0.1,41224,10.0.0.3,520140414105127,10.0.0.1,41358,10.0.0.3,5001,3,186.0-187.0,131072,1048576
20140414105127,10.0.0.1,41358,10.20140414105129,10.0.0.1,41260,10.0.0.3,5001,3,187.0-188.0,131072,1048576
20140414105129,10.0.0.1,41260,10.0.0.3,5001,3,188.0-189.0,0,0
20140414105129,10.0.0.1,41260,10.0.0.3,5001,3,189.0-190.0,0,0
201404120140414105132,10.0.0.1,41319,10.0.0.3,5001,3,191.0-192.0,131072,1048576
20140414105132,10.0.0.1,41319,10.0.0.3,5001,3,192.0-193.0,0,0
20140414105132,10.0.0.1,41319,10.0.0.3,5001,3,193.0-194.0,0,0
20140414105132,10.0.0.1,41319,10.0.0.3,5001,3,194.0-195.0,0,0
20140414105133,10.0.0.1,41238,10.2014041410520140414105135,10.0.0.1,4132420140414105135,10.0.0.1,41391,10.0.0.3,5001,3,196.0-197.0,13102014041410520140414105136,10.0.0.1,41291,10.0.0.3,5001,3,197.0-198.0,131072,1048576
20140414105136,10.0.0.1,41291,10.0.0.3,52014041410520140414105137,10.0.0.1,41281201404141052014041410520140414105138,10.0.0.20140414105139,10.0.0.1,41362,10.0.0.3,520140414105141,10.0.0.1,41182,10.0.0.3,5001,3,201.0-202.0,131020140414105142,10.0.0.1,41238,10.0.0.3,5001,3,202.0-203.0,131072,1048576
20140414105142,10.0.0.1,41238,10.0.0.3,5001,3,203.020140414105142,10.0.0.1,41276,10.0.0.3,5001,3,204.020140414105143,10.0.0.1,41219,10.0.0.3,5001,3,205.0-206.0,131020140414105143,10.0.0.1,41302,10.20140414105144,10.0.0.1,41281,10.0.0.3,5001,3,206.020140414105146,10.0.0.1,41326,10.0.0.3,5001,3,207.0-208.0,131020140414105148,10.0.0.1,41378,10.0.0.3,5001,3,208.0-209.0,131072,1048576
20140414105148,10.0.0.1,41378,10.0.0.3,5001,3,209.0-210.0,0,0
20140414105148,10.0.0.1,41382,10.0.0.3,5001,3,210.0-211.0,131072,1048576
20140414105148,10.0.0.1,4138220140414105150,10.0.0.201404141052014041410520140414105150,10.0.0.1,4138520140414105150,10.0.0.20140414105152,10.0.0.20140414105152,10.0.0.1,4137020140414105153,10.0.0.1,41366,10.0.0.3,5001,3,214.0-215.0,131072,1048576
2014041410520140414105153,10.0.0.20140414105155,10.0.0.1,41147,10.0.0.3,5001,3,215.0-216.0,131072,1048576
20140414105155,10.0.0.1,41147,10.0.0.3,5001,3,216.0-217.0,0,0
20140414105155,10.2014041410520140414105157,10.0.0.1,41391,10.0.0.3,5001,3,218.02014041410520140414105158,10.0.0.1,41303,10.0.0.3,5001,20140414105159,10.20140414105159,10.0.0.1,41257,10.0.0.3,5001,3,220.020140414105200,10.0.0.1,41276,10.0.0.3,5001,3,221.0-222.0,131072,1048576
2014041410520140414105200,10.0.0.1,41349,10.20140414105201,10.0.0.1,4135620140414105202,10.0.0.1,41333,10.0.0.3,5001,3,223.0-224.0,131072,1048576
2014041410520140414105206,10.0.0.1,41367,10.0.0.3,5001,3,224.0-225.0,131072,1048576
20140414105206,10.0.0.1,41367,10.0.0.3,5001,3,225.0-226.0,0,0
20140414105206,10.0.0.1,41367,10.0.0.3,520140414105206,10.0.0.1,41314,10.0.0.3,5001,3,227.02014041410520140414105211,10.0.0.1,41281,10.0.0.3,5001,3,228.0-229.0,131072,1048576
20140414105211,10.0.0.1,41281,10.0.0.3,5001,3,229.0-230.0,0,0
20140414105211,10.0.0.1,41281,10.0.0.3,5001,3,230.0-231.0,0,0
20140414105211,10.0.0.1,41281,10.0.0.3,5001,3,231.0-232.0,0,0
2014041410520140414105214,10.0.0.1,41353,10.0.0.3,5001,3,232.0-233.0,131072,1048576
20140414105214,10.0.0.1,41353,10.0.0.3,5001,3,233.0-234.0,0,0
20140414105214,10.0.0.1,41353,10.0.0.3,5001,3,234.0-235.0,0,0
20140414105214,10.0.0.1,4135320140414105216,10.0.0.1,41378,10.0.0.3,5001,3,236.0-237.0,131072,1048576
20140414105216,10.0.0.20140414105218,10.0.0.1,41370,10.0.0.3,5001,3,237.0-238.0,131072,1048576
20140414105218,10.0.0.1,41370,10.0.0.3,5001,3,238.0-239.0,0,0
20140414105218,10.0.0.1,4137020140414105219,10.0.0.1,41340,10.0.0.3,5001,3,240.0-241.0,131072,1048576
20140414105219,10.0.0.20140414105219,10.2014201404120140414105222,10.0.0.1,41366,10.0.0.3,5001,3,242.0-243.0,131072,1048576
20140414105223,10.0.0.1,41371,10.0.0.3,5001,3,243.0-244.0,131072,1048576
20140414105223,10.0.0.1,41371,10.0.0.3,5001,3,244.0-245.0,0,0
20140414105223,10.0.0.1,41371,10.0.0.3,5001,3,245.020140414105225,10.0.0.1,41392,10.0.0.3,5001,3,246.0-247.0,13102014041410520140414105226,10.0.0.1,41306,10.0.0.3,5001,3,247.020140414105227,10.0.0.20140414105227,10.0.0.1,41396,10.0.0.3,5001,3,248.02014041410520140414105229,10.0.0.1,41382,10.0.0.3,5001,3,249.0-250.0,131072,1048576
20140414105229,10.0.0.1,41382,10.0.0.3,520140414105232,10.0.0.20140414105232,10.0.0.1,41370,10.0.0.3,5001,3,251.0-252.0,131072,1048576
20140414105232,10.0.0.1,41370,10.0.0.3,5001,3,252.0-253.0,0,0
20140414105232,10.0.0.1,41370,10.0.0.3,5001,3,253.0-254.0,0,0
20140414105234,10.0.0.1,41334,10.0.0.3,5001,3,254.0-255.0,131072,1048576
20140414105234,10.0.0.1,4133420140414105237,10.0.0.1,41228,10.0.0.3,5001,3,256.0-257.0,131020140414105246,10.0.0.1,41378,10.0.0.3,5001,3,257.0-258.0,131072,1048576
20140414105246,10.0.0.1,41378,10.0.0.3,520140414105257,10.0.0.1,41196,10.0.0.3,5001,3,259.0-260.0,131072,1048576
20140414105257,10.0.0.1,41196,10.0.0.3,5001,3,260.0-261.0,0,0
20140414105257,10.0.0.1,41196,10.0.0.3,5001,3,261.0-262.0,0,0
20140414105257,10.0.0.1,41196,10.0.0.3,5001,3,262.0-263.0,0,0
20140414105257,10.0.0.1,41196,10.0.0.3,5001,3,263.0-264.0,0,0
20140414105257,10.0.0.1,41196,10.0.0.3,5001,3,264.0-265.0,0,0
20140414105257,10.0.0.1,41196,10.0.0.3,5001,3,265.0-266.0,0,0
20140414105257,10.0.0.1,41196,10.0.0.3,5001,3,266.0-267.0,0,0
20140414105257,10.0.0.1,41196,10.0.0.3,5001,3,267.0-268.0,0,0
20140414105257,10.0.0.1,41196,10.0.0.3,5001,3,268.0-269.0,0,0
20140414105257,10.0.0.1,41196,10.0.0.3,5001,3,269.0-270.0,0,0
20140414105257,10.0.0.1,41196,10.0.0.3,5001,3,270.0-271.0,0,0
20140414105257,10.0.0.1,41196,10.0.0.3,5001,3,271.0-272.0,0,0
20140414105257,10.0.0.1,41196,10.0.0.3,5001,3,272.0-273.0,0,0
20140414105257,10.0.0.1,41196,10.0.0.3,5001,3,273.0-274.0,0,0
20140414105257,10.0.0.1,41196,10.0.0.3,5001,3,274.0-275.0,0,0
20140414105257,10.0.0.1,41196,10.0.0.3,5001,3,275.0-276.0,0,0
20140414105257,10.0.0.1,41196,10.0.0.3,5001,3,276.0-277.0,0,0
20140414105257,10.0.0.1,41196,10.0.0.3,5001,3,277.0-278.0,0,0
20140414105257,10.0.0.1,41196,10.0.0.3,5001,3,278.0-279.0,0,0
20140414105257,10.0.0.1,41196,10.0.0.3,5001,3,279.0-280.0,0,0
20140414105257,10.0.0.1,4120140414105258,10.20140414105259,10.0.0.1,41392,10.0.0.3,5001,3,280.0-281.0,131072,1048576
20140414105259,10.0.0.1,41392,10.20140414105259,10.0.0.20140414105301,10.0.0.1,41359,10.0.0.3,5001,3,281.0-282.0,131072,1048576
20140414105301,10.20140414105302,10.0.0.1,41321,10.0.0.3,520140414105303,10.0.0.20140414105303,10.0.0.1,41349,10.0.0.3,5001,3,284.0-285.0,131072,1048576
20140414105304,10.0.0.1,41199,10.0.020140414105306,20140414105307,10.0.0.1,41370,10.0.0.3,5001,3,286.0-287.0,131072,1048576
20140414105307,10.0.0.1,41370,10.0.0.3,5001,3,287.0-288.0,0,0
20140414105307,10.20140414105307,10.0.0.1,41378,10.0.0.3,5001,2014041410520140414105308,10.0.0.1,41204,10.0.0.3,5001,3,289.0-290.0,131072,1048576
20140414105308,10.20140414105315,10.0.0.1,41397,10.0.0.3,5001,3,291.0-292.0,131072,1048576
20140414105315,10.0.0.1,41397,10.0.0.3,5001,3,292.0-293.0,0,0
20140414105315,10.0.0.1,41397,10.0.0.3,5001,3,293.0-294.0,0,0
20140414105315,10.0.0.1,41397,10.0.0.3,5001,3,294.0-295.0,0,0
20140414105315,10.0.0.1,41397,10.0.0.3,5001,3,295.0-296.0,0,0
20140414105318,10.0.0.1,41283,10.0.0.3,5001,3,296.0-297.0,131072,1048576
20140414105318,10.0.0.1,41283,10.0.0.3,5001,3,297.0-298.0,0,0
20140414105318,10.0.0.1,41283,10.0.0.3,5001,3,298.0-299.0,0,0
20140414105318,10.0.0.20140414105318,10.0.0.1,41353,10.0.0.3,5001,3,299.0-300.0,131020140414105318,10.0.0.1,41380,10.0.0.3,5001,20140414105320,10.0.0.1,41389,10.0.0.3,5001,3,300.0-301.0,20140414105320,10.0.0.20140414105320,10.0.0.1,41391,10.0.0.3,5001,3,302.0-303.0,131020140414105322,10.0.0.1,41342,10.20140414105323,10.0.0.1,41169,10.0.0.3,5001,3,303.0-304.0,131072,1048576
20140412014041410520140414105324,10.0.0.1,41372,10.0.0.3,5001,3,305.020140414105326,10.0.0.20140414105327,10.0.0.1,41380,10.0.0.3,5001,3,306.0-307.0,131072,1048576
20140414105327,10.0.0.1,41380,10.0.0.3,5001,3,307.0-308.0,0,0
20140414105327,10.0.0.1,41380,10.0.0.3,5001,3,308.020140414105328,10.0.0.1,4126820140414105328,10.0.0.1,41276,10.2014041410520140414105330,10.0.0.1,41367,10.0.0.3,5001,3,310.0-311.0,131020140414105331,10.0.0.1,413032014041410520140414105331,10.0.0.20140414105331,10.0.0.1,41274,10.20140414105332,10.0.0.1,41251,10.0.0.3,5001,3,312.0-313.0,131072,1048576
20140414105332,10.2014041410520140414105332,10.0.0.1,4138520140414105334,10.0.0.20140414105334,10.0.0.1,41380,10.0.0.3,5001,3,315.0-316.0,131072,1201404120140414105335,10.0.0.1,41321,10.0.0.3,5001,3,316.0-317.0,131072,1048576
20140414105335,10.0.0.20140414105336,10.20140414105336,10.0.0.20140414105338,10.0.0.1,4119020140414105339,10.0.0.1,41300,10.0.0.3,5001,3,319.0-320.0,131072,1048576
20140414105339,10.0.0.1,41300,10.0.0.3,5001,20140414105341,10.0.0.1,41282,10.0.0.3,5001,3,320.0-321.0,131072,1048576
20140414105341,10.0.0.1,41282,10.0.0.3,5001,3,321.0-322.0,0,0
20140414105341,10.0.0.1,4128220140414105341,10.0.0.1,4130620140414105344,10.0.0.1,41397,10.0.0.3,5001,3,324.0-325.0,131072,1048576
20140414105344,10.0.0.1,41397,10.20140414105345,10.0.0.1,41350,10.0.0.3,520140414105345,10.0.0.20140414105347,10.0.0.1,4135320140414105348,10.0.0.1,41278,10.0.0.3,5001,3,327.0-328.0,131072,1048576
20140414105348,10.0.0.1,41278,10.0.0.3,5001,3,328.0-329.0,0,0
20140414105348,10.0.0.1,41278,10.0.0.3,5001,3,329.0-330.0,0,0
201404141052014041410520140414105349,201404120140414105350,10.0.0.1,41215,10.0.0.3,520140414105352,10.0.0.1,41237,10.0.0.3,5001,3,331.0-332.0,131072,1048576
2014041410520140414105358,10.0.0.1,41158,10.0.0.3,5001,3,332.0-333.0,131072,1048576
20140414105358,10.0.0.1,41158,10.0.0.3,5001,3,333.0-334.0,0,0
20140414105358,10.0.0.1,41158,10.0.0.3,5001,3,334.0-335.0,0,0
20140414105358,10.0.0.1,41158,10.0.0.3,5001,3,335.0-336.0,0,0
20140414105358,10.0.0.1,41158,10.0.0.3,5001,3,336.0-337.0,0,0
20140414105358,10.0.0.1,41158,10.0.0.3,5001,3,337.020140414105358,10.0.0.20140414105405,10.0.0.1,41282,10.0.0.3,5001,3,338.0-339.0,131072,1048576
20140414105405,10.0.0.1,41282,10.0.0.3,5001,3,339.0-340.0,0,0
20140414105405,10.0.0.1,41282,10.0.0.3,5001,3,340.0-341.0,0,0
20140414105405,10.0.0.1,41282,10.0.0.3,5001,3,341.0-342.0,0,0
20140414105405,10.0.0.1,41282,10.0.0.3,5001,3,342.0-343.0,0,0
20140414105405,10.0.0.1,41282,10.0.0.3,5001,3,343.0-344.0,0,0
20140414105405,10.0.0.1,41282,10.0.0.3,5001,3,344.0-345.0,0,0
20140414105405,10.0.0.1,41282,10.0.0.3,520140414105407,10.0.0.1,41344,10.0.0.3,5001,3,346.0-347.0,131072,1048576
20140414105407,10.0.0.1,41367,10.0.0.3,5001,3,347.0-348.0,131072,1048576
20140414105407,10.0.0.1,41367,10.0.0.3,5001,3,348.0-349.0,0,0
20140414105408,10.0.0.1,41338,10.0.0.3,5001,3,349.020140414105409,10.0.0.1,41370,10.0.0.3,5001,3,350.0-351.0,13102014041410520140414105412,10.0.0.1,41393,10.0.0.3,5001,3,351.0-352.0,131072,1048576
20140414105412,10.0.0.1,41393,10.0.0.3,5001,3,352.0-353.0,0,0
20140414105412,10.0.0.1,4139320140414105413,10.0.0.1,41371,10.20140414105421,10.0.0.1,41117,10.0.0.3,5001,3,354.0-355.0,131072,1048576
20140414105421,10.0.0.1,41117,10.0.0.3,5001,3,355.0-356.0,0,0
20140414105421,10.0.0.1,41117,10.0.0.3,5001,3,356.0-357.0,0,0
20140414105421,10.0.0.1,41117,10.0.0.3,5001,3,357.0-358.0,0,0
20140414105421,10.0.0.1,41117,10.0.0.3,5001,3,358.0-359.0,0,0
20140414105421,10.0.0.1,41117,10.0.0.3,5001,3,359.0-360.0,0,0
20140414105421,10.0.0.1,41117,10.0.0.3,5001,20140414105422,10.0.0.1,41389,10.0.0.3,5001,3,360.0-361.0,131072,1048576
20140414105422,10.0.0.1,41389,10.0.0.3,5001,3,361.0-362.0,0,0
20140414105422,10.0.0.1,41389,10.0.020140414105422,10.0.0.20140414105424,10.0.0.1,41370,10.0.0.3,5001,3,364.0-365.0,131072,1048576
20140414105424,10.20140414105426,10.0.0.1,41397,10.0.0.3,5001,3,366.0-367.0,131072,120140414105429,10.0.0.1,41308,10.0.0.3,5001,3,366.0-367.0,131072,1048576
20140414105429,10.0.0.1,41308,10.0.0.3,5001,3,367.0-368.0,0,0
20140414105429,10.0.0.1,41308,10.0.0.3,5001,3,368.0-369.0,0,0
20140414105429,10.0.0.1,41308,10.0.0.3,5001,3,369.020140414105431,10.0.0.1,41351,10.0.0.3,5001,3,370.0-371.0,131072,1048576
20140414105431,10.0.0.1,41351,10.0.0.3,520140414105432,10.0.0.20140414105435,10.0.0.1,41321,10.0.0.3,5001,3,372.0-373.0,131072,1048576
20140414105435,10.0.0.1,41321,10.0.0.3,5001,3,373.0-374.0,0,0
20140414105435,10.0.0.1,41321,10.0.0.3,5001,3,374.0-375.0,0,0
20140414105435,10.0.0.1,4132120140414105435,10.0.0.20140414105436,10.0.0.1,41396,10.0.0.3,5001,3,376.02014041410520140414105437,10.0.0.1,4138020140414105438,20140414105444,10.0.0.1,41324,10.0.0.3,5001,3,377.0-378.0,131072,1048576
20140414105444,10.0.0.1,41324,10.0.0.3,5001,3,378.0-379.0,0,0
20140414105444,10.0.0.1,41324,10.0.0.3,5001,3,379.0-380.0,0,0
20140414105444,10.0.0.1,41324,10.0.0.3,5001,3,380.0-381.0,0,0
20140414105444,10.0.0.1,41324,10.0.0.3,5001,3,381.0-382.0,0,0
20140414105444,10.0.0.1,41324,10.0.0.3,5001,3,382.0-383.0,0,0
20140414105444,10.0.0.1,41324,10.0.0.3,5001,3,383.0-384.0,0,0
20140414105444,10.0.0.1,41324,10.0.0.3,5001,3,384.0-385.0,0,0
20140414105444,10.0.0.1,41324,10.0.0.3,5001,3,385.0-386.0,2014041410520140414105446,10.0.0.1,41340,10.0.0.3,5001,3,387.0-388.0,131072,1048576
2014041410520140414105446,10.0.0.1,41351,10.0.0.3,520140414105446,10.0.0.1,41319,10.0.0.3,5001,3,389.0-39020140414105446,10.0.0.1,41183,10.0.0.3,5001,3,389.0-390.0,131072,1048576
201404120140414105447,10.0.0.1,41198,10.0.0.3,5001,3,391.0-392.0,131072,1048576
20140414105447,10.0.0.1,41198,10.0.0.3,520140414105447,10.0.0.1,41353,10.0.0.3,5001,3,393.0-39420140414105447,10.0.0.1,41148,10.0.0.3,5001,3,393.0-394.0,131072,1048576
20140414105447,10.0.0.1,41148,10.0.0.3,5001,3,394.0-395.0,0,0
20140414105447,10.0.0.1,41148,10.0.0.3,5001,3,395.0-396.0,0,0
20140414105447,10.0.0.1,41148,10.0.0.3,5001,3,396.0-397.0,0,0
