1397492694,s1-eth1,0.00,0.00,0.00,0,0,0.00,0.00,0.00,0,0,0.00,0.00,0,0
1397492694,s1-eth3,0.00,0.00,0.00,0,0,0.00,0.00,0.00,0,0,0.00,0.00,0,0
1397492694,s1-eth2,0.00,0.00,0.00,0,0,0.00,0.00,0.00,0,0,0.00,0.00,0,0
1397492694,s2-eth1,0.00,0.00,0.00,0,0,0.00,0.00,0.00,0,0,0.00,0.00,0,0
1397492694,s2-eth3,0.00,0.00,0.00,0,0,0.00,0.00,0.00,0,0,0.00,0.00,0,0
1397492694,s2-eth2,0.00,0.00,0.00,0,0,0.00,0.00,0.00,0,0,0.00,0.00,0,0
1397492694,s3-eth1,0.00,0.00,0.00,0,0,0.00,0.00,0.00,0,0,0.00,0.00,0,0
1397492694,s3-eth2,0.00,0.00,0.00,0,0,0.00,0.00,0.00,0,0,0.00,0.00,0,0
1397492694,eth0,0.00,0.00,0.00,0,0,0.00,0.00,0.00,0,0,0.00,0.00,0,0
1397492694,eth1,0.00,0.00,0.00,0,0,0.00,0.00,0.00,0,0,0.00,0.00,0,0
1397492694,lo,0.00,0.00,0.00,0,0,0.00,0.00,0.00,0,0,0.00,0.00,0,0
1397492694,total,0.00,0.00,0.00,0,0,0.00,0.00,0.00,0,0,0.00,0.00,0,0
1397492695,s1-eth1,1251870.00,28272.00,1280142.00,28272,1251870,831.00,428.00,1259.00,428,831,0.00,0.00,0,0
1397492695,s1-eth3,17514.00,776230.00,793744.00,776230,17514,265.00,515.00,780.00,515,265,0.00,0.00,0,0
1397492695,s1-eth2,10848.00,493808.00,504656.00,493808,10848,164.00,328.00,492.00,328,164,0.00,0.00,0,0
1397492695,s2-eth1,776230.00,17514.00,793744.00,17514,776230,515.00,265.00,780.00,265,515,0.00,0.00,0,0
1397492695,s2-eth3,8868.00,398304.00,407172.00,398304,8868,134.00,264.00,398.00,264,134,0.00,0.00,0,0
1397492695,s2-eth2,8670.00,377926.00,386596.00,377926,8670,131.00,251.00,382.00,251,131,0.00,0.00,0,0
1397492695,s3-eth1,398304.00,8934.00,407238.00,8934,398304,264.00,135.00,399.00,135,264,0.00,0.00,0,0
1397492695,s3-eth2,8868.00,398304.00,407172.00,398304,8868,134.00,264.00,398.00,264,134,0.00,0.00,0,0
1397492695,eth0,0.00,0.00,0.00,0,0,0.00,0.00,0.00,0,0,0.00,0.00,0,0
1397492695,eth1,0.00,0.00,0.00,0,0,0.00,0.00,0.00,0,0,0.00,0.00,0,0
1397492695,lo,863.14,863.14,1726.27,864,864,8.99,8.99,17.98,9,9,0.00,0.00,0,0
1397492695,total,2479556.50,2497658.50,4977215.00,2500156,2482036,2444.56,2456.54,4901.10,2459,2447,0.00,0.00,0,0
1397492696,s1-eth1,1251894.00,28314.00,1280208.00,28314,1251894,831.00,429.00,1260.00,429,831,0.00,0.00,0,0
1397492696,s1-eth3,17514.00,770992.00,788506.00,770992,17514,265.00,512.00,777.00,512,265,0.00,0.00,0,0
1397492696,s1-eth2,10824.00,488472.00,499296.00,488472,10824,164.00,324.00,488.00,324,164,0.00,0.00,0,0
1397492696,s2-eth1,770992.00,17514.00,788506.00,17514,770992,512.00,265.00,777.00,265,512,0.00,0.00,0,0
1397492696,s2-eth3,9396.00,401454.00,410850.00,401454,9396,142.00,267.00,409.00,267,142,0.00,0.00,0,0
1397492696,s2-eth2,8274.00,369538.00,377812.00,369538,8274,125.00,245.00,370.00,245,125,0.00,0.00,0,0
1397492696,s3-eth1,401454.00,9330.00,410784.00,9330,401454,267.00,141.00,408.00,141,267,0.00,0.00,0,0
1397492696,s3-eth2,9330.00,418108.00,427438.00,418108,9330,141.00,278.00,419.00,278,141,0.00,0.00,0,0
1397492696,eth0,0.00,0.00,0.00,0,0,0.00,0.00,0.00,0,0,0.00,0.00,0,0
1397492696,eth1,0.00,0.00,0.00,0,0,0.00,0.00,0.00,0,0,0.00,0.00,0,0
1397492696,lo,864.00,864.00,1728.00,864,864,9.00,9.00,18.00,9,9,0.00,0.00,0,0
1397492696,total,2480542.00,2504586.00,4985128.00,2504586,2480542,2456.00,2470.00,4926.00,2470,2456,0.00,0.00,0,0
1397492697,s1-eth1,1242996.00,28516.00,1271512.00,28516,1242996,828.00,432.00,1260.00,432,828,0.00,0.00,0,0
1397492697,s1-eth3,18158.00,817370.00,835528.00,817370,18158,275.00,545.00,820.00,545,275,0.00,0.00,0,0
1397492697,s1-eth2,10704.00,459056.00,469760.00,459056,10704,162.00,306.00,468.00,306,162,0.00,0.00,0,0
1397492697,s2-eth1,817370.00,18158.00,835528.00,18158,817370,545.00,275.00,820.00,275,545,0.00,0.00,0,0
1397492697,s2-eth3,9384.00,418874.00,428258.00,418874,9384,142.00,279.00,421.00,279,142,0.00,0.00,0,0
1397492697,s2-eth2,8988.00,398496.00,407484.00,398496,8988,136.00,266.00,402.00,266,136,0.00,0.00,0,0
1397492697,s3-eth1,418874.00,9384.00,428258.00,9384,418874,279.00,142.00,421.00,142,279,0.00,0.00,0,0
1397492697,s3-eth2,9450.00,402220.00,411670.00,402220,9450,143.00,268.00,411.00,268,143,0.00,0.00,0,0
1397492697,eth0,90.00,90.00,180.00,90,90,1.00,1.00,2.00,1,1,0.00,0.00,0,0
1397492697,eth1,0.00,0.00,0.00,0,0,0.00,0.00,0.00,0,0,0.00,0.00,0,0
1397492697,lo,3216.00,3216.00,6432.00,3216,3216,36.00,36.00,72.00,36,36,0.00,0.00,0,0
1397492697,total,2539230.00,2555380.00,5094610.00,2555380,2539230,2547.00,2550.00,5097.00,2550,2547,0.00,0.00,0,0
1397492698,s1-eth1,1250446.00,28686.00,1279132.00,28686,1250446,831.00,435.00,1266.00,435,831,0.00,0.00,0,0
1397492698,s1-eth3,17616.00,786226.00,803842.00,786226,17616,268.00,525.00,793.00,525,268,0.00,0.00,0,0
1397492698,s1-eth2,11262.00,500644.00,511906.00,500644,11262,171.00,334.00,505.00,334,171,0.00,0.00,0,0
1397492698,s2-eth1,786226.00,17616.00,803842.00,17616,786226,525.00,268.00,793.00,268,525,0.00,0.00,0,0
1397492698,s2-eth3,9168.00,404576.00,413744.00,404576,9168,140.00,272.00,412.00,272,140,0.00,0.00,0,0
1397492698,s2-eth2,8688.00,381734.00,390422.00,381734,8688,132.00,255.00,387.00,255,132,0.00,0.00,0,0
1397492698,s3-eth1,404576.00,9168.00,413744.00,9168,404576,272.00,140.00,412.00,140,272,0.00,0.00,0,0
1397492698,s3-eth2,9168.00,404576.00,413744.00,404576,9168,140.00,272.00,412.00,272,140,0.00,0.00,0,0
1397492698,eth0,0.00,0.00,0.00,0,0,0.00,0.00,0.00,0,0,0.00,0.00,0,0
1397492698,eth1,0.00,0.00,0.00,0,0,0.00,0.00,0.00,0,0,0.00,0.00,0,0
1397492698,lo,6576.00,6576.00,13152.00,6576,6576,65.00,65.00,130.00,65,65,0.00,0.00,0,0
1397492698,total,2503726.00,2539802.00,5043528.00,2539802,2503726,2544.00,2566.00,5110.00,2566,2544,0.00,0.00,0,0
1397492699,s1-eth1,1251216.00,29370.00,1280586.00,29370,1251216,832.00,445.00,1277.00,445,832,0.00,0.00,0,0
1397492699,s1-eth3,18876.00,874066.00,892942.00,874066,18876,286.00,581.00,867.00,581,286,0.00,0.00,0,0
1397492699,s1-eth2,10560.00,480182.00,490742.00,480182,10560,160.00,319.00,479.00,319,160,0.00,0.00,0,0
1397492699,s2-eth1,874066.00,18876.00,892942.00,18876,874066,581.00,286.00,867.00,286,581,0.00,0.00,0,0
1397492699,s2-eth3,9372.00,428706.00,438078.00,428706,9372,142.00,285.00,427.00,285,142,0.00,0.00,0,0
1397492699,s2-eth2,9504.00,445360.00,454864.00,445360,9504,144.00,296.00,440.00,296,144,0.00,0.00,0,0
1397492699,s3-eth1,428706.00,9372.00,438078.00,9372,428706,285.00,142.00,427.00,142,285,0.00,0.00,0,0
1397492699,s3-eth2,9306.00,428706.00,438012.00,428706,9306,141.00,285.00,426.00,285,141,0.00,0.00,0,0
1397492699,eth0,0.00,0.00,0.00,0,0,0.00,0.00,0.00,0,0,0.00,0.00,0,0
1397492699,eth1,0.00,0.00,0.00,0,0,0.00,0.00,0.00,0,0,0.00,0.00,0,0
1397492699,lo,0.00,0.00,0.00,0,0,0.00,0.00,0.00,0,0,0.00,0.00,0,0
1397492699,total,2611606.00,2714638.00,5326244.00,2714638,2611606,2571.00,2639.00,5210.00,2639,2571,0.00,0.00,0,0
1397492700,s1-eth1,1250112.00,41132.00,1291244.00,41132,1250112,828.00,560.00,1388.00,560,828,0.00,0.00,0,0
1397492700,s1-eth3,24184.00,743496.00,767680.00,743496,24184,328.00,492.00,820.00,492,328,0.00,0.00,0,0
1397492700,s1-eth2,16948.00,504980.00,521928.00,504980,16948,232.00,334.00,566.00,334,232,0.00,0.00,0,0
1397492700,s2-eth1,743496.00,24184.00,767680.00,24184,743496,492.00,328.00,820.00,328,492,0.00,0.00,0,0
1397492700,s2-eth3,12268.00,403542.00,415810.00,403542,12268,160.00,267.00,427.00,267,160,0.00,0.00,0,0
1397492700,s2-eth2,11916.00,339954.00,351870.00,339954,11916,168.00,225.00,393.00,225,168,0.00,0.00,0,0
1397492700,s3-eth1,403542.00,12268.00,415810.00,12268,403542,267.00,160.00,427.00,160,267,0.00,0.00,0,0
1397492700,s3-eth2,12334.00,403542.00,415876.00,403542,12334,161.00,267.00,428.00,267,161,0.00,0.00,0,0
1397492700,eth0,0.00,0.00,0.00,0,0,0.00,0.00,0.00,0,0,0.00,0.00,0,0
1397492700,eth1,0.00,0.00,0.00,0,0,0.00,0.00,0.00,0,0,0.00,0.00,0,0
1397492700,lo,0.00,0.00,0.00,0,0,0.00,0.00,0.00,0,0,0.00,0.00,0,0
1397492700,total,2474800.00,2473098.00,4947898.00,2473098,2474800,2636.00,2633.00,5269.00,2633,2636,0.00,0.00,0,0
1397492701,s1-eth1,1251812.00,34468.00,1286280.00,34468,1251812,830.00,482.00,1312.00,482,830,0.00,0.00,0,0
1397492701,s1-eth3,20606.00,754290.00,774896.00,754290,20606,301.00,501.00,802.00,501,301,0.00,0.00,0,0
1397492701,s1-eth2,14064.00,368902.00,382966.00,368902,14064,184.00,245.00,429.00,245,184,0.00,0.00,0,0
1397492701,s2-eth1,754290.00,20606.00,774896.00,20606,754290,501.00,301.00,802.00,301,501,0.00,0.00,0,0
1397492701,s2-eth3,9648.00,430224.00,439872.00,430224,9648,146.00,286.00,432.00,286,146,0.00,0.00,0,0
1397492701,s2-eth2,11160.00,325580.00,336740.00,325580,11160,158.00,216.00,374.00,216,158,0.00,0.00,0,0
1397492701,s3-eth1,430224.00,9648.00,439872.00,9648,430224,286.00,146.00,432.00,146,286,0.00,0.00,0,0
1397492701,s3-eth2,9648.00,431738.00,441386.00,431738,9648,146.00,287.00,433.00,287,146,0.00,0.00,0,0
1397492701,eth0,0.00,0.00,0.00,0,0,0.00,0.00,0.00,0,0,0.00,0.00,0,0
1397492701,eth1,0.00,0.00,0.00,0,0,0.00,0.00,0.00,0,0,0.00,0.00,0,0
1397492701,lo,3216.00,3216.00,6432.00,3216,3216,36.00,36.00,72.00,36,36,0.00,0.00,0,0
1397492701,total,2504668.00,2378672.00,4883340.00,2378672,2504668,2588.00,2500.00,5088.00,2500,2588,0.00,0.00,0,0
1397492702,s1-eth1,1250046.00,28468.00,1278514.00,28468,1250046,827.00,428.00,1255.00,428,827,0.00,0.00,0,0
1397492702,s1-eth3,20178.00,944218.00,964396.00,944218,20178,305.00,625.00,930.00,625,305,0.00,0.00,0,0
1397492702,s1-eth2,8302.00,436850.00,445152.00,436850,8302,123.00,289.00,412.00,289,123,0.00,0.00,0,0
1397492702,s2-eth1,944218.00,20178.00,964396.00,20178,944218,625.00,305.00,930.00,305,625,0.00,0.00,0,0
1397492702,s2-eth3,11484.00,521812.00,533296.00,521812,11484,174.00,346.00,520.00,346,174,0.00,0.00,0,0
1397492702,s2-eth2,8772.00,422406.00,431178.00,422406,8772,132.00,279.00,411.00,279,132,0.00,0.00,0,0
1397492702,s3-eth1,521812.00,11484.00,533296.00,11484,521812,346.00,174.00,520.00,174,346,0.00,0.00,0,0
1397492702,s3-eth2,11418.00,521812.00,533230.00,521812,11418,173.00,346.00,519.00,346,173,0.00,0.00,0,0
1397492702,eth0,60.00,60.00,120.00,60,60,1.00,1.00,2.00,1,1,0.00,0.00,0,0
1397492702,eth1,0.00,0.00,0.00,0,0,0.00,0.00,0.00,0,0,0.00,0.00,0,0
1397492702,lo,0.00,0.00,0.00,0,0,0.00,0.00,0.00,0,0,0.00,0.00,0,0
1397492702,total,2776290.00,2907288.00,5683578.00,2907288,2776290,2706.00,2793.00,5499.00,2793,2706,0.00,0.00,0,0
1397492703,s1-eth1,1250808.00,27786.00,1278594.00,27786,1250808,828.00,421.00,1249.00,421,828,0.00,0.00,0,0
1397492703,s1-eth3,18084.00,813958.00,832042.00,813958,18084,274.00,539.00,813.00,539,274,0.00,0.00,0,0
1397492703,s1-eth2,9702.00,445116.00,454818.00,445116,9702,147.00,294.00,441.00,294,147,0.00,0.00,0,0
1397492703,s2-eth1,813144.88,18065.93,831210.81,18084,813958,538.46,273.73,812.19,274,539,0.00,0.00,0,0
1397492703,s2-eth3,10087.91,450147.88,460235.78,450598,10098,152.85,298.70,451.55,299,153,0.00,0.00,0,0
1397492703,s2-eth2,7912.09,361484.53,369396.62,361846,7920,119.88,238.76,358.64,239,120,0.00,0.00,0,0
1397492703,s3-eth1,450147.88,10087.91,460235.78,10098,450598,298.70,152.85,451.55,153,299,0.00,0.00,0,0
1397492703,s3-eth2,10153.85,448635.38,458789.22,449084,10164,153.85,297.70,451.55,298,154,0.00,0.00,0,0
1397492703,eth0,0.00,0.00,0.00,0,0,0.00,0.00,0.00,0,0,0.00,0.00,0,0
1397492703,eth1,0.00,0.00,0.00,0,0,0.00,0.00,0.00,0,0,0.00,0.00,0,0
1397492703,lo,0.00,0.00,0.00,0,0,0.00,0.00,0.00,0,0,0.00,0.00,0,0
1397492703,total,2568763.25,2573996.00,5142759.50,2576570,2571332,2511.49,2514.49,5025.97,2517,2514,0.00,0.00,0,0
1397492704,s1-eth1,1250253.75,27692.31,1277946.12,27720,1251504,827.17,419.58,1246.75,420,828,0.00,0.00,0,0
1397492704,s1-eth3,18527.47,836649.38,855176.88,837486,18546,280.72,554.45,835.16,555,281,0.00,0.00,0,0
1397492704,s1-eth2,9230.77,418959.06,428189.81,419378,9240,139.86,276.72,416.58,277,140,0.00,0.00,0,0
1397492704,s2-eth1,837486.00,18546.00,856032.00,18546,837486,555.00,281.00,836.00,281,555,0.00,0.00,0,0
1397492704,s2-eth3,10230.00,465042.00,475272.00,465042,10230,155.00,309.00,464.00,309,155,0.00,0.00,0,0
1397492704,s2-eth2,8382.00,375472.00,383854.00,375472,8382,127.00,248.00,375.00,248,127,0.00,0.00,0,0
1397492704,s3-eth1,465042.00,10230.00,475272.00,10230,465042,309.00,155.00,464.00,155,309,0.00,0.00,0,0
1397492704,s3-eth2,10230.00,466556.00,476786.00,466556,10230,155.00,310.00,465.00,310,155,0.00,0.00,0,0
1397492704,eth0,0.00,0.00,0.00,0,0,0.00,0.00,0.00,0,0,0.00,0.00,0,0
1397492704,eth1,0.00,0.00,0.00,0,0,0.00,0.00,0.00,0,0,0.00,0.00,0,0
1397492704,lo,0.00,0.00,0.00,0,0,0.00,0.00,0.00,0,0,0.00,0.00,0,0
1397492704,total,2610660.00,2620430.00,5231090.00,2620430,2610660,2550.00,2555.00,5105.00,2555,2550,0.00,0.00,0,0
1397492705,s1-eth1,1250686.00,27654.00,1278340.00,27654,1250686,827.00,419.00,1246.00,419,827,0.00,0.00,0,0
1397492705,s1-eth3,17076.92,764623.38,781700.31,765388,17094,258.74,505.49,764.24,506,259,0.00,0.00,0,0
1397492705,s1-eth2,10549.45,479458.56,490008.00,479938,10560,159.84,316.68,476.52,317,160,0.00,0.00,0,0
1397492705,s2-eth1,764623.38,17076.92,781700.31,17094,765388,505.49,258.74,764.24,259,506,0.00,0.00,0,0
1397492705,s2-eth3,8835.17,394063.94,402899.12,394458,8844,133.87,260.74,394.61,261,134,0.00,0.00,0,0
1397492705,s2-eth2,8175.82,367534.47,375710.31,367902,8184,123.88,242.76,366.63,243,124,0.00,0.00,0,0
1397492705,s3-eth1,394063.94,8835.17,402899.12,8844,394458,260.74,133.87,394.61,134,261,0.00,0.00,0,0
1397492705,s3-eth2,8835.17,392551.47,401386.62,392944,8844,133.87,259.74,393.61,260,134,0.00,0.00,0,0
1397492705,eth0,0.00,0.00,0.00,0,0,0.00,0.00,0.00,0,0,0.00,0.00,0,0
1397492705,eth1,0.00,0.00,0.00,0,0,0.00,0.00,0.00,0,0,0.00,0.00,0,0
1397492705,lo,0.00,0.00,0.00,0,0,0.00,0.00,0.00,0,0,0.00,0.00,0,0
1397492705,total,2461596.50,2451770.25,4913367.00,2454222,2464058,2402.60,2396.60,4799.20,2399,2405,0.00,0.00,0,0
1397492706,s1-eth1,1252256.00,27852.00,1280108.00,27852,1252256,828.00,422.00,1250.00,422,828,0.00,0.00,0,0
1397492706,s1-eth3,18810.00,853378.00,872188.00,853378,18810,285.00,565.00,850.00,565,285,0.00,0.00,0,0
1397492706,s1-eth2,8976.00,408780.00,417756.00,408780,8976,136.00,270.00,406.00,270,136,0.00,0.00,0,0
1397492706,s2-eth1,853378.00,18810.00,872188.00,18810,853378,565.00,285.00,850.00,285,565,0.00,0.00,0,0
1397492706,s2-eth3,10692.00,482448.00,493140.00,482448,10692,162.00,320.00,482.00,320,162,0.00,0.00,0,0
1397492706,s2-eth2,8184.00,370930.00,379114.00,370930,8184,124.00,245.00,369.00,245,124,0.00,0.00,0,0
1397492706,s3-eth1,482448.00,10692.00,493140.00,10692,482448,320.00,162.00,482.00,162,320,0.00,0.00,0,0
1397492706,s3-eth2,10692.00,482448.00,493140.00,482448,10692,162.00,320.00,482.00,320,162,0.00,0.00,0,0
1397492706,eth0,0.00,0.00,0.00,0,0,0.00,0.00,0.00,0,0,0.00,0.00,0,0
1397492706,eth1,0.00,0.00,0.00,0,0,0.00,0.00,0.00,0,0,0.00,0.00,0,0
1397492706,lo,516.00,516.00,1032.00,516,516,9.00,9.00,18.00,9,9,0.00,0.00,0,0
1397492706,total,2645952.00,2655854.00,5301806.00,2655854,2645952,2591.00,2598.00,5189.00,2598,2591,0.00,0.00,0,0
1397492707,s1-eth1,1250686.00,27918.00,1278604.00,27918,1250686,827.00,423.00,1250.00,423,827,0.00,0.00,0,0
1397492707,s1-eth3,17358.00,788220.00,805578.00,788220,17358,263.00,522.00,785.00,522,263,0.00,0.00,0,0
1397492707,s1-eth2,10560.00,481452.00,492012.00,481452,10560,160.00,318.00,478.00,318,160,0.00,0.00,0,0
1397492707,s2-eth1,788220.00,17358.00,805578.00,17358,788220,522.00,263.00,785.00,263,522,0.00,0.00,0,0
1397492707,s2-eth3,8910.00,396094.00,405004.00,396094,8910,135.00,263.00,398.00,263,135,0.00,0.00,0,0
1397492707,s2-eth2,8448.00,392126.00,400574.00,392126,8448,128.00,259.00,387.00,259,128,0.00,0.00,0,0
1397492707,s3-eth1,396094.00,8910.00,405004.00,8910,396094,263.00,135.00,398.00,135,263,0.00,0.00,0,0
1397492707,s3-eth2,8910.00,396094.00,405004.00,396094,8910,135.00,263.00,398.00,263,135,0.00,0.00,0,0
1397492707,eth0,0.00,0.00,0.00,0,0,0.00,0.00,0.00,0,0,0.00,0.00,0,0
1397492707,eth1,0.00,0.00,0.00,0,0,0.00,0.00,0.00,0,0,0.00,0.00,0,0
1397492707,lo,0.00,0.00,0.00,0,0,0.00,0.00,0.00,0,0,0.00,0.00,0,0
1397492707,total,2486699.25,2505666.50,4992366.00,2508172,2489186,2430.57,2443.56,4874.13,2446,2433,0.00,0.00,0,0
1397492708,s1-eth1,1250038.00,40965.04,1291003.00,41006,1251288,827.17,548.45,1375.62,549,828,0.00,0.00,0,0
1397492708,s1-eth3,27064.94,772105.94,799170.88,772878,27092,367.63,510.49,878.12,511,368,0.00,0.00,0,0
1397492708,s1-eth2,13888.11,371936.06,385824.19,372308,13902,180.82,245.75,426.57,246,181,0.00,0.00,0,0
1397492708,s2-eth1,772105.94,27064.94,799170.88,27092,772878,510.49,367.63,878.12,368,511,0.00,0.00,0,0
1397492708,s2-eth3,15214.79,338101.91,353316.69,338440,15230,194.81,223.78,418.58,224,195,0.00,0.00,0,0
1397492708,s2-eth2,11772.23,434004.00,445776.25,434438,11784,171.83,286.71,458.54,287,172,0.00,0.00,0,0
1397492708,s3-eth1,338101.91,15214.79,353316.69,15230,338440,223.78,194.81,418.58,195,224,0.00,0.00,0,0
1397492708,s3-eth2,15214.79,338101.91,353316.69,338440,15230,194.81,223.78,418.58,224,195,0.00,0.00,0,0
1397492708,eth0,0.00,0.00,0.00,0,0,0.00,0.00,0.00,0,0,0.00,0.00,0,0
1397492708,eth1,0.00,0.00,0.00,0,0,0.00,0.00,0.00,0,0,0.00,0.00,0,0
1397492708,lo,0.00,0.00,0.00,0,0,0.00,0.00,0.00,0,0,0.00,0.00,0,0
1397492708,total,2443400.75,2337494.50,4780895.00,2339832,2445844,2671.33,2601.40,5272.73,2604,2674,0.00,0.00,0,0
1397492709,s1-eth1,1251071.00,32609.39,1283680.38,32642,1252322,828.17,476.52,1304.70,477,829,0.00,0.00,0,0
1397492709,s1-eth3,21434.57,834319.69,855754.25,835154,21456,311.69,552.45,864.14,553,312,0.00,0.00,0,0
1397492709,s1-eth2,11186.81,527162.88,538349.69,527690,11198,164.84,348.65,513.49,349,165,0.00,0.00,0,0
1397492709,s2-eth1,834319.69,21434.57,855754.25,21456,835154,552.45,311.69,864.14,312,553,0.00,0.00,0,0
1397492709,s2-eth3,10669.33,399418.59,410087.94,399818,10680,155.84,264.74,420.58,265,156,0.00,0.00,0,0
1397492709,s2-eth2,10843.16,434901.12,445744.28,435336,10854,156.84,287.71,444.56,288,157,0.00,0.00,0,0
1397492709,s3-eth1,399418.59,10669.33,410087.94,10680,399818,264.74,155.84,420.58,156,265,0.00,0.00,0,0
1397492709,s3-eth2,10669.33,399418.59,410087.94,399818,10680,155.84,264.74,420.58,265,156,0.00,0.00,0,0
1397492709,eth0,0.00,0.00,0.00,0,0,0.00,0.00,0.00,0,0,0.00,0.00,0,0
1397492709,eth1,0.00,0.00,0.00,0,0,0.00,0.00,0.00,0,0,0.00,0.00,0,0
1397492709,lo,0.00,0.00,0.00,0,0,0.00,0.00,0.00,0,0,0.00,0.00,0,0
1397492709,total,2549612.50,2659934.25,5209546.50,2662594,2552162,2590.41,2662.34,5252.75,2665,2593,0.00,0.00,0,0
1397492710,s1-eth1,932350.25,20197.74,952548.00,21450,990156,615.82,306.03,921.85,325,654,0.00,0.00,0,0
1397492710,s1-eth3,13548.02,623868.19,637416.19,662548,14388,205.27,412.43,617.70,438,218,0.00,0.00,0,0
1397492710,s1-eth2,6649.72,310783.44,317433.16,330052,7062,100.75,205.27,306.03,218,107,0.00,0.00,0,0
1397492710,s2-eth1,623868.19,13548.02,637416.19,14388,662548,412.43,205.27,617.70,218,438,0.00,0.00,0,0
1397492710,s2-eth3,7022.60,322188.31,329210.91,342164,7458,106.40,212.81,319.21,226,113,0.00,0.00,0,0
1397492710,s2-eth2,6525.42,304531.06,311056.50,323412,6930,98.87,201.51,300.38,214,105,0.00,0.00,0,0
1397492710,s3-eth1,322188.31,7022.60,329210.91,7458,342164,212.81,106.40,319.21,113,226,0.00,0.00,0,0
1397492710,s3-eth2,7022.60,322188.31,329210.91,342164,7458,106.40,212.81,319.21,226,113,0.00,0.00,0,0
1397492710,eth0,0.00,0.00,0.00,0,0,0.00,0.00,0.00,0,0,0.00,0.00,0,0
1397492710,eth1,0.00,0.00,0.00,0,0,0.00,0.00,0.00,0,0,0.00,0.00,0,0
1397492710,lo,0.00,0.00,0.00,0,0,0.00,0.00,0.00,0,0,0.00,0.00,0,0
1397492710,total,1920984.00,1926141.38,3847125.50,2043636,2038164,1860.51,1864.28,3724.79,1978,1974,0.00,0.00,0,0
1397492711,s1-eth1,1250365.62,37870.13,1288235.75,37908,1251616,827.17,537.46,1364.64,538,828,0.00,0.00,0,0
1397492711,s1-eth3,22843.16,803252.75,826095.94,804056,22866,332.67,531.47,864.14,532,333,0.00,0.00,0,0
1397492711,s1-eth2,15092.91,420471.53,435564.44,420892,15108,205.79,277.72,483.52,278,206,0.00,0.00,0,0
1397492711,s2-eth1,803252.75,22843.16,826095.94,22866,804056,531.47,332.67,864.14,333,532,0.00,0.00,0,0
1397492711,s2-eth3,9296.70,394759.25,404055.97,395154,9306,140.86,260.74,401.60,261,141,0.00,0.00,0,0
1397492711,s2-eth2,13480.52,405468.53,418949.06,405874,13494,190.81,268.73,459.54,269,191,0.00,0.00,0,0
1397492711,s3-eth1,394759.25,9296.70,404055.97,9306,395154,260.74,140.86,401.60,141,261,0.00,0.00,0,0
1397492711,s3-eth2,9296.70,394759.25,404055.97,395154,9306,140.86,260.74,401.60,261,141,0.00,0.00,0,0
1397492711,eth0,0.00,0.00,0.00,0,0,0.00,0.00,0.00,0,0,0.00,0.00,0,0
1397492711,eth1,0.00,0.00,0.00,0,0,0.00,0.00,0.00,0,0,0.00,0.00,0,0
1397492711,lo,515.48,515.48,1030.97,516,516,8.99,8.99,17.98,9,9,0.00,0.00,0,0
1397492711,total,2518903.25,2489236.75,5008140.00,2491726,2521422,2639.36,2619.38,5258.74,2622,2642,0.00,0.00,0,0
1397492712,s1-eth1,1250564.00,27522.00,1278086.00,27522,1250564,826.00,417.00,1243.00,417,826,0.00,0.00,0,0
1397492712,s1-eth3,18018.00,829672.00,847690.00,829672,18018,273.00,548.00,821.00,548,273,0.00,0.00,0,0
1397492712,s1-eth2,9438.00,440574.00,450012.00,440574,9438,143.00,291.00,434.00,291,143,0.00,0.00,0,0
1397492712,s2-eth1,829672.00,18018.00,847690.00,18018,829672,548.00,273.00,821.00,273,548,0.00,0.00,0,0
1397492712,s2-eth3,9042.00,410294.00,419336.00,410294,9042,137.00,271.00,408.00,271,137,0.00,0.00,0,0
1397492712,s2-eth2,9042.00,419378.00,428420.00,419378,9042,137.00,277.00,414.00,277,137,0.00,0.00,0,0
1397492712,s3-eth1,410294.00,9042.00,419336.00,9042,410294,271.00,137.00,408.00,137,271,0.00,0.00,0,0
1397492712,s3-eth2,9042.00,410294.00,419336.00,410294,9042,137.00,271.00,408.00,271,137,0.00,0.00,0,0
1397492712,eth0,0.00,0.00,0.00,0,0,0.00,0.00,0.00,0,0,0.00,0.00,0,0
1397492712,eth1,0.00,0.00,0.00,0,0,0.00,0.00,0.00,0,0,0.00,0.00,0,0
1397492712,lo,0.00,0.00,0.00,0,0,0.00,0.00,0.00,0,0,0.00,0.00,0,0
1397492712,total,2545112.00,2564794.00,5109906.00,2564794,2545112,2472.00,2485.00,4957.00,2485,2472,0.00,0.00,0,0
1397492713,s1-eth1,1250827.25,27428.57,1278255.75,27456,1252078,826.17,415.58,1241.76,416,827,0.00,0.00,0,0
1397492713,s1-eth3,18395.61,840943.06,859338.69,841784,18414,278.72,555.44,834.17,556,279,0.00,0.00,0,0
1397492713,s1-eth2,9098.90,414421.59,423520.50,414836,9108,137.86,273.73,411.59,274,138,0.00,0.00,0,0
1397492713,s2-eth1,840943.06,18395.61,859338.69,18414,841784,555.44,278.72,834.17,279,556,0.00,0.00,0,0
1397492713,s2-eth3,9626.37,441646.38,451272.75,442088,9636,145.85,291.71,437.56,292,146,0.00,0.00,0,0
1397492713,s2-eth2,8769.23,402321.69,411090.91,402724,8778,132.87,265.73,398.60,266,133,0.00,0.00,0,0
1397492713,s3-eth1,441646.38,9626.37,451272.75,9636,442088,291.71,145.85,437.56,146,292,0.00,0.00,0,0
1397492713,s3-eth2,9626.37,441646.38,451272.75,442088,9636,145.85,291.71,437.56,292,146,0.00,0.00,0,0
1397492713,eth0,0.00,0.00,0.00,0,0,0.00,0.00,0.00,0,0,0.00,0.00,0,0
1397492713,eth1,0.00,0.00,0.00,0,0,0.00,0.00,0.00,0,0,0.00,0.00,0,0
1397492713,lo,0.00,0.00,0.00,0,0,0.00,0.00,0.00,0,0,0.00,0.00,0,0
1397492713,total,2588933.25,2596429.75,5185363.00,2599026,2591522,2514.49,2518.48,5032.97,2521,2517,0.00,0.00,0,0
1397492714,s1-eth1,1249314.75,27296.70,1276611.38,27324,1250564,825.17,413.59,1238.76,414,826,0.00,0.00,0,0
1397492714,s1-eth3,17934.07,834893.12,852827.19,835728,17952,271.73,551.45,823.18,552,272,0.00,0.00,0,0
1397492714,s1-eth2,9296.70,429546.47,438843.16,429976,9306,140.86,283.72,424.58,284,141,0.00,0.00,0,0
1397492714,s2-eth1,834893.12,17934.07,852827.19,17952,835728,551.45,271.73,823.18,272,552,0.00,0.00,0,0
1397492714,s2-eth3,8769.23,411396.62,420165.84,411808,8778,132.87,271.73,404.60,272,133,0.00,0.00,0,0
1397492714,s2-eth2,9164.83,420471.53,429636.38,420892,9174,138.86,277.72,416.58,278,139,0.00,0.00,0,0
1397492714,s3-eth1,411396.62,8769.23,420165.84,8778,411808,271.73,132.87,404.60,133,272,0.00,0.00,0,0
1397492714,s3-eth2,8769.23,411396.62,420165.84,411808,8778,132.87,271.73,404.60,272,133,0.00,0.00,0,0
1397492714,eth0,0.00,0.00,0.00,0,0,0.00,0.00,0.00,0,0,0.00,0.00,0,0
1397492714,eth1,0.00,0.00,0.00,0,0,0.00,0.00,0.00,0,0,0.00,0.00,0,0
1397492714,lo,0.00,0.00,0.00,0,0,0.00,0.00,0.00,0,0,0.00,0.00,0,0
1397492714,total,2549538.50,2561704.25,5111243.00,2564266,2552088,2465.53,2474.53,4940.06,2477,2468,0.00,0.00,0,0
1397492715,s1-eth1,1252078.00,27324.00,1279402.00,27324,1252078,827.00,414.00,1241.00,414,827,0.00,0.00,0,0
1397492715,s1-eth3,18810.00,875092.00,893902.00,875092,18810,285.00,578.00,863.00,578,285,0.00,0.00,0,0
1397492715,s1-eth2,8580.00,395154.00,403734.00,395154,8580,130.00,261.00,391.00,261,130,0.00,0.00,0,0
1397492715,s2-eth1,875092.00,18810.00,893902.00,18810,875092,578.00,285.00,863.00,285,578,0.00,0.00,0,0
1397492715,s2-eth3,9966.00,467826.00,477792.00,467826,9966,151.00,309.00,460.00,309,151,0.00,0.00,0,0
1397492715,s2-eth2,8844.00,407266.00,416110.00,407266,8844,134.00,269.00,403.00,269,134,0.00,0.00,0,0
1397492715,s3-eth1,467826.00,9966.00,477792.00,9966,467826,309.00,151.00,460.00,151,309,0.00,0.00,0,0
1397492715,s3-eth2,9966.00,467826.00,477792.00,467826,9966,151.00,309.00,460.00,309,151,0.00,0.00,0,0
1397492715,eth0,0.00,0.00,0.00,0,0,0.00,0.00,0.00,0,0,0.00,0.00,0,0
1397492715,eth1,0.00,0.00,0.00,0,0,0.00,0.00,0.00,0,0,0.00,0.00,0,0
1397492715,lo,0.00,0.00,0.00,0,0,0.00,0.00,0.00,0,0,0.00,0.00,0,0
1397492715,total,2651162.00,2669264.00,5320426.00,2669264,2651162,2565.00,2576.00,5141.00,2576,2565,0.00,0.00,0,0
1397492716,s1-eth1,1250994.00,36180.00,1287174.00,36180,1250994,829.00,506.00,1335.00,506,829,0.00,0.00,0,0
1397492716,s1-eth3,23476.00,852130.00,875606.00,852130,23476,340.00,565.00,905.00,565,340,0.00,0.00,0,0
1397492716,s1-eth2,12638.00,348902.00,361540.00,348902,12638,165.00,231.00,396.00,231,165,0.00,0.00,0,0
1397492716,s2-eth1,852130.00,23476.00,875606.00,23476,852130,565.00,340.00,905.00,340,565,0.00,0.00,0,0
1397492716,s2-eth3,12342.00,553414.00,565756.00,553414,12342,187.00,367.00,554.00,367,187,0.00,0.00,0,0
1397492716,s2-eth2,11134.00,315370.00,326504.00,315370,11134,153.00,209.00,362.00,209,153,0.00,0.00,0,0
1397492716,s3-eth1,553414.00,12342.00,565756.00,12342,553414,367.00,187.00,554.00,187,367,0.00,0.00,0,0
1397492716,s3-eth2,12276.00,554928.00,567204.00,554928,12276,186.00,368.00,554.00,368,186,0.00,0.00,0,0
1397492716,eth0,0.00,0.00,0.00,0,0,0.00,0.00,0.00,0,0,0.00,0.00,0,0
1397492716,eth1,0.00,0.00,0.00,0,0,0.00,0.00,0.00,0,0,0.00,0.00,0,0
1397492716,lo,516.00,516.00,1032.00,516,516,9.00,9.00,18.00,9,9,0.00,0.00,0,0
1397492716,total,2728920.00,2697258.00,5426178.00,2697258,2728920,2801.00,2782.00,5583.00,2782,2801,0.00,0.00,0,0
1397492717,s1-eth1,1250808.00,42152.00,1292960.00,42152,1250808,828.00,558.00,1386.00,558,828,0.00,0.00,0,0
1397492717,s1-eth3,29612.00,873822.00,903434.00,873822,29612,394.00,579.00,973.00,579,394,0.00,0.00,0,0
1397492717,s1-eth2,12540.00,358818.00,371358.00,358818,12540,164.00,237.00,401.00,237,164,0.00,0.00,0,0
1397492717,s2-eth1,873822.00,29612.00,903434.00,29612,873822,579.00,394.00,973.00,394,579,0.00,0.00,0,0
1397492717,s2-eth3,18002.00,555882.00,573884.00,555882,18002,243.00,369.00,612.00,369,243,0.00,0.00,0,0
1397492717,s2-eth2,11610.00,317940.00,329550.00,317940,11610,151.00,210.00,361.00,210,151,0.00,0.00,0,0
1397492717,s3-eth1,555882.00,18002.00,573884.00,18002,555882,369.00,243.00,612.00,243,369,0.00,0.00,0,0
1397492717,s3-eth2,18068.00,554368.00,572436.00,554368,18068,244.00,368.00,612.00,368,244,0.00,0.00,0,0
1397492717,eth0,0.00,0.00,0.00,0,0,0.00,0.00,0.00,0,0,0.00,0.00,0,0
1397492717,eth1,0.00,0.00,0.00,0,0,0.00,0.00,0.00,0,0,0.00,0.00,0,0
1397492717,lo,0.00,0.00,0.00,0,0,0.00,0.00,0.00,0,0,0.00,0.00,0,0
1397492717,total,2770344.00,2750596.00,5520940.00,2750596,2770344,2972.00,2958.00,5930.00,2958,2972,0.00,0.00,0,0
1397492718,s1-eth1,1250564.00,27390.00,1277954.00,27390,1250564,826.00,415.00,1241.00,415,826,0.00,0.00,0,0
1397492718,s1-eth3,20196.00,967446.00,987642.00,967446,20196,306.00,639.00,945.00,639,306,0.00,0.00,0,0
1397492718,s1-eth2,7194.00,334594.00,341788.00,334594,7194,109.00,221.00,330.00,221,109,0.00,0.00,0,0
1397492718,s2-eth1,967446.00,20196.00,987642.00,20196,967446,639.00,306.00,945.00,306,639,0.00,0.00,0,0
1397492718,s2-eth3,13134.00,620740.00,633874.00,620740,13134,199.00,410.00,609.00,410,199,0.00,0.00,0,0
1397492718,s2-eth2,7062.00,330052.00,337114.00,330052,7062,107.00,218.00,325.00,218,107,0.00,0.00,0,0
1397492718,s3-eth1,620740.00,13134.00,633874.00,13134,620740,410.00,199.00,609.00,199,410,0.00,0.00,0,0
1397492718,s3-eth2,13068.00,620740.00,633808.00,620740,13068,198.00,410.00,608.00,410,198,0.00,0.00,0,0
1397492718,eth0,0.00,0.00,0.00,0,0,0.00,0.00,0.00,0,0,0.00,0.00,0,0
1397492718,eth1,0.00,0.00,0.00,0,0,0.00,0.00,0.00,0,0,0.00,0.00,0,0
1397492718,lo,0.00,0.00,0.00,0,0,0.00,0.00,0.00,0,0,0.00,0.00,0,0
1397492718,total,2899404.00,2934292.00,5833696.00,2934292,2899404,2794.00,2818.00,5612.00,2818,2794,0.00,0.00,0,0
1397492719,s1-eth1,1250854.00,27456.00,1278310.00,27456,1250854,827.00,416.00,1243.00,416,827,0.00,0.00,0,0
1397492719,s1-eth3,20064.00,911022.00,931086.00,911022,20064,304.00,603.00,907.00,603,304,0.00,0.00,0,0
1397492719,s1-eth2,7458.00,342164.00,349622.00,342164,7458,113.00,226.00,339.00,226,113,0.00,0.00,0,0
1397492719,s2-eth1,911022.00,20064.00,931086.00,20064,911022,603.00,304.00,907.00,304,603,0.00,0.00,0,0
1397492719,s2-eth3,13200.00,600652.00,613852.00,600652,13200,200.00,398.00,598.00,398,200,0.00,0.00,0,0
1397492719,s2-eth2,6798.00,310370.00,317168.00,310370,6798,103.00,205.00,308.00,205,103,0.00,0.00,0,0
1397492719,s3-eth1,600652.00,13200.00,613852.00,13200,600652,398.00,200.00,598.00,200,398,0.00,0.00,0,0
1397492719,s3-eth2,13266.00,600652.00,613918.00,600652,13266,201.00,398.00,599.00,398,201,0.00,0.00,0,0
1397492719,eth0,0.00,0.00,0.00,0,0,0.00,0.00,0.00,0,0,0.00,0.00,0,0
1397492719,eth1,0.00,0.00,0.00,0,0,0.00,0.00,0.00,0,0,0.00,0.00,0,0
1397492719,lo,0.00,0.00,0.00,0,0,0.00,0.00,0.00,0,0,0.00,0.00,0,0
1397492719,total,2823314.00,2825580.00,5648894.00,2825580,2823314,2749.00,2750.00,5499.00,2750,2749,0.00,0.00,0,0
1397492720,s1-eth1,1249868.00,27324.00,1277192.00,27324,1249868,826.00,414.00,1240.00,414,826,0.00,0.00,0,0
1397492720,s1-eth3,19866.00,899316.00,919182.00,899316,19866,301.00,594.00,895.00,594,301,0.00,0.00,0,0
1397492720,s1-eth2,7458.00,342164.00,349622.00,342164,7458,113.00,226.00,339.00,226,113,0.00,0.00,0,0
1397492720,s2-eth1,899316.00,19866.00,919182.00,19866,899316,594.00,301.00,895.00,301,594,0.00,0.00,0,0
1397492720,s2-eth3,12804.00,572292.00,585096.00,572292,12804,194.00,378.00,572.00,378,194,0.00,0.00,0,0
1397492720,s2-eth2,7128.00,327024.00,334152.00,327024,7128,108.00,216.00,324.00,216,108,0.00,0.00,0,0
1397492720,s3-eth1,572292.00,12804.00,585096.00,12804,572292,378.00,194.00,572.00,194,378,0.00,0.00,0,0
1397492720,s3-eth2,12738.00,588362.00,601100.00,588362,12738,193.00,389.00,582.00,389,193,0.00,0.00,0,0
1397492720,eth0,0.00,168.00,168.00,168,0,0.00,1.00,1.00,1,0,0.00,0.00,0,0
1397492720,eth1,0.00,168.00,168.00,168,0,0.00,1.00,1.00,1,0,0.00,0.00,0,0
1397492720,lo,0.00,0.00,0.00,0,0,0.00,0.00,0.00,0,0,0.00,0.00,0,0
1397492720,total,2781470.00,2789488.00,5570958.00,2789488,2781470,2707.00,2714.00,5421.00,2714,2707,0.00,0.00,0,0
1397492721,s1-eth1,1250920.00,27456.00,1278376.00,27456,1250920,828.00,416.00,1244.00,416,828,0.00,0.00,0,0
1397492721,s1-eth3,20328.00,939036.00,959364.00,939036,20328,308.00,622.00,930.00,622,308,0.00,0.00,0,0
1397492721,s1-eth2,7128.00,328538.00,335666.00,328538,7128,108.00,217.00,325.00,217,108,0.00,0.00,0,0
1397492721,s2-eth1,939036.00,20328.00,959364.00,20328,939036,622.00,308.00,930.00,308,622,0.00,0.00,0,0
1397492721,s2-eth3,13266.00,618068.00,631334.00,618068,13266,201.00,410.00,611.00,410,201,0.00,0.00,0,0
1397492721,s2-eth2,6996.00,322482.00,329478.00,322482,6996,106.00,213.00,319.00,213,106,0.00,0.00,0,0
1397492721,s3-eth1,618068.00,13332.00,631400.00,13332,618068,410.00,202.00,612.00,202,410,0.00,0.00,0,0
1397492721,s3-eth2,13332.00,603512.00,616844.00,603512,13332,202.00,400.00,602.00,400,202,0.00,0.00,0,0
1397492721,eth0,0.00,0.00,0.00,0,0,0.00,0.00,0.00,0,0,0.00,0.00,0,0
1397492721,eth1,0.00,0.00,0.00,0,0,0.00,0.00,0.00,0,0,0.00,0.00,0,0
1397492721,lo,516.00,516.00,1032.00,516,516,9.00,9.00,18.00,9,9,0.00,0.00,0,0
1397492721,total,2869590.00,2873268.00,5742858.00,2873268,2869590,2794.00,2797.00,5591.00,2797,2794,0.00,0.00,0,0
1397492722,s1-eth1,1250742.00,27522.00,1278264.00,27522,1250742,827.00,417.00,1244.00,417,827,0.00,0.00,0,0
1397492722,s1-eth3,19998.00,915452.00,935450.00,915452,19998,303.00,606.00,909.00,606,303,0.00,0.00,0,0
1397492722,s1-eth2,7458.00,340650.00,348108.00,340650,7458,113.00,225.00,338.00,225,113,0.00,0.00,0,0
1397492722,s2-eth1,915452.00,19998.00,935450.00,19998,915452,606.00,303.00,909.00,303,606,0.00,0.00,0,0
1397492722,s2-eth3,13002.00,588428.00,601430.00,588428,13002,197.00,390.00,587.00,390,197,0.00,0.00,0,0
1397492722,s2-eth2,7062.00,325510.00,332572.00,325510,7062,107.00,215.00,322.00,215,107,0.00,0.00,0,0
1397492722,s3-eth1,587840.19,12923.08,600763.25,12936,588428,389.61,195.80,585.41,196,390,0.00,0.00,0,0
1397492722,s3-eth2,12989.01,586327.69,599316.69,586914,13002,196.80,388.61,585.41,389,197,0.00