5716
20140415170051,10.0.0.4,34444,10.0.0.5,5001,3,0.0-1.0,393216,3145728
20140415170052,10.0.0.4,34444,10.0.0.5,5001,3,1.0-2.0,262144,2097152
20140415170052,10.0.0.4,34444,10.0.0.5,5001,3,2.0-3.0,262144,2097152
20140415170054,10.0.0.2,57789,10.0.0.5,5001,3,3.0-4.0,393216,3145728
20140415170055,10.0.0.1,53300,10.0.0.5,5001,3,4.0-5.0,393216,3145728
20140415170056,10.0.0.1,53300,10.0.0.5,5001,3,5.0-6.0,131072,1048576
20140415170058,10.0.0.1,53300,10.0.0.5,5001,3,6.0-7.0,262144,2097152
20140415170059,10.0.0.1,53300,10.0.0.5,5001,3,7.0-8.0,131072,1048576
20140415170100,10.0.0.1,53300,10.0.0.5,5001,3,8.0-9.0,131072,1048576
20140415170101,10.0.0.1,53300,10.0.0.5,5001,3,9.0-10.0,131072,1048576
20140415170101,10.0.0.1,53300,10.0.0.5,5001,3,10.0-11.0,0,0
20140415170102,10.0.0.1,53300,10.0.0.5,5001,3,11.0-12.0,131072,1048576
20140415170103,10.0.0.1,53300,10.0.0.5,5001,3,12.0-13.0,131072,1048576
20140415170104,10.0.0.1,53300,10.0.0.5,5001,3,13.0-14.0,131072,1048576
20140415170107,10.0.0.1,53300,10.0.0.5,5001,3,14.0-15.0,262144,2097152
20140415170107,10.0.0.1,53300,10.0.0.5,5001,3,15.0-16.0,0,0
20140415170108,10.0.0.1,53300,10.0.0.5,5001,3,16.0-17.0,131072,1048576
20140415170109,10.0.0.1,53300,10.0.0.5,5001,3,17.0-18.0,131072,1048576
20140415170110,10.0.0.1,53300,10.0.0.5,5001,3,18.0-19.0,131072,1048576
20140415170110,10.0.0.1,53300,10.0.0.5,5001,3,19.0-20.0,0,0
20140415170111,10.0.0.1,53300,10.0.0.5,5001,3,20.0-21.0,131072,1048576
20140415170113,10.0.0.1,53300,10.0.0.5,5001,3,21.0-22.0,131072,1048576
20140415170114,10.0.0.1,53300,10.0.0.5,5001,3,22.0-23.0,131072,1048576
20140415170114,10.0.0.1,53300,10.0.0.5,5001,3,23.0-24.0,0,0
20140415170115,10.0.0.1,53300,10.0.0.5,5001,3,24.0-25.0,131072,1048576
20140415170117,10.0.0.1,53300,10.0.0.5,5001,3,25.0-26.0,131072,1048576
20140415170118,10.0.0.1,53300,10.0.0.5,5001,3,26.0-27.0,131072,1048576
20140415170118,10.0.0.1,53300,10.0.0.5,5001,3,27.0-28.0,0,0
20140415170119,10.0.0.1,53300,10.0.0.5,5001,3,28.0-29.0,262144,2097152
20140415170119,10.0.0.1,53300,10.0.0.5,5001,3,29.0-30.0,0,0
20140415170119,10.0.0.1,53300,10.0.0.5,5001,3,0.0-30.7,4980736,1299991
415170119,10.0.0.3,43038,10.0.0.5,5001,3,0.0-30.6,10485760,2738281
