5704
20140224181909,10.0.0.1,45570,10.0.0.2,5001,3,0.0-1.0,1310720,10485760
20140224181910,10.0.0.1,45570,10.0.0.2,5001,3,1.0-2.0,1179648,9437184
20140224181911,10.0.0.1,45570,10.0.0.2,5001,3,2.0-3.0,1310720,10485760
20140224181912,10.0.0.1,45570,10.0.0.2,5001,3,3.0-4.0,1179648,9437184
20140224181913,10.0.0.1,45570,10.0.0.2,5001,3,4.0-5.0,1179648,9437184
20140224181914,10.0.0.1,45570,10.0.0.2,5001,3,5.0-6.0,1179648,9437184
20140224181915,10.0.0.1,45570,10.0.0.2,5001,3,6.0-7.0,1310720,10485760
20140224181916,10.0.0.1,45570,10.0.0.2,5001,3,7.0-8.0,1310720,10485760
20140224181917,10.0.0.1,45570,10.0.0.2,5001,3,8.0-9.0,1048576,8388608
20140224181918,10.0.0.1,45570,10.0.0.2,5001,3,9.0-10.0,1310720,10485760
20140224181919,10.0.0.1,45570,10.0.0.2,5001,3,10.0-11.0,1179648,9437184
20140224181920,10.0.0.1,45570,10.0.0.2,5001,3,11.0-12.0,1179648,9437184
20140224181921,10.0.0.1,45570,10.0.0.2,5001,3,12.0-13.0,1179648,9437184
20140224181922,10.0.0.1,45570,10.0.0.2,5001,3,13.0-14.0,1179648,9437184
20140224181923,10.0.0.1,45570,10.0.0.2,5001,3,14.0-15.0,1179648,9437184
20140224181924,10.0.0.1,45570,10.0.0.2,5001,3,15.0-16.0,1310720,10485760
20140224181925,10.0.0.1,45570,10.0.0.2,5001,3,16.0-17.0,1179648,9437184
20140224181926,10.0.0.1,45570,10.0.0.2,5001,3,17.0-18.0,1179648,9437184
20140224181927,10.0.0.1,45570,10.0.0.2,5001,3,18.0-19.0,1179648,9437184
20140224181928,10.0.0.1,45570,10.0.0.2,5001,3,19.0-20.0,1179648,9437184
20140224181929,10.0.0.1,45570,10.0.0.2,5001,3,20.0-21.0,1179648,9437184
20140224181930,10.0.0.1,45570,10.0.0.2,5001,3,21.0-22.0,1179648,9437184
20140224181931,10.0.0.1,45570,10.0.0.2,5001,3,22.0-23.0,1310720,10485760
20140224181932,10.0.0.1,45570,10.0.0.2,5001,3,23.0-24.0,1179648,9437184
20140224181933,10.0.0.1,45570,10.0.0.2,5001,3,24.0-25.0,1179648,9437184
20140224181934,10.0.0.1,45570,10.0.0.2,5001,3,25.0-26.0,1179648,9437184
20140224181935,10.0.0.1,45570,10.0.0.2,5001,3,26.0-27.0,1179648,9437184
20140224181936,10.0.0.1,45570,10.0.0.2,5001,3,27.0-28.0,1179648,9437184
20140224181937,10.0.0.1,45570,10.0.0.2,5001,3,28.0-29.0,1179648,9437184
20140224181938,10.0.0.1,45570,10.0.0.2,5001,3,29.0-30.0,1310720,10485760
20140224181938,10.0.0.1,45570,10.0.0.2,5001,3,0.0-30.3,36438016,9633430
